%!PS-Adobe-2.0 EPSF-2.0
%%Title: class2-roc.eps
%%Creator: gnuplot 3.7 patchlevel 1
%%CreationDate: Mon Apr 22 09:31:02 2002
%%DocumentFonts: (atend)
%%BoundingBox: 50 50 410 302
%%Orientation: Portrait
%%EndComments
/gnudict 256 dict def
gnudict begin
/Color false def
/Solid false def
/gnulinewidth 5.000 def
/userlinewidth gnulinewidth def
/vshift -46 def
/dl {10 mul} def
/hpt_ 31.5 def
/vpt_ 31.5 def
/hpt hpt_ def
/vpt vpt_ def
/M {moveto} bind def
/L {lineto} bind def
/R {rmoveto} bind def
/V {rlineto} bind def
/vpt2 vpt 2 mul def
/hpt2 hpt 2 mul def
/Lshow { currentpoint stroke M
  0 vshift R show } def
/Rshow { currentpoint stroke M
  dup stringwidth pop neg vshift R show } def
/Cshow { currentpoint stroke M
  dup stringwidth pop -2 div vshift R show } def
/UP { dup vpt_ mul /vpt exch def hpt_ mul /hpt exch def
  /hpt2 hpt 2 mul def /vpt2 vpt 2 mul def } def
/DL { Color {setrgbcolor Solid {pop []} if 0 setdash }
 {pop pop pop Solid {pop []} if 0 setdash} ifelse } def
/BL { stroke userlinewidth 2 mul setlinewidth } def
/AL { stroke userlinewidth 2 div setlinewidth } def
/UL { dup gnulinewidth mul /userlinewidth exch def
      10 mul /udl exch def } def
/PL { stroke userlinewidth setlinewidth } def
/LTb { BL [] 0 0 0 DL } def
/LTa { AL [1 udl mul 2 udl mul] 0 setdash 0 0 0 setrgbcolor } def
/LT0 { PL [] 1 0 0 DL } def
/LT1 { PL [4 dl 2 dl] 0 1 0 DL } def
/LT2 { PL [2 dl 3 dl] 0 0 1 DL } def
/LT3 { PL [1 dl 1.5 dl] 1 0 1 DL } def
/LT4 { PL [5 dl 2 dl 1 dl 2 dl] 0 1 1 DL } def
/LT5 { PL [4 dl 3 dl 1 dl 3 dl] 1 1 0 DL } def
/LT6 { PL [2 dl 2 dl 2 dl 4 dl] 0 0 0 DL } def
/LT7 { PL [2 dl 2 dl 2 dl 2 dl 2 dl 4 dl] 1 0.3 0 DL } def
/LT8 { PL [2 dl 2 dl 2 dl 2 dl 2 dl 2 dl 2 dl 4 dl] 0.5 0.5 0.5 DL } def
/Pnt { stroke [] 0 setdash
   gsave 1 setlinecap M 0 0 V stroke grestore } def
/Dia { stroke [] 0 setdash 2 copy vpt add M
  hpt neg vpt neg V hpt vpt neg V
  hpt vpt V hpt neg vpt V closepath stroke
  Pnt } def
/Pls { stroke [] 0 setdash vpt sub M 0 vpt2 V
  currentpoint stroke M
  hpt neg vpt neg R hpt2 0 V stroke
  } def
/Box { stroke [] 0 setdash 2 copy exch hpt sub exch vpt add M
  0 vpt2 neg V hpt2 0 V 0 vpt2 V
  hpt2 neg 0 V closepath stroke
  Pnt } def
/Crs { stroke [] 0 setdash exch hpt sub exch vpt add M
  hpt2 vpt2 neg V currentpoint stroke M
  hpt2 neg 0 R hpt2 vpt2 V stroke } def
/TriU { stroke [] 0 setdash 2 copy vpt 1.12 mul add M
  hpt neg vpt -1.62 mul V
  hpt 2 mul 0 V
  hpt neg vpt 1.62 mul V closepath stroke
  Pnt  } def
/Star { 2 copy Pls Crs } def
/BoxF { stroke [] 0 setdash exch hpt sub exch vpt add M
  0 vpt2 neg V  hpt2 0 V  0 vpt2 V
  hpt2 neg 0 V  closepath fill } def
/TriUF { stroke [] 0 setdash vpt 1.12 mul add M
  hpt neg vpt -1.62 mul V
  hpt 2 mul 0 V
  hpt neg vpt 1.62 mul V closepath fill } def
/TriD { stroke [] 0 setdash 2 copy vpt 1.12 mul sub M
  hpt neg vpt 1.62 mul V
  hpt 2 mul 0 V
  hpt neg vpt -1.62 mul V closepath stroke
  Pnt  } def
/TriDF { stroke [] 0 setdash vpt 1.12 mul sub M
  hpt neg vpt 1.62 mul V
  hpt 2 mul 0 V
  hpt neg vpt -1.62 mul V closepath fill} def
/DiaF { stroke [] 0 setdash vpt add M
  hpt neg vpt neg V hpt vpt neg V
  hpt vpt V hpt neg vpt V closepath fill } def
/Pent { stroke [] 0 setdash 2 copy gsave
  translate 0 hpt M 4 {72 rotate 0 hpt L} repeat
  closepath stroke grestore Pnt } def
/PentF { stroke [] 0 setdash gsave
  translate 0 hpt M 4 {72 rotate 0 hpt L} repeat
  closepath fill grestore } def
/Circle { stroke [] 0 setdash 2 copy
  hpt 0 360 arc stroke Pnt } def
/CircleF { stroke [] 0 setdash hpt 0 360 arc fill } def
/C0 { BL [] 0 setdash 2 copy moveto vpt 90 450  arc } bind def
/C1 { BL [] 0 setdash 2 copy        moveto
       2 copy  vpt 0 90 arc closepath fill
               vpt 0 360 arc closepath } bind def
/C2 { BL [] 0 setdash 2 copy moveto
       2 copy  vpt 90 180 arc closepath fill
               vpt 0 360 arc closepath } bind def
/C3 { BL [] 0 setdash 2 copy moveto
       2 copy  vpt 0 180 arc closepath fill
               vpt 0 360 arc closepath } bind def
/C4 { BL [] 0 setdash 2 copy moveto
       2 copy  vpt 180 270 arc closepath fill
               vpt 0 360 arc closepath } bind def
/C5 { BL [] 0 setdash 2 copy moveto
       2 copy  vpt 0 90 arc
       2 copy moveto
       2 copy  vpt 180 270 arc closepath fill
               vpt 0 360 arc } bind def
/C6 { BL [] 0 setdash 2 copy moveto
      2 copy  vpt 90 270 arc closepath fill
              vpt 0 360 arc closepath } bind def
/C7 { BL [] 0 setdash 2 copy moveto
      2 copy  vpt 0 270 arc closepath fill
              vpt 0 360 arc closepath } bind def
/C8 { BL [] 0 setdash 2 copy moveto
      2 copy vpt 270 360 arc closepath fill
              vpt 0 360 arc closepath } bind def
/C9 { BL [] 0 setdash 2 copy moveto
      2 copy  vpt 270 450 arc closepath fill
              vpt 0 360 arc closepath } bind def
/C10 { BL [] 0 setdash 2 copy 2 copy moveto vpt 270 360 arc closepath fill
       2 copy moveto
       2 copy vpt 90 180 arc closepath fill
               vpt 0 360 arc closepath } bind def
/C11 { BL [] 0 setdash 2 copy moveto
       2 copy  vpt 0 180 arc closepath fill
       2 copy moveto
       2 copy  vpt 270 360 arc closepath fill
               vpt 0 360 arc closepath } bind def
/C12 { BL [] 0 setdash 2 copy moveto
       2 copy  vpt 180 360 arc closepath fill
               vpt 0 360 arc closepath } bind def
/C13 { BL [] 0 setdash  2 copy moveto
       2 copy  vpt 0 90 arc closepath fill
       2 copy moveto
       2 copy  vpt 180 360 arc closepath fill
               vpt 0 360 arc closepath } bind def
/C14 { BL [] 0 setdash 2 copy moveto
       2 copy  vpt 90 360 arc closepath fill
               vpt 0 360 arc } bind def
/C15 { BL [] 0 setdash 2 copy vpt 0 360 arc closepath fill
               vpt 0 360 arc closepath } bind def
/Rec   { newpath 4 2 roll moveto 1 index 0 rlineto 0 exch rlineto
       neg 0 rlineto closepath } bind def
/Square { dup Rec } bind def
/Bsquare { vpt sub exch vpt sub exch vpt2 Square } bind def
/S0 { BL [] 0 setdash 2 copy moveto 0 vpt rlineto BL Bsquare } bind def
/S1 { BL [] 0 setdash 2 copy vpt Square fill Bsquare } bind def
/S2 { BL [] 0 setdash 2 copy exch vpt sub exch vpt Square fill Bsquare } bind def
/S3 { BL [] 0 setdash 2 copy exch vpt sub exch vpt2 vpt Rec fill Bsquare } bind def
/S4 { BL [] 0 setdash 2 copy exch vpt sub exch vpt sub vpt Square fill Bsquare } bind def
/S5 { BL [] 0 setdash 2 copy 2 copy vpt Square fill
       exch vpt sub exch vpt sub vpt Square fill Bsquare } bind def
/S6 { BL [] 0 setdash 2 copy exch vpt sub exch vpt sub vpt vpt2 Rec fill Bsquare } bind def
/S7 { BL [] 0 setdash 2 copy exch vpt sub exch vpt sub vpt vpt2 Rec fill
       2 copy vpt Square fill
       Bsquare } bind def
/S8 { BL [] 0 setdash 2 copy vpt sub vpt Square fill Bsquare } bind def
/S9 { BL [] 0 setdash 2 copy vpt sub vpt vpt2 Rec fill Bsquare } bind def
/S10 { BL [] 0 setdash 2 copy vpt sub vpt Square fill 2 copy exch vpt sub exch vpt Square fill
       Bsquare } bind def
/S11 { BL [] 0 setdash 2 copy vpt sub vpt Square fill 2 copy exch vpt sub exch vpt2 vpt Rec fill
       Bsquare } bind def
/S12 { BL [] 0 setdash 2 copy exch vpt sub exch vpt sub vpt2 vpt Rec fill Bsquare } bind def
/S13 { BL [] 0 setdash 2 copy exch vpt sub exch vpt sub vpt2 vpt Rec fill
       2 copy vpt Square fill Bsquare } bind def
/S14 { BL [] 0 setdash 2 copy exch vpt sub exch vpt sub vpt2 vpt Rec fill
       2 copy exch vpt sub exch vpt Square fill Bsquare } bind def
/S15 { BL [] 0 setdash 2 copy Bsquare fill Bsquare } bind def
/D0 { gsave translate 45 rotate 0 0 S0 stroke grestore } bind def
/D1 { gsave translate 45 rotate 0 0 S1 stroke grestore } bind def
/D2 { gsave translate 45 rotate 0 0 S2 stroke grestore } bind def
/D3 { gsave translate 45 rotate 0 0 S3 stroke grestore } bind def
/D4 { gsave translate 45 rotate 0 0 S4 stroke grestore } bind def
/D5 { gsave translate 45 rotate 0 0 S5 stroke grestore } bind def
/D6 { gsave translate 45 rotate 0 0 S6 stroke grestore } bind def
/D7 { gsave translate 45 rotate 0 0 S7 stroke grestore } bind def
/D8 { gsave translate 45 rotate 0 0 S8 stroke grestore } bind def
/D9 { gsave translate 45 rotate 0 0 S9 stroke grestore } bind def
/D10 { gsave translate 45 rotate 0 0 S10 stroke grestore } bind def
/D11 { gsave translate 45 rotate 0 0 S11 stroke grestore } bind def
/D12 { gsave translate 45 rotate 0 0 S12 stroke grestore } bind def
/D13 { gsave translate 45 rotate 0 0 S13 stroke grestore } bind def
/D14 { gsave translate 45 rotate 0 0 S14 stroke grestore } bind def
/D15 { gsave translate 45 rotate 0 0 S15 stroke grestore } bind def
/DiaE { stroke [] 0 setdash vpt add M
  hpt neg vpt neg V hpt vpt neg V
  hpt vpt V hpt neg vpt V closepath stroke } def
/BoxE { stroke [] 0 setdash exch hpt sub exch vpt add M
  0 vpt2 neg V hpt2 0 V 0 vpt2 V
  hpt2 neg 0 V closepath stroke } def
/TriUE { stroke [] 0 setdash vpt 1.12 mul add M
  hpt neg vpt -1.62 mul V
  hpt 2 mul 0 V
  hpt neg vpt 1.62 mul V closepath stroke } def
/TriDE { stroke [] 0 setdash vpt 1.12 mul sub M
  hpt neg vpt 1.62 mul V
  hpt 2 mul 0 V
  hpt neg vpt -1.62 mul V closepath stroke } def
/PentE { stroke [] 0 setdash gsave
  translate 0 hpt M 4 {72 rotate 0 hpt L} repeat
  closepath stroke grestore } def
/CircE { stroke [] 0 setdash 
  hpt 0 360 arc stroke } def
/Opaque { gsave closepath 1 setgray fill grestore 0 setgray closepath } def
/DiaW { stroke [] 0 setdash vpt add M
  hpt neg vpt neg V hpt vpt neg V
  hpt vpt V hpt neg vpt V Opaque stroke } def
/BoxW { stroke [] 0 setdash exch hpt sub exch vpt add M
  0 vpt2 neg V hpt2 0 V 0 vpt2 V
  hpt2 neg 0 V Opaque stroke } def
/TriUW { stroke [] 0 setdash vpt 1.12 mul add M
  hpt neg vpt -1.62 mul V
  hpt 2 mul 0 V
  hpt neg vpt 1.62 mul V Opaque stroke } def
/TriDW { stroke [] 0 setdash vpt 1.12 mul sub M
  hpt neg vpt 1.62 mul V
  hpt 2 mul 0 V
  hpt neg vpt -1.62 mul V Opaque stroke } def
/PentW { stroke [] 0 setdash gsave
  translate 0 hpt M 4 {72 rotate 0 hpt L} repeat
  Opaque stroke grestore } def
/CircW { stroke [] 0 setdash 
  hpt 0 360 arc Opaque stroke } def
/BoxFill { gsave Rec 1 setgray fill grestore } def
end
%%EndProlog
gnudict begin
gsave
50 50 translate
0.050 0.050 scale
0 setgray
newpath
(Helvetica) findfont 140 scalefont setfont
1.000 UL
LTb
1.000 UL
LTa
630 1680 M
2012 0 V
1.000 UL
LTb
630 1680 M
63 0 V
1949 0 R
-63 0 V
-2033 0 R
(0) Rshow
1.000 UL
LTa
630 1848 M
2012 0 V
1.000 UL
LTb
630 1848 M
63 0 V
1949 0 R
-63 0 V
-2033 0 R
(0.1) Rshow
1.000 UL
LTa
630 2016 M
2012 0 V
1.000 UL
LTb
630 2016 M
63 0 V
1949 0 R
-63 0 V
-2033 0 R
(0.2) Rshow
1.000 UL
LTa
630 2184 M
2012 0 V
1.000 UL
LTb
630 2184 M
63 0 V
1949 0 R
-63 0 V
-2033 0 R
(0.3) Rshow
1.000 UL
LTa
630 2352 M
2012 0 V
1.000 UL
LTb
630 2352 M
63 0 V
1949 0 R
-63 0 V
-2033 0 R
(0.4) Rshow
1.000 UL
LTa
630 2520 M
2012 0 V
1.000 UL
LTb
630 2520 M
63 0 V
1949 0 R
-63 0 V
-2033 0 R
(0.5) Rshow
1.000 UL
LTa
630 2688 M
2012 0 V
1.000 UL
LTb
630 2688 M
63 0 V
1949 0 R
-63 0 V
-2033 0 R
(0.6) Rshow
1.000 UL
LTa
630 2856 M
2012 0 V
1.000 UL
LTb
630 2856 M
63 0 V
1949 0 R
-63 0 V
-2033 0 R
(0.7) Rshow
1.000 UL
LTa
630 3024 M
2012 0 V
1.000 UL
LTb
630 3024 M
63 0 V
1949 0 R
-63 0 V
-2033 0 R
(0.8) Rshow
1.000 UL
LTa
630 3192 M
2012 0 V
1.000 UL
LTb
630 3192 M
63 0 V
1949 0 R
-63 0 V
-2033 0 R
(0.9) Rshow
1.000 UL
LTa
630 3360 M
2012 0 V
1.000 UL
LTb
630 3360 M
63 0 V
1949 0 R
-63 0 V
-2033 0 R
(1) Rshow
1.000 UL
LTa
630 1680 M
0 1680 V
1.000 UL
LTb
630 1680 M
0 63 V
0 1617 R
0 -63 V
0 -1757 R
(0) Cshow
1.000 UL
LTa
1032 1680 M
0 1680 V
1.000 UL
LTb
1032 1680 M
0 63 V
0 1617 R
0 -63 V
0 -1757 R
(0.2) Cshow
1.000 UL
LTa
1435 1680 M
0 1680 V
1.000 UL
LTb
1435 1680 M
0 63 V
0 1617 R
0 -63 V
0 -1757 R
(0.4) Cshow
1.000 UL
LTa
1837 1680 M
0 1680 V
1.000 UL
LTb
1837 1680 M
0 63 V
0 1617 R
0 -63 V
0 -1757 R
(0.6) Cshow
1.000 UL
LTa
2240 1680 M
0 1617 V
0 63 V
1.000 UL
LTb
2240 1680 M
0 63 V
0 1617 R
0 -63 V
0 -1757 R
(0.8) Cshow
1.000 UL
LTa
2642 1680 M
0 1680 V
1.000 UL
LTb
2642 1680 M
0 63 V
0 1617 R
0 -63 V
0 -1757 R
(1) Cshow
1.000 UL
LTb
630 1680 M
2012 0 V
0 1680 V
-2012 0 V
0 -1680 V
140 2520 M
currentpoint gsave translate 90 rotate 0 0 M
(% inside) Cshow
grestore
1636 1330 M
(% outside) Cshow
1636 3570 M
(ROC curve for class 2 <total area 0.92>) Cshow
1.000 UP
1.000 UL
LT0
630 1689 M
0 9 V
0 9 V
0 9 V
0 9 V
0 9 V
0 9 V
0 8 V
0 9 V
0 9 V
0 9 V
0 9 V
0 9 V
0 9 V
0 9 V
0 9 V
0 9 V
0 9 V
0 9 V
0 9 V
0 9 V
0 9 V
0 9 V
0 8 V
0 9 V
0 9 V
0 9 V
0 9 V
0 9 V
0 9 V
0 9 V
0 9 V
0 9 V
0 9 V
0 9 V
4 0 V
0 9 V
0 9 V
0 9 V
0 9 V
0 8 V
0 9 V
0 9 V
0 9 V
0 9 V
0 9 V
0 9 V
0 9 V
0 9 V
0 9 V
0 9 V
0 9 V
0 9 V
0 9 V
0 9 V
0 8 V
0 9 V
0 9 V
0 9 V
0 9 V
0 9 V
0 9 V
0 9 V
0 9 V
0 9 V
0 9 V
0 9 V
0 9 V
0 9 V
0 9 V
0 9 V
0 8 V
0 9 V
0 9 V
0 9 V
0 9 V
0 9 V
0 9 V
0 9 V
0 9 V
0 9 V
0 9 V
0 9 V
0 9 V
0 9 V
0 9 V
0 9 V
0 8 V
0 9 V
0 9 V
0 9 V
0 9 V
0 9 V
0 9 V
3 0 V
0 9 V
0 9 V
4 0 V
0 9 V
0 9 V
0 9 V
0 9 V
3 0 V
0 9 V
4 0 V
3 0 V
0 9 V
4 0 V
4 0 V
0 8 V
0 9 V
0 9 V
0 9 V
3 0 V
4 0 V
0 9 V
3 0 V
0 9 V
4 0 V
3 0 V
4 0 V
4 0 V
0 9 V
0 9 V
0 9 V
0 9 V
3 0 V
4 0 V
3 0 V
4 0 V
0 9 V
3 0 V
4 0 V
4 0 V
0 9 V
3 0 V
4 0 V
3 0 V
4 0 V
0 9 V
3 0 V
4 0 V
4 0 V
3 0 V
4 0 V
3 0 V
4 0 V
4 0 V
3 0 V
4 0 V
3 0 V
4 0 V
3 0 V
4 0 V
4 0 V
3 0 V
4 0 V
3 0 V
4 0 V
3 0 V
4 0 V
4 0 V
3 0 V
4 0 V
0 9 V
3 0 V
4 0 V
0 9 V
3 0 V
0 9 V
4 0 V
4 0 V
0 8 V
0 9 V
3 0 V
4 0 V
0 9 V
3 0 V
4 0 V
0 9 V
3 0 V
0 9 V
0 9 V
4 0 V
4 0 V
0 9 V
0 9 V
3 0 V
4 0 V
3 0 V
0 9 V
0 9 V
0 9 V
4 0 V
0 9 V
3 0 V
0 9 V
0 9 V
4 0 V
4 0 V
3 0 V
0 9 V
0 9 V
0 8 V
0 9 V
0 9 V
4 0 V
3 0 V
0 9 V
4 0 V
3 0 V
4 0 V
0 9 V
4 0 V
3 0 V
4 0 V
3 0 V
4 0 V
3 0 V
4 0 V
0 9 V
4 0 V
0 9 V
3 0 V
4 0 V
3 0 V
0 9 V
0 9 V
4 0 V
3 0 V
0 9 V
4 0 V
0 9 V
4 0 V
3 0 V
4 0 V
3 0 V
0 9 V
4 0 V
4 0 V
3 0 V
4 0 V
3 0 V
4 0 V
0 9 V
0 9 V
3 0 V
0 9 V
4 0 V
0 8 V
4 0 V
0 9 V
0 9 V
3 0 V
4 0 V
3 0 V
4 0 V
3 0 V
4 0 V
4 0 V
3 0 V
4 0 V
3 0 V
4 0 V
0 9 V
0 9 V
3 0 V
4 0 V
4 0 V
3 0 V
4 0 V
0 9 V
0 9 V
3 0 V
4 0 V
3 0 V
4 0 V
0 9 V
0 9 V
4 0 V
3 0 V
4 0 V
3 0 V
0 9 V
0 9 V
0 9 V
4 0 V
3 0 V
4 0 V
4 0 V
0 9 V
3 0 V
4 0 V
3 0 V
4 0 V
3 0 V
0 9 V
0 9 V
4 0 V
4 0 V
0 9 V
0 8 V
3 0 V
4 0 V
0 9 V
0 9 V
3 0 V
4 0 V
3 0 V
4 0 V
0 9 V
4 0 V
0 9 V
0 9 V
3 0 V
0 9 V
4 0 V
3 0 V
4 0 V
0 9 V
3 0 V
0 9 V
4 0 V
4 0 V
3 0 V
4 0 V
3 0 V
4 0 V
0 9 V
3 0 V
4 0 V
0 9 V
4 0 V
3 0 V
0 9 V
4 0 V
3 0 V
4 0 V
4 0 V
3 0 V
4 0 V
3 0 V
0 9 V
4 0 V
3 0 V
4 0 V
4 0 V
3 0 V
0 9 V
4 0 V
3 0 V
4 0 V
3 0 V
4 0 V
4 0 V
3 0 V
4 0 V
3 0 V
4 0 V
0 9 V
3 0 V
4 0 V
4 0 V
3 0 V
0 9 V
4 0 V
0 8 V
0 9 V
3 0 V
0 9 V
4 0 V
3 0 V
4 0 V
0 9 V
0 9 V
4 0 V
0 9 V
3 0 V
4 0 V
3 0 V
4 0 V
3 0 V
4 0 V
4 0 V
3 0 V
4 0 V
3 0 V
4 0 V
3 0 V
4 0 V
4 0 V
3 0 V
4 0 V
0 9 V
3 0 V
4 0 V
3 0 V
4 0 V
4 0 V
3 0 V
currentpoint stroke M
4 0 V
3 0 V
4 0 V
3 0 V
4 0 V
4 0 V
3 0 V
4 0 V
3 0 V
4 0 V
4 0 V
3 0 V
4 0 V
3 0 V
4 0 V
3 0 V
4 0 V
4 0 V
3 0 V
4 0 V
3 0 V
4 0 V
3 0 V
4 0 V
4 0 V
3 0 V
4 0 V
3 0 V
4 0 V
3 0 V
4 0 V
4 0 V
3 0 V
4 0 V
3 0 V
4 0 V
3 0 V
4 0 V
4 0 V
3 0 V
4 0 V
3 0 V
4 0 V
3 0 V
4 0 V
4 0 V
3 0 V
4 0 V
3 0 V
4 0 V
3 0 V
4 0 V
4 0 V
3 0 V
4 0 V
3 0 V
4 0 V
3 0 V
4 0 V
4 0 V
3 0 V
4 0 V
3 0 V
4 0 V
3 0 V
4 0 V
4 0 V
3 0 V
4 0 V
3 0 V
4 0 V
4 0 V
3 0 V
4 0 V
3 0 V
4 0 V
3 0 V
4 0 V
4 0 V
3 0 V
4 0 V
3 0 V
4 0 V
3 0 V
4 0 V
4 0 V
3 0 V
4 0 V
3 0 V
4 0 V
3 0 V
4 0 V
4 0 V
3 0 V
4 0 V
3 0 V
4 0 V
3 0 V
4 0 V
4 0 V
3 0 V
4 0 V
3 0 V
4 0 V
3 0 V
4 0 V
4 0 V
3 0 V
4 0 V
3 0 V
4 0 V
3 0 V
4 0 V
4 0 V
3 0 V
4 0 V
3 0 V
4 0 V
3 0 V
4 0 V
4 0 V
3 0 V
4 0 V
3 0 V
4 0 V
3 0 V
4 0 V
4 0 V
3 0 V
4 0 V
3 0 V
4 0 V
4 0 V
3 0 V
4 0 V
3 0 V
4 0 V
3 0 V
4 0 V
4 0 V
3 0 V
4 0 V
3 0 V
4 0 V
3 0 V
4 0 V
4 0 V
3 0 V
4 0 V
3 0 V
4 0 V
3 0 V
4 0 V
4 0 V
3 0 V
4 0 V
3 0 V
4 0 V
3 0 V
4 0 V
4 0 V
3 0 V
4 0 V
3 0 V
4 0 V
3 0 V
4 0 V
4 0 V
3 0 V
4 0 V
3 0 V
4 0 V
3 0 V
4 0 V
4 0 V
3 0 V
4 0 V
3 0 V
4 0 V
3 0 V
4 0 V
4 0 V
3 0 V
4 0 V
3 0 V
4 0 V
3 0 V
4 0 V
4 0 V
3 0 V
4 0 V
3 0 V
4 0 V
4 0 V
3 0 V
4 0 V
3 0 V
4 0 V
3 0 V
4 0 V
4 0 V
3 0 V
4 0 V
3 0 V
4 0 V
3 0 V
4 0 V
4 0 V
3 0 V
4 0 V
3 0 V
4 0 V
3 0 V
4 0 V
4 0 V
3 0 V
4 0 V
3 0 V
4 0 V
3 0 V
4 0 V
4 0 V
3 0 V
4 0 V
3 0 V
4 0 V
3 0 V
4 0 V
4 0 V
3 0 V
4 0 V
3 0 V
4 0 V
3 0 V
4 0 V
4 0 V
3 0 V
4 0 V
3 0 V
4 0 V
3 0 V
4 0 V
4 0 V
3 0 V
4 0 V
3 0 V
4 0 V
3 0 V
4 0 V
4 0 V
3 0 V
4 0 V
3 0 V
4 0 V
3 0 V
4 0 V
4 0 V
3 0 V
4 0 V
3 0 V
4 0 V
4 0 V
3 0 V
4 0 V
3 0 V
4 0 V
3 0 V
4 0 V
4 0 V
3 0 V
4 0 V
3 0 V
4 0 V
3 0 V
4 0 V
4 0 V
3 0 V
4 0 V
3 0 V
4 0 V
3 0 V
4 0 V
4 0 V
3 0 V
4 0 V
3 0 V
4 0 V
3 0 V
4 0 V
4 0 V
3 0 V
4 0 V
3 0 V
4 0 V
3 0 V
4 0 V
4 0 V
3 0 V
4 0 V
3 0 V
4 0 V
3 0 V
4 0 V
4 0 V
3 0 V
4 0 V
3 0 V
4 0 V
3 0 V
4 0 V
4 0 V
3 0 V
4 0 V
3 0 V
4 0 V
3 0 V
4 0 V
4 0 V
3 0 V
4 0 V
3 0 V
4 0 V
4 0 V
3 0 V
4 0 V
3 0 V
4 0 V
3 0 V
4 0 V
4 0 V
3 0 V
4 0 V
3 0 V
4 0 V
3 0 V
4 0 V
4 0 V
3 0 V
4 0 V
3 0 V
4 0 V
3 0 V
4 0 V
4 0 V
3 0 V
4 0 V
3 0 V
4 0 V
3 0 V
4 0 V
0 9 V
630 1689 Pls
630 1698 Pls
630 1707 Pls
630 1716 Pls
630 1725 Pls
630 1734 Pls
630 1743 Pls
630 1751 Pls
630 1760 Pls
630 1769 Pls
630 1778 Pls
630 1787 Pls
630 1796 Pls
630 1805 Pls
630 1814 Pls
630 1823 Pls
630 1832 Pls
630 1841 Pls
630 1850 Pls
630 1859 Pls
630 1868 Pls
630 1877 Pls
630 1886 Pls
630 1894 Pls
630 1903 Pls
630 1912 Pls
630 1921 Pls
630 1930 Pls
630 1939 Pls
630 1948 Pls
630 1957 Pls
630 1966 Pls
630 1975 Pls
630 1984 Pls
630 1993 Pls
634 1993 Pls
634 2002 Pls
634 2011 Pls
634 2020 Pls
634 2029 Pls
634 2037 Pls
634 2046 Pls
634 2055 Pls
634 2064 Pls
634 2073 Pls
634 2082 Pls
634 2091 Pls
634 2100 Pls
634 2109 Pls
634 2118 Pls
634 2127 Pls
634 2136 Pls
634 2145 Pls
634 2154 Pls
634 2163 Pls
634 2171 Pls
634 2180 Pls
634 2189 Pls
634 2198 Pls
634 2207 Pls
634 2216 Pls
634 2225 Pls
634 2234 Pls
634 2243 Pls
634 2252 Pls
634 2261 Pls
634 2270 Pls
634 2279 Pls
634 2288 Pls
634 2297 Pls
634 2306 Pls
634 2314 Pls
634 2323 Pls
634 2332 Pls
634 2341 Pls
634 2350 Pls
634 2359 Pls
634 2368 Pls
634 2377 Pls
634 2386 Pls
634 2395 Pls
634 2404 Pls
634 2413 Pls
634 2422 Pls
634 2431 Pls
634 2440 Pls
634 2449 Pls
634 2457 Pls
634 2466 Pls
634 2475 Pls
634 2484 Pls
634 2493 Pls
634 2502 Pls
634 2511 Pls
637 2511 Pls
637 2520 Pls
637 2529 Pls
641 2529 Pls
641 2538 Pls
641 2547 Pls
641 2556 Pls
641 2565 Pls
644 2565 Pls
644 2574 Pls
648 2574 Pls
651 2574 Pls
651 2583 Pls
655 2583 Pls
659 2583 Pls
659 2591 Pls
659 2600 Pls
659 2609 Pls
659 2618 Pls
662 2618 Pls
666 2618 Pls
666 2627 Pls
669 2627 Pls
669 2636 Pls
673 2636 Pls
676 2636 Pls
680 2636 Pls
684 2636 Pls
684 2645 Pls
684 2654 Pls
684 2663 Pls
684 2672 Pls
687 2672 Pls
691 2672 Pls
694 2672 Pls
698 2672 Pls
698 2681 Pls
701 2681 Pls
705 2681 Pls
709 2681 Pls
709 2690 Pls
712 2690 Pls
716 2690 Pls
719 2690 Pls
723 2690 Pls
723 2699 Pls
726 2699 Pls
730 2699 Pls
734 2699 Pls
737 2699 Pls
741 2699 Pls
744 2699 Pls
748 2699 Pls
752 2699 Pls
755 2699 Pls
759 2699 Pls
762 2699 Pls
766 2699 Pls
769 2699 Pls
773 2699 Pls
777 2699 Pls
780 2699 Pls
784 2699 Pls
787 2699 Pls
791 2699 Pls
794 2699 Pls
798 2699 Pls
802 2699 Pls
805 2699 Pls
809 2699 Pls
809 2708 Pls
812 2708 Pls
816 2708 Pls
816 2717 Pls
819 2717 Pls
819 2726 Pls
823 2726 Pls
827 2726 Pls
827 2734 Pls
827 2743 Pls
830 2743 Pls
834 2743 Pls
834 2752 Pls
837 2752 Pls
841 2752 Pls
841 2761 Pls
844 2761 Pls
844 2770 Pls
844 2779 Pls
848 2779 Pls
852 2779 Pls
852 2788 Pls
852 2797 Pls
855 2797 Pls
859 2797 Pls
862 2797 Pls
862 2806 Pls
862 2815 Pls
862 2824 Pls
866 2824 Pls
866 2833 Pls
869 2833 Pls
869 2842 Pls
869 2851 Pls
873 2851 Pls
877 2851 Pls
880 2851 Pls
880 2860 Pls
880 2869 Pls
880 2877 Pls
880 2886 Pls
880 2895 Pls
884 2895 Pls
887 2895 Pls
887 2904 Pls
891 2904 Pls
894 2904 Pls
898 2904 Pls
898 2913 Pls
902 2913 Pls
905 2913 Pls
909 2913 Pls
912 2913 Pls
916 2913 Pls
919 2913 Pls
923 2913 Pls
923 2922 Pls
927 2922 Pls
927 2931 Pls
930 2931 Pls
934 2931 Pls
937 2931 Pls
937 2940 Pls
937 2949 Pls
941 2949 Pls
944 2949 Pls
944 2958 Pls
948 2958 Pls
948 2967 Pls
952 2967 Pls
955 2967 Pls
959 2967 Pls
962 2967 Pls
962 2976 Pls
966 2976 Pls
970 2976 Pls
973 2976 Pls
977 2976 Pls
980 2976 Pls
984 2976 Pls
984 2985 Pls
984 2994 Pls
987 2994 Pls
987 3003 Pls
991 3003 Pls
991 3011 Pls
995 3011 Pls
995 3020 Pls
995 3029 Pls
998 3029 Pls
1002 3029 Pls
1005 3029 Pls
1009 3029 Pls
1012 3029 Pls
1016 3029 Pls
1020 3029 Pls
1023 3029 Pls
1027 3029 Pls
1030 3029 Pls
1034 3029 Pls
1034 3038 Pls
1034 3047 Pls
1037 3047 Pls
1041 3047 Pls
1045 3047 Pls
1048 3047 Pls
1052 3047 Pls
1052 3056 Pls
1052 3065 Pls
1055 3065 Pls
1059 3065 Pls
1062 3065 Pls
1066 3065 Pls
1066 3074 Pls
1066 3083 Pls
1070 3083 Pls
1073 3083 Pls
1077 3083 Pls
1080 3083 Pls
1080 3092 Pls
1080 3101 Pls
1080 3110 Pls
1084 3110 Pls
1087 3110 Pls
1091 3110 Pls
1095 3110 Pls
1095 3119 Pls
1098 3119 Pls
1102 3119 Pls
1105 3119 Pls
1109 3119 Pls
1112 3119 Pls
1112 3128 Pls
1112 3137 Pls
1116 3137 Pls
1120 3137 Pls
1120 3146 Pls
1120 3154 Pls
1123 3154 Pls
1127 3154 Pls
1127 3163 Pls
1127 3172 Pls
1130 3172 Pls
1134 3172 Pls
1137 3172 Pls
1141 3172 Pls
1141 3181 Pls
1145 3181 Pls
1145 3190 Pls
1145 3199 Pls
1148 3199 Pls
1148 3208 Pls
1152 3208 Pls
1155 3208 Pls
1159 3208 Pls
1159 3217 Pls
1162 3217 Pls
1162 3226 Pls
1166 3226 Pls
1170 3226 Pls
1173 3226 Pls
1177 3226 Pls
1180 3226 Pls
1184 3226 Pls
1184 3235 Pls
1187 3235 Pls
1191 3235 Pls
1191 3244 Pls
1195 3244 Pls
1198 3244 Pls
1198 3253 Pls
1202 3253 Pls
1205 3253 Pls
1209 3253 Pls
1213 3253 Pls
1216 3253 Pls
1220 3253 Pls
1223 3253 Pls
1223 3262 Pls
1227 3262 Pls
1230 3262 Pls
1234 3262 Pls
1238 3262 Pls
1241 3262 Pls
1241 3271 Pls
1245 3271 Pls
1248 3271 Pls
1252 3271 Pls
1255 3271 Pls
1259 3271 Pls
1263 3271 Pls
1266 3271 Pls
1270 3271 Pls
1273 3271 Pls
1277 3271 Pls
1277 3280 Pls
1280 3280 Pls
1284 3280 Pls
1288 3280 Pls
1291 3280 Pls
1291 3289 Pls
1295 3289 Pls
1295 3297 Pls
1295 3306 Pls
1298 3306 Pls
1298 3315 Pls
1302 3315 Pls
1305 3315 Pls
1309 3315 Pls
1309 3324 Pls
1309 3333 Pls
1313 3333 Pls
1313 3342 Pls
1316 3342 Pls
1320 3342 Pls
1323 3342 Pls
1327 3342 Pls
1330 3342 Pls
1334 3342 Pls
1338 3342 Pls
1341 3342 Pls
1345 3342 Pls
1348 3342 Pls
1352 3342 Pls
1355 3342 Pls
1359 3342 Pls
1363 3342 Pls
1366 3342 Pls
1370 3342 Pls
1370 3351 Pls
1373 3351 Pls
1377 3351 Pls
1380 3351 Pls
1384 3351 Pls
1388 3351 Pls
1391 3351 Pls
1395 3351 Pls
1398 3351 Pls
1402 3351 Pls
1405 3351 Pls
1409 3351 Pls
1413 3351 Pls
1416 3351 Pls
1420 3351 Pls
1423 3351 Pls
1427 3351 Pls
1431 3351 Pls
1434 3351 Pls
1438 3351 Pls
1441 3351 Pls
1445 3351 Pls
1448 3351 Pls
1452 3351 Pls
1456 3351 Pls
1459 3351 Pls
1463 3351 Pls
1466 3351 Pls
1470 3351 Pls
1473 3351 Pls
1477 3351 Pls
1481 3351 Pls
1484 3351 Pls
1488 3351 Pls
1491 3351 Pls
1495 3351 Pls
1498 3351 Pls
1502 3351 Pls
1506 3351 Pls
1509 3351 Pls
1513 3351 Pls
1516 3351 Pls
1520 3351 Pls
1523 3351 Pls
1527 3351 Pls
1531 3351 Pls
1534 3351 Pls
1538 3351 Pls
1541 3351 Pls
1545 3351 Pls
1548 3351 Pls
1552 3351 Pls
1556 3351 Pls
1559 3351 Pls
1563 3351 Pls
1566 3351 Pls
1570 3351 Pls
1573 3351 Pls
1577 3351 Pls
1581 3351 Pls
1584 3351 Pls
1588 3351 Pls
1591 3351 Pls
1595 3351 Pls
1598 3351 Pls
1602 3351 Pls
1606 3351 Pls
1609 3351 Pls
1613 3351 Pls
1616 3351 Pls
1620 3351 Pls
1623 3351 Pls
1627 3351 Pls
1631 3351 Pls
1634 3351 Pls
1638 3351 Pls
1641 3351 Pls
1645 3351 Pls
1649 3351 Pls
1652 3351 Pls
1656 3351 Pls
1659 3351 Pls
1663 3351 Pls
1666 3351 Pls
1670 3351 Pls
1674 3351 Pls
1677 3351 Pls
1681 3351 Pls
1684 3351 Pls
1688 3351 Pls
1691 3351 Pls
1695 3351 Pls
1699 3351 Pls
1702 3351 Pls
1706 3351 Pls
1709 3351 Pls
1713 3351 Pls
1716 3351 Pls
1720 3351 Pls
1724 3351 Pls
1727 3351 Pls
1731 3351 Pls
1734 3351 Pls
1738 3351 Pls
1741 3351 Pls
1745 3351 Pls
1749 3351 Pls
1752 3351 Pls
1756 3351 Pls
1759 3351 Pls
1763 3351 Pls
1766 3351 Pls
1770 3351 Pls
1774 3351 Pls
1777 3351 Pls
1781 3351 Pls
1784 3351 Pls
1788 3351 Pls
1791 3351 Pls
1795 3351 Pls
1799 3351 Pls
1802 3351 Pls
1806 3351 Pls
1809 3351 Pls
1813 3351 Pls
1816 3351 Pls
1820 3351 Pls
1824 3351 Pls
1827 3351 Pls
1831 3351 Pls
1834 3351 Pls
1838 3351 Pls
1841 3351 Pls
1845 3351 Pls
1849 3351 Pls
1852 3351 Pls
1856 3351 Pls
1859 3351 Pls
1863 3351 Pls
1867 3351 Pls
1870 3351 Pls
1874 3351 Pls
1877 3351 Pls
1881 3351 Pls
1884 3351 Pls
1888 3351 Pls
1892 3351 Pls
1895 3351 Pls
1899 3351 Pls
1902 3351 Pls
1906 3351 Pls
1909 3351 Pls
1913 3351 Pls
1917 3351 Pls
1920 3351 Pls
1924 3351 Pls
1927 3351 Pls
1931 3351 Pls
1934 3351 Pls
1938 3351 Pls
1942 3351 Pls
1945 3351 Pls
1949 3351 Pls
1952 3351 Pls
1956 3351 Pls
1959 3351 Pls
1963 3351 Pls
1967 3351 Pls
1970 3351 Pls
1974 3351 Pls
1977 3351 Pls
1981 3351 Pls
1984 3351 Pls
1988 3351 Pls
1992 3351 Pls
1995 3351 Pls
1999 3351 Pls
2002 3351 Pls
2006 3351 Pls
2009 3351 Pls
2013 3351 Pls
2017 3351 Pls
2020 3351 Pls
2024 3351 Pls
2027 3351 Pls
2031 3351 Pls
2034 3351 Pls
2038 3351 Pls
2042 3351 Pls
2045 3351 Pls
2049 3351 Pls
2052 3351 Pls
2056 3351 Pls
2059 3351 Pls
2063 3351 Pls
2067 3351 Pls
2070 3351 Pls
2074 3351 Pls
2077 3351 Pls
2081 3351 Pls
2085 3351 Pls
2088 3351 Pls
2092 3351 Pls
2095 3351 Pls
2099 3351 Pls
2102 3351 Pls
2106 3351 Pls
2110 3351 Pls
2113 3351 Pls
2117 3351 Pls
2120 3351 Pls
2124 3351 Pls
2127 3351 Pls
2131 3351 Pls
2135 3351 Pls
2138 3351 Pls
2142 3351 Pls
2145 3351 Pls
2149 3351 Pls
2152 3351 Pls
2156 3351 Pls
2160 3351 Pls
2163 3351 Pls
2167 3351 Pls
2170 3351 Pls
2174 3351 Pls
2177 3351 Pls
2181 3351 Pls
2185 3351 Pls
2188 3351 Pls
2192 3351 Pls
2195 3351 Pls
2199 3351 Pls
2202 3351 Pls
2206 3351 Pls
2210 3351 Pls
2213 3351 Pls
2217 3351 Pls
2220 3351 Pls
2224 3351 Pls
2227 3351 Pls
2231 3351 Pls
2235 3351 Pls
2238 3351 Pls
2242 3351 Pls
2245 3351 Pls
2249 3351 Pls
2252 3351 Pls
2256 3351 Pls
2260 3351 Pls
2263 3351 Pls
2267 3351 Pls
2270 3351 Pls
2274 3351 Pls
2277 3351 Pls
2281 3351 Pls
2285 3351 Pls
2288 3351 Pls
2292 3351 Pls
2295 3351 Pls
2299 3351 Pls
2302 3351 Pls
2306 3351 Pls
2310 3351 Pls
2313 3351 Pls
2317 3351 Pls
2320 3351 Pls
2324 3351 Pls
2328 3351 Pls
2331 3351 Pls
2335 3351 Pls
2338 3351 Pls
2342 3351 Pls
2345 3351 Pls
2349 3351 Pls
2353 3351 Pls
2356 3351 Pls
2360 3351 Pls
2363 3351 Pls
2367 3351 Pls
2370 3351 Pls
2374 3351 Pls
2378 3351 Pls
2381 3351 Pls
2385 3351 Pls
2388 3351 Pls
2392 3351 Pls
2395 3351 Pls
2399 3351 Pls
2403 3351 Pls
2406 3351 Pls
2410 3351 Pls
2413 3351 Pls
2417 3351 Pls
2420 3351 Pls
2424 3351 Pls
2428 3351 Pls
2431 3351 Pls
2435 3351 Pls
2438 3351 Pls
2442 3351 Pls
2445 3351 Pls
2449 3351 Pls
2453 3351 Pls
2456 3351 Pls
2460 3351 Pls
2463 3351 Pls
2467 3351 Pls
2470 3351 Pls
2474 3351 Pls
2478 3351 Pls
2481 3351 Pls
2485 3351 Pls
2488 3351 Pls
2492 3351 Pls
2495 3351 Pls
2499 3351 Pls
2503 3351 Pls
2506 3351 Pls
2510 3351 Pls
2513 3351 Pls
2517 3351 Pls
2520 3351 Pls
2524 3351 Pls
2528 3351 Pls
2531 3351 Pls
2535 3351 Pls
2538 3351 Pls
2542 3351 Pls
2546 3351 Pls
2549 3351 Pls
2553 3351 Pls
2556 3351 Pls
2560 3351 Pls
2563 3351 Pls
2567 3351 Pls
2571 3351 Pls
2574 3351 Pls
2578 3351 Pls
2581 3351 Pls
2585 3351 Pls
2588 3351 Pls
2592 3351 Pls
2596 3351 Pls
2599 3351 Pls
2603 3351 Pls
2606 3351 Pls
2610 3351 Pls
2613 3351 Pls
2617 3351 Pls
2621 3351 Pls
2624 3351 Pls
2628 3351 Pls
2631 3351 Pls
2635 3351 Pls
2638 3351 Pls
2642 3351 Pls
2642 3360 Pls
1.000 UL
LTb
0.500 UL
LTa
4146 420 M
2816 0 V
1.000 UL
LTb
4146 420 M
63 0 V
2753 0 R
-63 0 V
-2837 0 R
(0) Rshow
0.500 UL
LTa
4146 588 M
2816 0 V
1.000 UL
LTb
4146 588 M
63 0 V
2753 0 R
-63 0 V
-2837 0 R
(2) Rshow
0.500 UL
LTa
4146 756 M
2816 0 V
1.000 UL
LTb
4146 756 M
63 0 V
2753 0 R
-63 0 V
-2837 0 R
(4) Rshow
0.500 UL
LTa
4146 924 M
2816 0 V
1.000 UL
LTb
4146 924 M
63 0 V
2753 0 R
-63 0 V
-2837 0 R
(6) Rshow
0.500 UL
LTa
4146 1092 M
2816 0 V
1.000 UL
LTb
4146 1092 M
63 0 V
2753 0 R
-63 0 V
-2837 0 R
(8) Rshow
0.500 UL
LTa
4146 1260 M
2816 0 V
1.000 UL
LTb
4146 1260 M
63 0 V
2753 0 R
-63 0 V
-2837 0 R
(10) Rshow
0.500 UL
LTa
4146 1428 M
2816 0 V
1.000 UL
LTb
4146 1428 M
63 0 V
2753 0 R
-63 0 V
-2837 0 R
(12) Rshow
0.500 UL
LTa
4146 1596 M
2816 0 V
1.000 UL
LTb
4146 1596 M
63 0 V
2753 0 R
-63 0 V
-2837 0 R
(14) Rshow
0.500 UL
LTa
4146 1764 M
2816 0 V
1.000 UL
LTb
4146 1764 M
63 0 V
2753 0 R
-63 0 V
-2837 0 R
(16) Rshow
0.500 UL
LTa
4146 1932 M
2816 0 V
1.000 UL
LTb
4146 1932 M
63 0 V
2753 0 R
-63 0 V
-2837 0 R
(18) Rshow
0.500 UL
LTa
4146 2100 M
2816 0 V
1.000 UL
LTb
4146 2100 M
63 0 V
2753 0 R
-63 0 V
-2837 0 R
(20) Rshow
0.500 UL
LTa
4146 420 M
0 1680 V
1.000 UL
LTb
4146 420 M
0 63 V
0 1617 R
0 -63 V
0 -1757 R
(0) Cshow
0.500 UL
LTa
4498 420 M
0 1680 V
1.000 UL
LTb
4498 420 M
0 63 V
0 1617 R
0 -63 V
0 -1757 R
(0.5) Cshow
0.500 UL
LTa
4850 420 M
0 1680 V
1.000 UL
LTb
4850 420 M
0 63 V
0 1617 R
0 -63 V
0 -1757 R
(1) Cshow
0.500 UL
LTa
5202 420 M
0 1680 V
1.000 UL
LTb
5202 420 M
0 63 V
0 1617 R
0 -63 V
0 -1757 R
(1.5) Cshow
0.500 UL
LTa
5554 420 M
0 1680 V
1.000 UL
LTb
5554 420 M
0 63 V
0 1617 R
0 -63 V
0 -1757 R
(2) Cshow
0.500 UL
LTa
5906 420 M
0 1680 V
1.000 UL
LTb
5906 420 M
0 63 V
0 1617 R
0 -63 V
0 -1757 R
(2.5) Cshow
0.500 UL
LTa
6258 420 M
0 1680 V
1.000 UL
LTb
6258 420 M
0 63 V
0 1617 R
0 -63 V
0 -1757 R
(3) Cshow
0.500 UL
LTa
6610 420 M
0 1617 V
0 63 V
1.000 UL
LTb
6610 420 M
0 63 V
0 1617 R
0 -63 V
0 -1757 R
(3.5) Cshow
0.500 UL
LTa
6962 420 M
0 1680 V
1.000 UL
LTb
6962 420 M
0 63 V
0 1617 R
0 -63 V
0 -1757 R
(4) Cshow
1.000 UL
LTb
4146 420 M
2816 0 V
0 1680 V
-2816 0 V
0 -1680 V
-406 840 R
currentpoint gsave translate 90 rotate 0 0 M
(# of data points) Cshow
grestore
5554 70 M
(Distance From Cluster Center) Cshow
5554 2310 M
(Inside the Cluster Histogram) Cshow
1.000 UL
LT0
4146 420 M
50 0 V
-50 0 V
50 0 R
50 0 V
-50 0 V
50 0 R
50 0 V
-50 0 V
50 0 R
50 0 V
-50 0 V
50 0 R
50 0 V
-50 0 V
50 0 R
50 0 V
-50 0 V
50 0 R
0 336 V
50 0 V
0 -336 V
-50 0 V
50 0 R
0 504 V
50 0 V
0 -504 V
-50 0 V
50 0 R
0 1428 V
50 0 V
0 -1428 V
-50 0 V
50 0 R
0 1344 V
50 0 V
0 -1344 V
-50 0 V
50 0 R
0 1176 V
50 0 V
0 -1176 V
-50 0 V
50 0 R
0 840 V
50 0 V
0 -840 V
-50 0 V
50 0 R
0 1596 V
50 0 V
0 -1596 V
-50 0 V
50 0 R
0 588 V
50 0 V
0 -588 V
-50 0 V
50 0 R
0 420 V
50 0 V
0 -420 V
-50 0 V
50 0 R
0 252 V
50 0 V
0 -252 V
-50 0 V
50 0 R
0 840 V
50 0 V
0 -840 V
-50 0 V
50 0 R
0 252 V
50 0 V
0 -252 V
-50 0 V
50 0 R
50 0 V
-50 0 V
50 0 R
0 504 V
50 0 V
0 -504 V
-50 0 V
50 0 R
0 924 V
50 0 V
0 -924 V
-50 0 V
50 0 R
0 672 V
50 0 V
0 -672 V
-50 0 V
50 0 R
0 504 V
50 0 V
0 -504 V
-50 0 V
50 0 R
0 1092 V
50 0 V
0 -1092 V
-50 0 V
50 0 R
0 1344 V
50 0 V
0 -1344 V
-50 0 V
50 0 R
0 504 V
50 0 V
0 -504 V
-50 0 V
50 0 R
0 504 V
50 0 V
0 -504 V
-50 0 V
50 0 R
50 0 V
-50 0 V
50 0 R
0 84 V
50 0 V
0 -84 V
-50 0 V
50 0 R
50 0 V
-50 0 V
50 0 R
50 0 V
-50 0 V
50 0 R
50 0 V
-50 0 V
50 0 R
50 0 V
-50 0 V
50 0 R
50 0 V
-50 0 V
50 0 R
50 0 V
-50 0 V
50 0 R
50 0 V
-50 0 V
50 0 R
50 0 V
-50 0 V
50 0 R
50 0 V
-50 0 V
50 0 R
50 0 V
-50 0 V
50 0 R
50 0 V
-50 0 V
50 0 R
50 0 V
-50 0 V
50 0 R
50 0 V
-50 0 V
50 0 R
50 0 V
-50 0 V
50 0 R
50 0 V
-50 0 V
50 0 R
50 0 V
-50 0 V
50 0 R
50 0 V
-50 0 V
50 0 R
50 0 V
-50 0 V
50 0 R
50 0 V
-50 0 V
50 0 R
50 0 V
-50 0 V
50 0 R
50 0 V
-50 0 V
1.000 UL
LTb
0.500 UL
LTa
4146 2940 M
2816 0 V
1.000 UL
LTb
4146 2940 M
63 0 V
2753 0 R
-63 0 V
-2837 0 R
(0) Rshow
0.500 UL
LTa
4146 3220 M
2816 0 V
1.000 UL
LTb
4146 3220 M
63 0 V
2753 0 R
-63 0 V
-2837 0 R
(5) Rshow
0.500 UL
LTa
4146 3500 M
2816 0 V
1.000 UL
LTb
4146 3500 M
63 0 V
2753 0 R
-63 0 V
-2837 0 R
(10) Rshow
0.500 UL
LTa
4146 3780 M
2816 0 V
1.000 UL
LTb
4146 3780 M
63 0 V
2753 0 R
-63 0 V
-2837 0 R
(15) Rshow
0.500 UL
LTa
4146 4060 M
2816 0 V
1.000 UL
LTb
4146 4060 M
63 0 V
2753 0 R
-63 0 V
-2837 0 R
(20) Rshow
0.500 UL
LTa
4146 4340 M
2816 0 V
1.000 UL
LTb
4146 4340 M
63 0 V
2753 0 R
-63 0 V
-2837 0 R
(25) Rshow
0.500 UL
LTa
4146 4620 M
2816 0 V
1.000 UL
LTb
4146 4620 M
63 0 V
2753 0 R
-63 0 V
-2837 0 R
(30) Rshow
0.500 UL
LTa
4146 2940 M
0 1680 V
1.000 UL
LTb
4146 2940 M
0 63 V
0 1617 R
0 -63 V
0 -1757 R
(0) Cshow
0.500 UL
LTa
4498 2940 M
0 1680 V
1.000 UL
LTb
4498 2940 M
0 63 V
0 1617 R
0 -63 V
0 -1757 R
(0.5) Cshow
0.500 UL
LTa
4850 2940 M
0 1680 V
1.000 UL
LTb
4850 2940 M
0 63 V
0 1617 R
0 -63 V
0 -1757 R
(1) Cshow
0.500 UL
LTa
5202 2940 M
0 1680 V
1.000 UL
LTb
5202 2940 M
0 63 V
0 1617 R
0 -63 V
0 -1757 R
(1.5) Cshow
0.500 UL
LTa
5554 2940 M
0 1680 V
1.000 UL
LTb
5554 2940 M
0 63 V
0 1617 R
0 -63 V
0 -1757 R
(2) Cshow
0.500 UL
LTa
5906 2940 M
0 1680 V
1.000 UL
LTb
5906 2940 M
0 63 V
0 1617 R
0 -63 V
0 -1757 R
(2.5) Cshow
0.500 UL
LTa
6258 2940 M
0 1680 V
1.000 UL
LTb
6258 2940 M
0 63 V
0 1617 R
0 -63 V
0 -1757 R
(3) Cshow
0.500 UL
LTa
6610 2940 M
0 1617 V
0 63 V
1.000 UL
LTb
6610 2940 M
0 63 V
0 1617 R
0 -63 V
0 -1757 R
(3.5) Cshow
0.500 UL
LTa
6962 2940 M
0 1680 V
1.000 UL
LTb
6962 2940 M
0 63 V
0 1617 R
0 -63 V
0 -1757 R
(4) Cshow
1.000 UL
LTb
4146 2940 M
2816 0 V
0 1680 V
-2816 0 V
0 -1680 V
-406 840 R
currentpoint gsave translate 90 rotate 0 0 M
(# of data points) Cshow
grestore
5554 2590 M
(Distance From Cluster Center) Cshow
5554 4830 M
(Outside the Cluster Histogram) Cshow
1.000 UL
LT0
4146 2940 M
50 0 V
-50 0 V
50 0 R
50 0 V
-50 0 V
50 0 R
50 0 V
-50 0 V
50 0 R
50 0 V
-50 0 V
50 0 R
50 0 V
-50 0 V
50 0 R
50 0 V
-50 0 V
50 0 R
50 0 V
-50 0 V
50 0 R
50 0 V
-50 0 V
50 0 R
50 0 V
-50 0 V
50 0 R
0 56 V
50 0 V
0 -56 V
-50 0 V
50 0 R
50 0 V
-50 0 V
50 0 R
50 0 V
-50 0 V
50 0 R
50 0 V
-50 0 V
50 0 R
0 56 V
50 0 V
0 -56 V
-50 0 V
50 0 R
0 56 V
50 0 V
0 -56 V
-50 0 V
50 0 R
0 224 V
50 0 V
0 -224 V
-50 0 V
50 0 R
0 504 V
50 0 V
0 -504 V
-50 0 V
50 0 R
0 784 V
50 0 V
0 -784 V
-50 0 V
50 0 R
0 840 V
50 0 V
0 -840 V
-50 0 V
50 0 R
0 784 V
50 0 V
0 -784 V
-50 0 V
50 0 R
0 504 V
50 0 V
0 -504 V
-50 0 V
50 0 R
0 840 V
50 0 V
0 -840 V
-50 0 V
50 0 R
0 896 V
50 0 V
0 -896 V
-50 0 V
50 0 R
0 1512 V
50 0 V
0 -1512 V
-50 0 V
50 0 R
0 1680 V
50 0 V
0 -1680 V
-50 0 V
50 0 R
0 1624 V
50 0 V
0 -1624 V
-50 0 V
50 0 R
0 392 V
50 0 V
0 -392 V
-50 0 V
50 0 R
0 784 V
50 0 V
0 -784 V
-50 0 V
50 0 R
0 392 V
50 0 V
0 -392 V
-50 0 V
50 0 R
0 728 V
50 0 V
0 -728 V
-50 0 V
50 0 R
0 1064 V
50 0 V
0 -1064 V
-50 0 V
50 0 R
0 1288 V
50 0 V
0 -1288 V
-50 0 V
50 0 R
0 1456 V
50 0 V
0 -1456 V
-50 0 V
50 0 R
0 1232 V
50 0 V
0 -1232 V
-50 0 V
50 0 R
0 1232 V
50 0 V
0 -1232 V
-50 0 V
50 0 R
0 1400 V
50 0 V
0 -1400 V
-50 0 V
50 0 R
0 1120 V
50 0 V
0 -1120 V
-50 0 V
50 0 R
0 560 V
50 0 V
0 -560 V
-50 0 V
50 0 R
0 784 V
50 0 V
0 -784 V
-50 0 V
50 0 R
0 1400 V
50 0 V
0 -1400 V
-50 0 V
50 0 R
0 1232 V
50 0 V
0 -1232 V
-50 0 V
50 0 R
0 728 V
50 0 V
0 -728 V
-50 0 V
50 0 R
0 448 V
50 0 V
0 -448 V
-50 0 V
50 0 R
0 560 V
50 0 V
0 -560 V
-50 0 V
50 0 R
0 1176 V
50 0 V
0 -1176 V
-50 0 V
50 0 R
0 896 V
50 0 V
0 -896 V
-50 0 V
50 0 R
0 1008 V
50 0 V
0 -1008 V
-50 0 V
50 0 R
0 840 V
50 0 V
0 -840 V
-50 0 V
50 0 R
0 336 V
50 0 V
0 -336 V
-50 0 V
50 0 R
0 112 V
50 0 V
0 -112 V
-50 0 V
stroke
grestore
end
showpage
%%Trailer
%%DocumentFonts: Helvetica
