%!PS-Adobe-2.0 EPSF-2.0
%%Title: class1-roc.eps
%%Creator: gnuplot 3.7 patchlevel 1
%%CreationDate: Mon Apr 22 09:30:37 2002
%%DocumentFonts: (atend)
%%BoundingBox: 50 50 410 302
%%Orientation: Portrait
%%EndComments
/gnudict 256 dict def
gnudict begin
/Color false def
/Solid false def
/gnulinewidth 5.000 def
/userlinewidth gnulinewidth def
/vshift -46 def
/dl {10 mul} def
/hpt_ 31.5 def
/vpt_ 31.5 def
/hpt hpt_ def
/vpt vpt_ def
/M {moveto} bind def
/L {lineto} bind def
/R {rmoveto} bind def
/V {rlineto} bind def
/vpt2 vpt 2 mul def
/hpt2 hpt 2 mul def
/Lshow { currentpoint stroke M
  0 vshift R show } def
/Rshow { currentpoint stroke M
  dup stringwidth pop neg vshift R show } def
/Cshow { currentpoint stroke M
  dup stringwidth pop -2 div vshift R show } def
/UP { dup vpt_ mul /vpt exch def hpt_ mul /hpt exch def
  /hpt2 hpt 2 mul def /vpt2 vpt 2 mul def } def
/DL { Color {setrgbcolor Solid {pop []} if 0 setdash }
 {pop pop pop Solid {pop []} if 0 setdash} ifelse } def
/BL { stroke userlinewidth 2 mul setlinewidth } def
/AL { stroke userlinewidth 2 div setlinewidth } def
/UL { dup gnulinewidth mul /userlinewidth exch def
      10 mul /udl exch def } def
/PL { stroke userlinewidth setlinewidth } def
/LTb { BL [] 0 0 0 DL } def
/LTa { AL [1 udl mul 2 udl mul] 0 setdash 0 0 0 setrgbcolor } def
/LT0 { PL [] 1 0 0 DL } def
/LT1 { PL [4 dl 2 dl] 0 1 0 DL } def
/LT2 { PL [2 dl 3 dl] 0 0 1 DL } def
/LT3 { PL [1 dl 1.5 dl] 1 0 1 DL } def
/LT4 { PL [5 dl 2 dl 1 dl 2 dl] 0 1 1 DL } def
/LT5 { PL [4 dl 3 dl 1 dl 3 dl] 1 1 0 DL } def
/LT6 { PL [2 dl 2 dl 2 dl 4 dl] 0 0 0 DL } def
/LT7 { PL [2 dl 2 dl 2 dl 2 dl 2 dl 4 dl] 1 0.3 0 DL } def
/LT8 { PL [2 dl 2 dl 2 dl 2 dl 2 dl 2 dl 2 dl 4 dl] 0.5 0.5 0.5 DL } def
/Pnt { stroke [] 0 setdash
   gsave 1 setlinecap M 0 0 V stroke grestore } def
/Dia { stroke [] 0 setdash 2 copy vpt add M
  hpt neg vpt neg V hpt vpt neg V
  hpt vpt V hpt neg vpt V closepath stroke
  Pnt } def
/Pls { stroke [] 0 setdash vpt sub M 0 vpt2 V
  currentpoint stroke M
  hpt neg vpt neg R hpt2 0 V stroke
  } def
/Box { stroke [] 0 setdash 2 copy exch hpt sub exch vpt add M
  0 vpt2 neg V hpt2 0 V 0 vpt2 V
  hpt2 neg 0 V closepath stroke
  Pnt } def
/Crs { stroke [] 0 setdash exch hpt sub exch vpt add M
  hpt2 vpt2 neg V currentpoint stroke M
  hpt2 neg 0 R hpt2 vpt2 V stroke } def
/TriU { stroke [] 0 setdash 2 copy vpt 1.12 mul add M
  hpt neg vpt -1.62 mul V
  hpt 2 mul 0 V
  hpt neg vpt 1.62 mul V closepath stroke
  Pnt  } def
/Star { 2 copy Pls Crs } def
/BoxF { stroke [] 0 setdash exch hpt sub exch vpt add M
  0 vpt2 neg V  hpt2 0 V  0 vpt2 V
  hpt2 neg 0 V  closepath fill } def
/TriUF { stroke [] 0 setdash vpt 1.12 mul add M
  hpt neg vpt -1.62 mul V
  hpt 2 mul 0 V
  hpt neg vpt 1.62 mul V closepath fill } def
/TriD { stroke [] 0 setdash 2 copy vpt 1.12 mul sub M
  hpt neg vpt 1.62 mul V
  hpt 2 mul 0 V
  hpt neg vpt -1.62 mul V closepath stroke
  Pnt  } def
/TriDF { stroke [] 0 setdash vpt 1.12 mul sub M
  hpt neg vpt 1.62 mul V
  hpt 2 mul 0 V
  hpt neg vpt -1.62 mul V closepath fill} def
/DiaF { stroke [] 0 setdash vpt add M
  hpt neg vpt neg V hpt vpt neg V
  hpt vpt V hpt neg vpt V closepath fill } def
/Pent { stroke [] 0 setdash 2 copy gsave
  translate 0 hpt M 4 {72 rotate 0 hpt L} repeat
  closepath stroke grestore Pnt } def
/PentF { stroke [] 0 setdash gsave
  translate 0 hpt M 4 {72 rotate 0 hpt L} repeat
  closepath fill grestore } def
/Circle { stroke [] 0 setdash 2 copy
  hpt 0 360 arc stroke Pnt } def
/CircleF { stroke [] 0 setdash hpt 0 360 arc fill } def
/C0 { BL [] 0 setdash 2 copy moveto vpt 90 450  arc } bind def
/C1 { BL [] 0 setdash 2 copy        moveto
       2 copy  vpt 0 90 arc closepath fill
               vpt 0 360 arc closepath } bind def
/C2 { BL [] 0 setdash 2 copy moveto
       2 copy  vpt 90 180 arc closepath fill
               vpt 0 360 arc closepath } bind def
/C3 { BL [] 0 setdash 2 copy moveto
       2 copy  vpt 0 180 arc closepath fill
               vpt 0 360 arc closepath } bind def
/C4 { BL [] 0 setdash 2 copy moveto
       2 copy  vpt 180 270 arc closepath fill
               vpt 0 360 arc closepath } bind def
/C5 { BL [] 0 setdash 2 copy moveto
       2 copy  vpt 0 90 arc
       2 copy moveto
       2 copy  vpt 180 270 arc closepath fill
               vpt 0 360 arc } bind def
/C6 { BL [] 0 setdash 2 copy moveto
      2 copy  vpt 90 270 arc closepath fill
              vpt 0 360 arc closepath } bind def
/C7 { BL [] 0 setdash 2 copy moveto
      2 copy  vpt 0 270 arc closepath fill
              vpt 0 360 arc closepath } bind def
/C8 { BL [] 0 setdash 2 copy moveto
      2 copy vpt 270 360 arc closepath fill
              vpt 0 360 arc closepath } bind def
/C9 { BL [] 0 setdash 2 copy moveto
      2 copy  vpt 270 450 arc closepath fill
              vpt 0 360 arc closepath } bind def
/C10 { BL [] 0 setdash 2 copy 2 copy moveto vpt 270 360 arc closepath fill
       2 copy moveto
       2 copy vpt 90 180 arc closepath fill
               vpt 0 360 arc closepath } bind def
/C11 { BL [] 0 setdash 2 copy moveto
       2 copy  vpt 0 180 arc closepath fill
       2 copy moveto
       2 copy  vpt 270 360 arc closepath fill
               vpt 0 360 arc closepath } bind def
/C12 { BL [] 0 setdash 2 copy moveto
       2 copy  vpt 180 360 arc closepath fill
               vpt 0 360 arc closepath } bind def
/C13 { BL [] 0 setdash  2 copy moveto
       2 copy  vpt 0 90 arc closepath fill
       2 copy moveto
       2 copy  vpt 180 360 arc closepath fill
               vpt 0 360 arc closepath } bind def
/C14 { BL [] 0 setdash 2 copy moveto
       2 copy  vpt 90 360 arc closepath fill
               vpt 0 360 arc } bind def
/C15 { BL [] 0 setdash 2 copy vpt 0 360 arc closepath fill
               vpt 0 360 arc closepath } bind def
/Rec   { newpath 4 2 roll moveto 1 index 0 rlineto 0 exch rlineto
       neg 0 rlineto closepath } bind def
/Square { dup Rec } bind def
/Bsquare { vpt sub exch vpt sub exch vpt2 Square } bind def
/S0 { BL [] 0 setdash 2 copy moveto 0 vpt rlineto BL Bsquare } bind def
/S1 { BL [] 0 setdash 2 copy vpt Square fill Bsquare } bind def
/S2 { BL [] 0 setdash 2 copy exch vpt sub exch vpt Square fill Bsquare } bind def
/S3 { BL [] 0 setdash 2 copy exch vpt sub exch vpt2 vpt Rec fill Bsquare } bind def
/S4 { BL [] 0 setdash 2 copy exch vpt sub exch vpt sub vpt Square fill Bsquare } bind def
/S5 { BL [] 0 setdash 2 copy 2 copy vpt Square fill
       exch vpt sub exch vpt sub vpt Square fill Bsquare } bind def
/S6 { BL [] 0 setdash 2 copy exch vpt sub exch vpt sub vpt vpt2 Rec fill Bsquare } bind def
/S7 { BL [] 0 setdash 2 copy exch vpt sub exch vpt sub vpt vpt2 Rec fill
       2 copy vpt Square fill
       Bsquare } bind def
/S8 { BL [] 0 setdash 2 copy vpt sub vpt Square fill Bsquare } bind def
/S9 { BL [] 0 setdash 2 copy vpt sub vpt vpt2 Rec fill Bsquare } bind def
/S10 { BL [] 0 setdash 2 copy vpt sub vpt Square fill 2 copy exch vpt sub exch vpt Square fill
       Bsquare } bind def
/S11 { BL [] 0 setdash 2 copy vpt sub vpt Square fill 2 copy exch vpt sub exch vpt2 vpt Rec fill
       Bsquare } bind def
/S12 { BL [] 0 setdash 2 copy exch vpt sub exch vpt sub vpt2 vpt Rec fill Bsquare } bind def
/S13 { BL [] 0 setdash 2 copy exch vpt sub exch vpt sub vpt2 vpt Rec fill
       2 copy vpt Square fill Bsquare } bind def
/S14 { BL [] 0 setdash 2 copy exch vpt sub exch vpt sub vpt2 vpt Rec fill
       2 copy exch vpt sub exch vpt Square fill Bsquare } bind def
/S15 { BL [] 0 setdash 2 copy Bsquare fill Bsquare } bind def
/D0 { gsave translate 45 rotate 0 0 S0 stroke grestore } bind def
/D1 { gsave translate 45 rotate 0 0 S1 stroke grestore } bind def
/D2 { gsave translate 45 rotate 0 0 S2 stroke grestore } bind def
/D3 { gsave translate 45 rotate 0 0 S3 stroke grestore } bind def
/D4 { gsave translate 45 rotate 0 0 S4 stroke grestore } bind def
/D5 { gsave translate 45 rotate 0 0 S5 stroke grestore } bind def
/D6 { gsave translate 45 rotate 0 0 S6 stroke grestore } bind def
/D7 { gsave translate 45 rotate 0 0 S7 stroke grestore } bind def
/D8 { gsave translate 45 rotate 0 0 S8 stroke grestore } bind def
/D9 { gsave translate 45 rotate 0 0 S9 stroke grestore } bind def
/D10 { gsave translate 45 rotate 0 0 S10 stroke grestore } bind def
/D11 { gsave translate 45 rotate 0 0 S11 stroke grestore } bind def
/D12 { gsave translate 45 rotate 0 0 S12 stroke grestore } bind def
/D13 { gsave translate 45 rotate 0 0 S13 stroke grestore } bind def
/D14 { gsave translate 45 rotate 0 0 S14 stroke grestore } bind def
/D15 { gsave translate 45 rotate 0 0 S15 stroke grestore } bind def
/DiaE { stroke [] 0 setdash vpt add M
  hpt neg vpt neg V hpt vpt neg V
  hpt vpt V hpt neg vpt V closepath stroke } def
/BoxE { stroke [] 0 setdash exch hpt sub exch vpt add M
  0 vpt2 neg V hpt2 0 V 0 vpt2 V
  hpt2 neg 0 V closepath stroke } def
/TriUE { stroke [] 0 setdash vpt 1.12 mul add M
  hpt neg vpt -1.62 mul V
  hpt 2 mul 0 V
  hpt neg vpt 1.62 mul V closepath stroke } def
/TriDE { stroke [] 0 setdash vpt 1.12 mul sub M
  hpt neg vpt 1.62 mul V
  hpt 2 mul 0 V
  hpt neg vpt -1.62 mul V closepath stroke } def
/PentE { stroke [] 0 setdash gsave
  translate 0 hpt M 4 {72 rotate 0 hpt L} repeat
  closepath stroke grestore } def
/CircE { stroke [] 0 setdash 
  hpt 0 360 arc stroke } def
/Opaque { gsave closepath 1 setgray fill grestore 0 setgray closepath } def
/DiaW { stroke [] 0 setdash vpt add M
  hpt neg vpt neg V hpt vpt neg V
  hpt vpt V hpt neg vpt V Opaque stroke } def
/BoxW { stroke [] 0 setdash exch hpt sub exch vpt add M
  0 vpt2 neg V hpt2 0 V 0 vpt2 V
  hpt2 neg 0 V Opaque stroke } def
/TriUW { stroke [] 0 setdash vpt 1.12 mul add M
  hpt neg vpt -1.62 mul V
  hpt 2 mul 0 V
  hpt neg vpt 1.62 mul V Opaque stroke } def
/TriDW { stroke [] 0 setdash vpt 1.12 mul sub M
  hpt neg vpt 1.62 mul V
  hpt 2 mul 0 V
  hpt neg vpt -1.62 mul V Opaque stroke } def
/PentW { stroke [] 0 setdash gsave
  translate 0 hpt M 4 {72 rotate 0 hpt L} repeat
  Opaque stroke grestore } def
/CircW { stroke [] 0 setdash 
  hpt 0 360 arc Opaque stroke } def
/BoxFill { gsave Rec 1 setgray fill grestore } def
end
%%EndProlog
gnudict begin
gsave
50 50 translate
0.050 0.050 scale
0 setgray
newpath
(Helvetica) findfont 140 scalefont setfont
1.000 UL
LTb
1.000 UL
LTa
630 1680 M
2012 0 V
1.000 UL
LTb
630 1680 M
63 0 V
1949 0 R
-63 0 V
-2033 0 R
(0) Rshow
1.000 UL
LTa
630 1848 M
2012 0 V
1.000 UL
LTb
630 1848 M
63 0 V
1949 0 R
-63 0 V
-2033 0 R
(0.1) Rshow
1.000 UL
LTa
630 2016 M
2012 0 V
1.000 UL
LTb
630 2016 M
63 0 V
1949 0 R
-63 0 V
-2033 0 R
(0.2) Rshow
1.000 UL
LTa
630 2184 M
2012 0 V
1.000 UL
LTb
630 2184 M
63 0 V
1949 0 R
-63 0 V
-2033 0 R
(0.3) Rshow
1.000 UL
LTa
630 2352 M
2012 0 V
1.000 UL
LTb
630 2352 M
63 0 V
1949 0 R
-63 0 V
-2033 0 R
(0.4) Rshow
1.000 UL
LTa
630 2520 M
2012 0 V
1.000 UL
LTb
630 2520 M
63 0 V
1949 0 R
-63 0 V
-2033 0 R
(0.5) Rshow
1.000 UL
LTa
630 2688 M
2012 0 V
1.000 UL
LTb
630 2688 M
63 0 V
1949 0 R
-63 0 V
-2033 0 R
(0.6) Rshow
1.000 UL
LTa
630 2856 M
2012 0 V
1.000 UL
LTb
630 2856 M
63 0 V
1949 0 R
-63 0 V
-2033 0 R
(0.7) Rshow
1.000 UL
LTa
630 3024 M
2012 0 V
1.000 UL
LTb
630 3024 M
63 0 V
1949 0 R
-63 0 V
-2033 0 R
(0.8) Rshow
1.000 UL
LTa
630 3192 M
2012 0 V
1.000 UL
LTb
630 3192 M
63 0 V
1949 0 R
-63 0 V
-2033 0 R
(0.9) Rshow
1.000 UL
LTa
630 3360 M
2012 0 V
1.000 UL
LTb
630 3360 M
63 0 V
1949 0 R
-63 0 V
-2033 0 R
(1) Rshow
1.000 UL
LTa
630 1680 M
0 1680 V
1.000 UL
LTb
630 1680 M
0 63 V
0 1617 R
0 -63 V
0 -1757 R
(0) Cshow
1.000 UL
LTa
1032 1680 M
0 1680 V
1.000 UL
LTb
1032 1680 M
0 63 V
0 1617 R
0 -63 V
0 -1757 R
(0.2) Cshow
1.000 UL
LTa
1435 1680 M
0 1680 V
1.000 UL
LTb
1435 1680 M
0 63 V
0 1617 R
0 -63 V
0 -1757 R
(0.4) Cshow
1.000 UL
LTa
1837 1680 M
0 1680 V
1.000 UL
LTb
1837 1680 M
0 63 V
0 1617 R
0 -63 V
0 -1757 R
(0.6) Cshow
1.000 UL
LTa
2240 1680 M
0 1617 V
0 63 V
1.000 UL
LTb
2240 1680 M
0 63 V
0 1617 R
0 -63 V
0 -1757 R
(0.8) Cshow
1.000 UL
LTa
2642 1680 M
0 1680 V
1.000 UL
LTb
2642 1680 M
0 63 V
0 1617 R
0 -63 V
0 -1757 R
(1) Cshow
1.000 UL
LTb
630 1680 M
2012 0 V
0 1680 V
-2012 0 V
0 -1680 V
140 2520 M
currentpoint gsave translate 90 rotate 0 0 M
(% inside) Cshow
grestore
1636 1330 M
(% outside) Cshow
1636 3570 M
(ROC curve for class 1 <total area 0.99>) Cshow
1.000 UP
1.000 UL
LT0
630 1692 M
0 11 V
0 12 V
0 12 V
0 11 V
0 12 V
0 12 V
0 11 V
0 12 V
0 12 V
0 11 V
0 12 V
0 12 V
0 11 V
0 12 V
0 12 V
0 11 V
0 12 V
0 12 V
0 11 V
0 12 V
0 12 V
0 11 V
0 12 V
0 12 V
0 11 V
0 12 V
0 12 V
0 11 V
0 12 V
0 12 V
0 11 V
0 12 V
0 12 V
0 11 V
0 12 V
0 12 V
0 11 V
0 12 V
0 12 V
0 11 V
0 12 V
0 12 V
0 11 V
0 12 V
0 12 V
0 11 V
0 12 V
0 12 V
0 11 V
0 12 V
0 12 V
0 11 V
0 12 V
0 12 V
0 11 V
0 12 V
0 12 V
0 11 V
0 12 V
0 12 V
0 11 V
0 12 V
0 12 V
0 11 V
0 12 V
0 12 V
0 11 V
0 12 V
0 12 V
0 11 V
0 12 V
0 12 V
0 11 V
0 12 V
0 12 V
0 11 V
0 12 V
0 12 V
0 11 V
0 12 V
0 12 V
0 11 V
0 12 V
0 12 V
0 11 V
0 12 V
0 12 V
0 11 V
0 12 V
0 12 V
0 11 V
0 12 V
0 12 V
0 11 V
0 12 V
0 12 V
0 11 V
0 12 V
0 12 V
0 11 V
0 12 V
0 12 V
0 11 V
0 12 V
0 12 V
0 11 V
0 12 V
0 12 V
0 11 V
0 12 V
0 12 V
0 11 V
0 12 V
0 12 V
0 11 V
0 12 V
0 12 V
0 11 V
0 12 V
0 12 V
0 11 V
0 12 V
0 12 V
0 11 V
0 12 V
0 12 V
0 11 V
3 0 V
0 12 V
4 0 V
3 0 V
0 12 V
3 0 V
0 11 V
0 12 V
0 12 V
0 11 V
4 0 V
3 0 V
0 12 V
3 0 V
0 12 V
0 11 V
4 0 V
3 0 V
0 12 V
0 12 V
0 11 V
0 12 V
0 12 V
3 0 V
3 0 V
4 0 V
3 0 V
3 0 V
4 0 V
3 0 V
3 0 V
4 0 V
3 0 V
3 0 V
4 0 V
3 0 V
3 0 V
0 11 V
4 0 V
3 0 V
3 0 V
3 0 V
4 0 V
3 0 V
3 0 V
4 0 V
3 0 V
3 0 V
4 0 V
3 0 V
3 0 V
4 0 V
3 0 V
3 0 V
4 0 V
3 0 V
3 0 V
4 0 V
3 0 V
3 0 V
3 0 V
4 0 V
3 0 V
3 0 V
4 0 V
3 0 V
3 0 V
4 0 V
3 0 V
3 0 V
4 0 V
3 0 V
3 0 V
4 0 V
3 0 V
3 0 V
4 0 V
3 0 V
3 0 V
3 0 V
4 0 V
3 0 V
3 0 V
4 0 V
3 0 V
3 0 V
4 0 V
3 0 V
3 0 V
4 0 V
3 0 V
3 0 V
4 0 V
3 0 V
3 0 V
3 0 V
4 0 V
3 0 V
3 0 V
4 0 V
3 0 V
3 0 V
4 0 V
3 0 V
3 0 V
4 0 V
3 0 V
3 0 V
4 0 V
3 0 V
3 0 V
4 0 V
3 0 V
3 0 V
3 0 V
4 0 V
3 0 V
3 0 V
4 0 V
3 0 V
3 0 V
4 0 V
3 0 V
3 0 V
4 0 V
3 0 V
3 0 V
4 0 V
3 0 V
3 0 V
4 0 V
3 0 V
3 0 V
3 0 V
4 0 V
3 0 V
3 0 V
4 0 V
3 0 V
3 0 V
4 0 V
3 0 V
3 0 V
4 0 V
3 0 V
3 0 V
4 0 V
3 0 V
3 0 V
3 0 V
4 0 V
3 0 V
3 0 V
4 0 V
3 0 V
3 0 V
4 0 V
3 0 V
3 0 V
4 0 V
3 0 V
3 0 V
4 0 V
3 0 V
3 0 V
4 0 V
3 0 V
3 0 V
3 0 V
4 0 V
3 0 V
3 0 V
4 0 V
3 0 V
3 0 V
4 0 V
3 0 V
3 0 V
4 0 V
3 0 V
3 0 V
4 0 V
3 0 V
3 0 V
3 0 V
4 0 V
3 0 V
3 0 V
4 0 V
3 0 V
3 0 V
4 0 V
3 0 V
3 0 V
4 0 V
3 0 V
3 0 V
4 0 V
3 0 V
3 0 V
4 0 V
3 0 V
3 0 V
3 0 V
4 0 V
3 0 V
3 0 V
4 0 V
3 0 V
3 0 V
4 0 V
3 0 V
3 0 V
4 0 V
3 0 V
3 0 V
4 0 V
3 0 V
3 0 V
4 0 V
3 0 V
3 0 V
3 0 V
4 0 V
3 0 V
3 0 V
4 0 V
3 0 V
3 0 V
4 0 V
3 0 V
3 0 V
4 0 V
3 0 V
3 0 V
4 0 V
3 0 V
3 0 V
3 0 V
4 0 V
3 0 V
3 0 V
4 0 V
3 0 V
3 0 V
4 0 V
3 0 V
3 0 V
4 0 V
3 0 V
3 0 V
4 0 V
3 0 V
3 0 V
4 0 V
3 0 V
3 0 V
3 0 V
4 0 V
3 0 V
3 0 V
4 0 V
3 0 V
3 0 V
4 0 V
3 0 V
3 0 V
4 0 V
3 0 V
3 0 V
4 0 V
3 0 V
currentpoint stroke M
3 0 V
3 0 V
4 0 V
3 0 V
3 0 V
4 0 V
3 0 V
3 0 V
4 0 V
3 0 V
3 0 V
4 0 V
3 0 V
3 0 V
4 0 V
3 0 V
3 0 V
4 0 V
3 0 V
3 0 V
3 0 V
4 0 V
3 0 V
3 0 V
4 0 V
3 0 V
3 0 V
4 0 V
3 0 V
3 0 V
4 0 V
3 0 V
3 0 V
4 0 V
3 0 V
3 0 V
4 0 V
3 0 V
3 0 V
3 0 V
4 0 V
3 0 V
3 0 V
4 0 V
3 0 V
3 0 V
4 0 V
3 0 V
3 0 V
4 0 V
3 0 V
3 0 V
4 0 V
3 0 V
3 0 V
3 0 V
4 0 V
3 0 V
3 0 V
4 0 V
3 0 V
3 0 V
4 0 V
3 0 V
3 0 V
4 0 V
3 0 V
3 0 V
4 0 V
3 0 V
3 0 V
4 0 V
3 0 V
3 0 V
3 0 V
4 0 V
3 0 V
3 0 V
4 0 V
3 0 V
3 0 V
4 0 V
3 0 V
3 0 V
4 0 V
3 0 V
3 0 V
4 0 V
3 0 V
3 0 V
4 0 V
3 0 V
3 0 V
3 0 V
4 0 V
3 0 V
3 0 V
4 0 V
3 0 V
3 0 V
4 0 V
3 0 V
3 0 V
4 0 V
3 0 V
3 0 V
4 0 V
3 0 V
3 0 V
3 0 V
4 0 V
3 0 V
3 0 V
4 0 V
3 0 V
3 0 V
4 0 V
3 0 V
3 0 V
4 0 V
3 0 V
3 0 V
4 0 V
3 0 V
3 0 V
4 0 V
3 0 V
3 0 V
3 0 V
4 0 V
3 0 V
3 0 V
4 0 V
3 0 V
3 0 V
4 0 V
3 0 V
3 0 V
4 0 V
3 0 V
3 0 V
4 0 V
3 0 V
3 0 V
3 0 V
4 0 V
3 0 V
3 0 V
4 0 V
3 0 V
3 0 V
4 0 V
3 0 V
3 0 V
4 0 V
3 0 V
3 0 V
4 0 V
3 0 V
3 0 V
4 0 V
3 0 V
3 0 V
3 0 V
4 0 V
3 0 V
3 0 V
4 0 V
3 0 V
3 0 V
4 0 V
3 0 V
3 0 V
4 0 V
3 0 V
3 0 V
4 0 V
3 0 V
3 0 V
4 0 V
3 0 V
3 0 V
3 0 V
4 0 V
3 0 V
3 0 V
4 0 V
3 0 V
3 0 V
4 0 V
3 0 V
3 0 V
4 0 V
3 0 V
3 0 V
4 0 V
3 0 V
3 0 V
3 0 V
4 0 V
3 0 V
3 0 V
4 0 V
3 0 V
3 0 V
4 0 V
3 0 V
3 0 V
4 0 V
3 0 V
3 0 V
4 0 V
3 0 V
3 0 V
4 0 V
3 0 V
3 0 V
3 0 V
4 0 V
3 0 V
3 0 V
4 0 V
3 0 V
3 0 V
4 0 V
3 0 V
3 0 V
4 0 V
3 0 V
3 0 V
4 0 V
3 0 V
3 0 V
3 0 V
4 0 V
3 0 V
3 0 V
4 0 V
3 0 V
3 0 V
4 0 V
3 0 V
3 0 V
4 0 V
3 0 V
3 0 V
4 0 V
3 0 V
3 0 V
4 0 V
3 0 V
3 0 V
3 0 V
4 0 V
3 0 V
3 0 V
4 0 V
3 0 V
3 0 V
4 0 V
3 0 V
3 0 V
4 0 V
3 0 V
3 0 V
4 0 V
3 0 V
3 0 V
4 0 V
3 0 V
3 0 V
3 0 V
4 0 V
3 0 V
3 0 V
4 0 V
3 0 V
3 0 V
4 0 V
3 0 V
3 0 V
4 0 V
3 0 V
3 0 V
4 0 V
3 0 V
3 0 V
3 0 V
4 0 V
3 0 V
3 0 V
4 0 V
3 0 V
3 0 V
4 0 V
3 0 V
3 0 V
4 0 V
3 0 V
3 0 V
4 0 V
3 0 V
3 0 V
4 0 V
3 0 V
3 0 V
3 0 V
4 0 V
3 0 V
3 0 V
4 0 V
3 0 V
3 0 V
4 0 V
3 0 V
3 0 V
4 0 V
3 0 V
3 0 V
4 0 V
3 0 V
3 0 V
4 0 V
3 0 V
3 0 V
3 0 V
4 0 V
3 0 V
3 0 V
4 0 V
3 0 V
3 0 V
4 0 V
3 0 V
3 0 V
4 0 V
3 0 V
3 0 V
4 0 V
3 0 V
3 0 V
3 0 V
4 0 V
3 0 V
3 0 V
4 0 V
3 0 V
3 0 V
4 0 V
3 0 V
0 12 V
630 1692 Pls
630 1703 Pls
630 1715 Pls
630 1727 Pls
630 1738 Pls
630 1750 Pls
630 1762 Pls
630 1773 Pls
630 1785 Pls
630 1797 Pls
630 1808 Pls
630 1820 Pls
630 1832 Pls
630 1843 Pls
630 1855 Pls
630 1867 Pls
630 1878 Pls
630 1890 Pls
630 1902 Pls
630 1913 Pls
630 1925 Pls
630 1937 Pls
630 1948 Pls
630 1960 Pls
630 1972 Pls
630 1983 Pls
630 1995 Pls
630 2007 Pls
630 2018 Pls
630 2030 Pls
630 2042 Pls
630 2053 Pls
630 2065 Pls
630 2077 Pls
630 2088 Pls
630 2100 Pls
630 2112 Pls
630 2123 Pls
630 2135 Pls
630 2147 Pls
630 2158 Pls
630 2170 Pls
630 2182 Pls
630 2193 Pls
630 2205 Pls
630 2217 Pls
630 2228 Pls
630 2240 Pls
630 2252 Pls
630 2263 Pls
630 2275 Pls
630 2287 Pls
630 2298 Pls
630 2310 Pls
630 2322 Pls
630 2333 Pls
630 2345 Pls
630 2357 Pls
630 2368 Pls
630 2380 Pls
630 2392 Pls
630 2403 Pls
630 2415 Pls
630 2427 Pls
630 2438 Pls
630 2450 Pls
630 2462 Pls
630 2473 Pls
630 2485 Pls
630 2497 Pls
630 2508 Pls
630 2520 Pls
630 2532 Pls
630 2543 Pls
630 2555 Pls
630 2567 Pls
630 2578 Pls
630 2590 Pls
630 2602 Pls
630 2613 Pls
630 2625 Pls
630 2637 Pls
630 2648 Pls
630 2660 Pls
630 2672 Pls
630 2683 Pls
630 2695 Pls
630 2707 Pls
630 2718 Pls
630 2730 Pls
630 2742 Pls
630 2753 Pls
630 2765 Pls
630 2777 Pls
630 2788 Pls
630 2800 Pls
630 2812 Pls
630 2823 Pls
630 2835 Pls
630 2847 Pls
630 2858 Pls
630 2870 Pls
630 2882 Pls
630 2893 Pls
630 2905 Pls
630 2917 Pls
630 2928 Pls
630 2940 Pls
630 2952 Pls
630 2963 Pls
630 2975 Pls
630 2987 Pls
630 2998 Pls
630 3010 Pls
630 3022 Pls
630 3033 Pls
630 3045 Pls
630 3057 Pls
630 3068 Pls
630 3080 Pls
630 3092 Pls
630 3103 Pls
630 3115 Pls
630 3127 Pls
630 3138 Pls
630 3150 Pls
630 3162 Pls
630 3173 Pls
633 3173 Pls
633 3185 Pls
637 3185 Pls
640 3185 Pls
640 3197 Pls
643 3197 Pls
643 3208 Pls
643 3220 Pls
643 3232 Pls
643 3243 Pls
647 3243 Pls
650 3243 Pls
650 3255 Pls
653 3255 Pls
653 3267 Pls
653 3278 Pls
657 3278 Pls
660 3278 Pls
660 3290 Pls
660 3302 Pls
660 3313 Pls
660 3325 Pls
660 3337 Pls
663 3337 Pls
666 3337 Pls
670 3337 Pls
673 3337 Pls
676 3337 Pls
680 3337 Pls
683 3337 Pls
686 3337 Pls
690 3337 Pls
693 3337 Pls
696 3337 Pls
700 3337 Pls
703 3337 Pls
706 3337 Pls
706 3348 Pls
710 3348 Pls
713 3348 Pls
716 3348 Pls
719 3348 Pls
723 3348 Pls
726 3348 Pls
729 3348 Pls
733 3348 Pls
736 3348 Pls
739 3348 Pls
743 3348 Pls
746 3348 Pls
749 3348 Pls
753 3348 Pls
756 3348 Pls
759 3348 Pls
763 3348 Pls
766 3348 Pls
769 3348 Pls
773 3348 Pls
776 3348 Pls
779 3348 Pls
782 3348 Pls
786 3348 Pls
789 3348 Pls
792 3348 Pls
796 3348 Pls
799 3348 Pls
802 3348 Pls
806 3348 Pls
809 3348 Pls
812 3348 Pls
816 3348 Pls
819 3348 Pls
822 3348 Pls
826 3348 Pls
829 3348 Pls
832 3348 Pls
836 3348 Pls
839 3348 Pls
842 3348 Pls
845 3348 Pls
849 3348 Pls
852 3348 Pls
855 3348 Pls
859 3348 Pls
862 3348 Pls
865 3348 Pls
869 3348 Pls
872 3348 Pls
875 3348 Pls
879 3348 Pls
882 3348 Pls
885 3348 Pls
889 3348 Pls
892 3348 Pls
895 3348 Pls
898 3348 Pls
902 3348 Pls
905 3348 Pls
908 3348 Pls
912 3348 Pls
915 3348 Pls
918 3348 Pls
922 3348 Pls
925 3348 Pls
928 3348 Pls
932 3348 Pls
935 3348 Pls
938 3348 Pls
942 3348 Pls
945 3348 Pls
948 3348 Pls
952 3348 Pls
955 3348 Pls
958 3348 Pls
961 3348 Pls
965 3348 Pls
968 3348 Pls
971 3348 Pls
975 3348 Pls
978 3348 Pls
981 3348 Pls
985 3348 Pls
988 3348 Pls
991 3348 Pls
995 3348 Pls
998 3348 Pls
1001 3348 Pls
1005 3348 Pls
1008 3348 Pls
1011 3348 Pls
1015 3348 Pls
1018 3348 Pls
1021 3348 Pls
1024 3348 Pls
1028 3348 Pls
1031 3348 Pls
1034 3348 Pls
1038 3348 Pls
1041 3348 Pls
1044 3348 Pls
1048 3348 Pls
1051 3348 Pls
1054 3348 Pls
1058 3348 Pls
1061 3348 Pls
1064 3348 Pls
1068 3348 Pls
1071 3348 Pls
1074 3348 Pls
1077 3348 Pls
1081 3348 Pls
1084 3348 Pls
1087 3348 Pls
1091 3348 Pls
1094 3348 Pls
1097 3348 Pls
1101 3348 Pls
1104 3348 Pls
1107 3348 Pls
1111 3348 Pls
1114 3348 Pls
1117 3348 Pls
1121 3348 Pls
1124 3348 Pls
1127 3348 Pls
1131 3348 Pls
1134 3348 Pls
1137 3348 Pls
1140 3348 Pls
1144 3348 Pls
1147 3348 Pls
1150 3348 Pls
1154 3348 Pls
1157 3348 Pls
1160 3348 Pls
1164 3348 Pls
1167 3348 Pls
1170 3348 Pls
1174 3348 Pls
1177 3348 Pls
1180 3348 Pls
1184 3348 Pls
1187 3348 Pls
1190 3348 Pls
1193 3348 Pls
1197 3348 Pls
1200 3348 Pls
1203 3348 Pls
1207 3348 Pls
1210 3348 Pls
1213 3348 Pls
1217 3348 Pls
1220 3348 Pls
1223 3348 Pls
1227 3348 Pls
1230 3348 Pls
1233 3348 Pls
1237 3348 Pls
1240 3348 Pls
1243 3348 Pls
1247 3348 Pls
1250 3348 Pls
1253 3348 Pls
1256 3348 Pls
1260 3348 Pls
1263 3348 Pls
1266 3348 Pls
1270 3348 Pls
1273 3348 Pls
1276 3348 Pls
1280 3348 Pls
1283 3348 Pls
1286 3348 Pls
1290 3348 Pls
1293 3348 Pls
1296 3348 Pls
1300 3348 Pls
1303 3348 Pls
1306 3348 Pls
1310 3348 Pls
1313 3348 Pls
1316 3348 Pls
1319 3348 Pls
1323 3348 Pls
1326 3348 Pls
1329 3348 Pls
1333 3348 Pls
1336 3348 Pls
1339 3348 Pls
1343 3348 Pls
1346 3348 Pls
1349 3348 Pls
1353 3348 Pls
1356 3348 Pls
1359 3348 Pls
1363 3348 Pls
1366 3348 Pls
1369 3348 Pls
1372 3348 Pls
1376 3348 Pls
1379 3348 Pls
1382 3348 Pls
1386 3348 Pls
1389 3348 Pls
1392 3348 Pls
1396 3348 Pls
1399 3348 Pls
1402 3348 Pls
1406 3348 Pls
1409 3348 Pls
1412 3348 Pls
1416 3348 Pls
1419 3348 Pls
1422 3348 Pls
1426 3348 Pls
1429 3348 Pls
1432 3348 Pls
1435 3348 Pls
1439 3348 Pls
1442 3348 Pls
1445 3348 Pls
1449 3348 Pls
1452 3348 Pls
1455 3348 Pls
1459 3348 Pls
1462 3348 Pls
1465 3348 Pls
1469 3348 Pls
1472 3348 Pls
1475 3348 Pls
1479 3348 Pls
1482 3348 Pls
1485 3348 Pls
1488 3348 Pls
1492 3348 Pls
1495 3348 Pls
1498 3348 Pls
1502 3348 Pls
1505 3348 Pls
1508 3348 Pls
1512 3348 Pls
1515 3348 Pls
1518 3348 Pls
1522 3348 Pls
1525 3348 Pls
1528 3348 Pls
1532 3348 Pls
1535 3348 Pls
1538 3348 Pls
1542 3348 Pls
1545 3348 Pls
1548 3348 Pls
1551 3348 Pls
1555 3348 Pls
1558 3348 Pls
1561 3348 Pls
1565 3348 Pls
1568 3348 Pls
1571 3348 Pls
1575 3348 Pls
1578 3348 Pls
1581 3348 Pls
1585 3348 Pls
1588 3348 Pls
1591 3348 Pls
1595 3348 Pls
1598 3348 Pls
1601 3348 Pls
1605 3348 Pls
1608 3348 Pls
1611 3348 Pls
1614 3348 Pls
1618 3348 Pls
1621 3348 Pls
1624 3348 Pls
1628 3348 Pls
1631 3348 Pls
1634 3348 Pls
1638 3348 Pls
1641 3348 Pls
1644 3348 Pls
1648 3348 Pls
1651 3348 Pls
1654 3348 Pls
1658 3348 Pls
1661 3348 Pls
1664 3348 Pls
1667 3348 Pls
1671 3348 Pls
1674 3348 Pls
1677 3348 Pls
1681 3348 Pls
1684 3348 Pls
1687 3348 Pls
1691 3348 Pls
1694 3348 Pls
1697 3348 Pls
1701 3348 Pls
1704 3348 Pls
1707 3348 Pls
1711 3348 Pls
1714 3348 Pls
1717 3348 Pls
1721 3348 Pls
1724 3348 Pls
1727 3348 Pls
1730 3348 Pls
1734 3348 Pls
1737 3348 Pls
1740 3348 Pls
1744 3348 Pls
1747 3348 Pls
1750 3348 Pls
1754 3348 Pls
1757 3348 Pls
1760 3348 Pls
1764 3348 Pls
1767 3348 Pls
1770 3348 Pls
1774 3348 Pls
1777 3348 Pls
1780 3348 Pls
1784 3348 Pls
1787 3348 Pls
1790 3348 Pls
1793 3348 Pls
1797 3348 Pls
1800 3348 Pls
1803 3348 Pls
1807 3348 Pls
1810 3348 Pls
1813 3348 Pls
1817 3348 Pls
1820 3348 Pls
1823 3348 Pls
1827 3348 Pls
1830 3348 Pls
1833 3348 Pls
1837 3348 Pls
1840 3348 Pls
1843 3348 Pls
1846 3348 Pls
1850 3348 Pls
1853 3348 Pls
1856 3348 Pls
1860 3348 Pls
1863 3348 Pls
1866 3348 Pls
1870 3348 Pls
1873 3348 Pls
1876 3348 Pls
1880 3348 Pls
1883 3348 Pls
1886 3348 Pls
1890 3348 Pls
1893 3348 Pls
1896 3348 Pls
1900 3348 Pls
1903 3348 Pls
1906 3348 Pls
1909 3348 Pls
1913 3348 Pls
1916 3348 Pls
1919 3348 Pls
1923 3348 Pls
1926 3348 Pls
1929 3348 Pls
1933 3348 Pls
1936 3348 Pls
1939 3348 Pls
1943 3348 Pls
1946 3348 Pls
1949 3348 Pls
1953 3348 Pls
1956 3348 Pls
1959 3348 Pls
1962 3348 Pls
1966 3348 Pls
1969 3348 Pls
1972 3348 Pls
1976 3348 Pls
1979 3348 Pls
1982 3348 Pls
1986 3348 Pls
1989 3348 Pls
1992 3348 Pls
1996 3348 Pls
1999 3348 Pls
2002 3348 Pls
2006 3348 Pls
2009 3348 Pls
2012 3348 Pls
2016 3348 Pls
2019 3348 Pls
2022 3348 Pls
2025 3348 Pls
2029 3348 Pls
2032 3348 Pls
2035 3348 Pls
2039 3348 Pls
2042 3348 Pls
2045 3348 Pls
2049 3348 Pls
2052 3348 Pls
2055 3348 Pls
2059 3348 Pls
2062 3348 Pls
2065 3348 Pls
2069 3348 Pls
2072 3348 Pls
2075 3348 Pls
2079 3348 Pls
2082 3348 Pls
2085 3348 Pls
2088 3348 Pls
2092 3348 Pls
2095 3348 Pls
2098 3348 Pls
2102 3348 Pls
2105 3348 Pls
2108 3348 Pls
2112 3348 Pls
2115 3348 Pls
2118 3348 Pls
2122 3348 Pls
2125 3348 Pls
2128 3348 Pls
2132 3348 Pls
2135 3348 Pls
2138 3348 Pls
2141 3348 Pls
2145 3348 Pls
2148 3348 Pls
2151 3348 Pls
2155 3348 Pls
2158 3348 Pls
2161 3348 Pls
2165 3348 Pls
2168 3348 Pls
2171 3348 Pls
2175 3348 Pls
2178 3348 Pls
2181 3348 Pls
2185 3348 Pls
2188 3348 Pls
2191 3348 Pls
2195 3348 Pls
2198 3348 Pls
2201 3348 Pls
2204 3348 Pls
2208 3348 Pls
2211 3348 Pls
2214 3348 Pls
2218 3348 Pls
2221 3348 Pls
2224 3348 Pls
2228 3348 Pls
2231 3348 Pls
2234 3348 Pls
2238 3348 Pls
2241 3348 Pls
2244 3348 Pls
2248 3348 Pls
2251 3348 Pls
2254 3348 Pls
2257 3348 Pls
2261 3348 Pls
2264 3348 Pls
2267 3348 Pls
2271 3348 Pls
2274 3348 Pls
2277 3348 Pls
2281 3348 Pls
2284 3348 Pls
2287 3348 Pls
2291 3348 Pls
2294 3348 Pls
2297 3348 Pls
2301 3348 Pls
2304 3348 Pls
2307 3348 Pls
2311 3348 Pls
2314 3348 Pls
2317 3348 Pls
2320 3348 Pls
2324 3348 Pls
2327 3348 Pls
2330 3348 Pls
2334 3348 Pls
2337 3348 Pls
2340 3348 Pls
2344 3348 Pls
2347 3348 Pls
2350 3348 Pls
2354 3348 Pls
2357 3348 Pls
2360 3348 Pls
2364 3348 Pls
2367 3348 Pls
2370 3348 Pls
2374 3348 Pls
2377 3348 Pls
2380 3348 Pls
2383 3348 Pls
2387 3348 Pls
2390 3348 Pls
2393 3348 Pls
2397 3348 Pls
2400 3348 Pls
2403 3348 Pls
2407 3348 Pls
2410 3348 Pls
2413 3348 Pls
2417 3348 Pls
2420 3348 Pls
2423 3348 Pls
2427 3348 Pls
2430 3348 Pls
2433 3348 Pls
2436 3348 Pls
2440 3348 Pls
2443 3348 Pls
2446 3348 Pls
2450 3348 Pls
2453 3348 Pls
2456 3348 Pls
2460 3348 Pls
2463 3348 Pls
2466 3348 Pls
2470 3348 Pls
2473 3348 Pls
2476 3348 Pls
2480 3348 Pls
2483 3348 Pls
2486 3348 Pls
2490 3348 Pls
2493 3348 Pls
2496 3348 Pls
2499 3348 Pls
2503 3348 Pls
2506 3348 Pls
2509 3348 Pls
2513 3348 Pls
2516 3348 Pls
2519 3348 Pls
2523 3348 Pls
2526 3348 Pls
2529 3348 Pls
2533 3348 Pls
2536 3348 Pls
2539 3348 Pls
2543 3348 Pls
2546 3348 Pls
2549 3348 Pls
2553 3348 Pls
2556 3348 Pls
2559 3348 Pls
2562 3348 Pls
2566 3348 Pls
2569 3348 Pls
2572 3348 Pls
2576 3348 Pls
2579 3348 Pls
2582 3348 Pls
2586 3348 Pls
2589 3348 Pls
2592 3348 Pls
2596 3348 Pls
2599 3348 Pls
2602 3348 Pls
2606 3348 Pls
2609 3348 Pls
2612 3348 Pls
2615 3348 Pls
2619 3348 Pls
2622 3348 Pls
2625 3348 Pls
2629 3348 Pls
2632 3348 Pls
2635 3348 Pls
2639 3348 Pls
2642 3348 Pls
2642 3360 Pls
1.000 UL
LTb
0.500 UL
LTa
4146 420 M
2816 0 V
1.000 UL
LTb
4146 420 M
63 0 V
2753 0 R
-63 0 V
-2837 0 R
(0) Rshow
0.500 UL
LTa
4146 700 M
2816 0 V
1.000 UL
LTb
4146 700 M
63 0 V
2753 0 R
-63 0 V
-2837 0 R
(5) Rshow
0.500 UL
LTa
4146 980 M
2816 0 V
1.000 UL
LTb
4146 980 M
63 0 V
2753 0 R
-63 0 V
-2837 0 R
(10) Rshow
0.500 UL
LTa
4146 1260 M
2816 0 V
1.000 UL
LTb
4146 1260 M
63 0 V
2753 0 R
-63 0 V
-2837 0 R
(15) Rshow
0.500 UL
LTa
4146 1540 M
2816 0 V
1.000 UL
LTb
4146 1540 M
63 0 V
2753 0 R
-63 0 V
-2837 0 R
(20) Rshow
0.500 UL
LTa
4146 1820 M
2816 0 V
1.000 UL
LTb
4146 1820 M
63 0 V
2753 0 R
-63 0 V
-2837 0 R
(25) Rshow
0.500 UL
LTa
4146 2100 M
2816 0 V
1.000 UL
LTb
4146 2100 M
63 0 V
2753 0 R
-63 0 V
-2837 0 R
(30) Rshow
0.500 UL
LTa
4146 420 M
0 1680 V
1.000 UL
LTb
4146 420 M
0 63 V
0 1617 R
0 -63 V
0 -1757 R
(0) Cshow
0.500 UL
LTa
4459 420 M
0 1680 V
1.000 UL
LTb
4459 420 M
0 63 V
0 1617 R
0 -63 V
0 -1757 R
(0.5) Cshow
0.500 UL
LTa
4772 420 M
0 1680 V
1.000 UL
LTb
4772 420 M
0 63 V
0 1617 R
0 -63 V
0 -1757 R
(1) Cshow
0.500 UL
LTa
5085 420 M
0 1680 V
1.000 UL
LTb
5085 420 M
0 63 V
0 1617 R
0 -63 V
0 -1757 R
(1.5) Cshow
0.500 UL
LTa
5398 420 M
0 1680 V
1.000 UL
LTb
5398 420 M
0 63 V
0 1617 R
0 -63 V
0 -1757 R
(2) Cshow
0.500 UL
LTa
5710 420 M
0 1680 V
1.000 UL
LTb
5710 420 M
0 63 V
0 1617 R
0 -63 V
0 -1757 R
(2.5) Cshow
0.500 UL
LTa
6023 420 M
0 1680 V
1.000 UL
LTb
6023 420 M
0 63 V
0 1617 R
0 -63 V
0 -1757 R
(3) Cshow
0.500 UL
LTa
6336 420 M
0 1617 V
0 63 V
1.000 UL
LTb
6336 420 M
0 63 V
0 1617 R
0 -63 V
0 -1757 R
(3.5) Cshow
0.500 UL
LTa
6649 420 M
0 1617 V
0 63 V
1.000 UL
LTb
6649 420 M
0 63 V
0 1617 R
0 -63 V
0 -1757 R
(4) Cshow
0.500 UL
LTa
6962 420 M
0 1680 V
1.000 UL
LTb
6962 420 M
0 63 V
0 1617 R
0 -63 V
0 -1757 R
(4.5) Cshow
1.000 UL
LTb
4146 420 M
2816 0 V
0 1680 V
-2816 0 V
0 -1680 V
-406 840 R
currentpoint gsave translate 90 rotate 0 0 M
(# of data points) Cshow
grestore
5554 70 M
(Distance From Cluster Center) Cshow
5554 2310 M
(Inside the Cluster Histogram) Cshow
1.000 UL
LT0
4146 420 M
56 0 V
-56 0 V
56 0 R
56 0 V
-56 0 V
56 0 R
0 224 V
56 0 V
0 -224 V
-56 0 V
56 0 R
0 728 V
56 0 V
0 -728 V
-56 0 V
56 0 R
0 1232 V
55 0 V
0 -1232 V
-55 0 V
55 0 R
0 1568 V
56 0 V
0 -1568 V
-56 0 V
56 0 R
0 672 V
56 0 V
0 -672 V
-56 0 V
56 0 R
0 1288 V
56 0 V
0 -1288 V
-56 0 V
56 0 R
0 784 V
56 0 V
0 -784 V
-56 0 V
56 0 R
0 560 V
56 0 V
0 -560 V
-56 0 V
56 0 R
0 168 V
56 0 V
0 -168 V
-56 0 V
56 0 R
0 112 V
56 0 V
0 -112 V
-56 0 V
56 0 R
0 224 V
56 0 V
0 -224 V
-56 0 V
56 0 R
0 280 V
56 0 V
0 -280 V
-56 0 V
56 0 R
0 112 V
55 0 V
0 -112 V
-55 0 V
55 0 R
56 0 V
-56 0 V
56 0 R
56 0 V
-56 0 V
56 0 R
0 56 V
56 0 V
0 -56 V
-56 0 V
56 0 R
56 0 V
-56 0 V
56 0 R
56 0 V
-56 0 V
56 0 R
56 0 V
-56 0 V
56 0 R
56 0 V
-56 0 V
56 0 R
56 0 V
-56 0 V
56 0 R
56 0 V
-56 0 V
56 0 R
55 0 V
-55 0 V
55 0 R
56 0 V
-56 0 V
56 0 R
56 0 V
-56 0 V
56 0 R
56 0 V
-56 0 V
56 0 R
56 0 V
-56 0 V
56 0 R
56 0 V
-56 0 V
56 0 R
56 0 V
-56 0 V
56 0 R
56 0 V
-56 0 V
56 0 R
56 0 V
-56 0 V
56 0 R
56 0 V
-56 0 V
56 0 R
55 0 V
-55 0 V
55 0 R
56 0 V
-56 0 V
56 0 R
56 0 V
-56 0 V
56 0 R
56 0 V
-56 0 V
56 0 R
56 0 V
-56 0 V
56 0 R
56 0 V
-56 0 V
56 0 R
56 0 V
-56 0 V
56 0 R
56 0 V
-56 0 V
56 0 R
56 0 V
-56 0 V
56 0 R
56 0 V
-56 0 V
56 0 R
55 0 V
-55 0 V
55 0 R
56 0 V
-56 0 V
56 0 R
56 0 V
-56 0 V
56 0 R
56 0 V
-56 0 V
56 0 R
56 0 V
-56 0 V
56 0 R
56 0 V
-56 0 V
1.000 UL
LTb
0.500 UL
LTa
4146 2940 M
2816 0 V
1.000 UL
LTb
4146 2940 M
63 0 V
2753 0 R
-63 0 V
-2837 0 R
(0) Rshow
0.500 UL
LTa
4146 3220 M
2816 0 V
1.000 UL
LTb
4146 3220 M
63 0 V
2753 0 R
-63 0 V
-2837 0 R
(10) Rshow
0.500 UL
LTa
4146 3500 M
2816 0 V
1.000 UL
LTb
4146 3500 M
63 0 V
2753 0 R
-63 0 V
-2837 0 R
(20) Rshow
0.500 UL
LTa
4146 3780 M
2816 0 V
1.000 UL
LTb
4146 3780 M
63 0 V
2753 0 R
-63 0 V
-2837 0 R
(30) Rshow
0.500 UL
LTa
4146 4060 M
2816 0 V
1.000 UL
LTb
4146 4060 M
63 0 V
2753 0 R
-63 0 V
-2837 0 R
(40) Rshow
0.500 UL
LTa
4146 4340 M
2816 0 V
1.000 UL
LTb
4146 4340 M
63 0 V
2753 0 R
-63 0 V
-2837 0 R
(50) Rshow
0.500 UL
LTa
4146 4620 M
2816 0 V
1.000 UL
LTb
4146 4620 M
63 0 V
2753 0 R
-63 0 V
-2837 0 R
(60) Rshow
0.500 UL
LTa
4146 2940 M
0 1680 V
1.000 UL
LTb
4146 2940 M
0 63 V
0 1617 R
0 -63 V
0 -1757 R
(0) Cshow
0.500 UL
LTa
4459 2940 M
0 1680 V
1.000 UL
LTb
4459 2940 M
0 63 V
0 1617 R
0 -63 V
0 -1757 R
(0.5) Cshow
0.500 UL
LTa
4772 2940 M
0 1680 V
1.000 UL
LTb
4772 2940 M
0 63 V
0 1617 R
0 -63 V
0 -1757 R
(1) Cshow
0.500 UL
LTa
5085 2940 M
0 1680 V
1.000 UL
LTb
5085 2940 M
0 63 V
0 1617 R
0 -63 V
0 -1757 R
(1.5) Cshow
0.500 UL
LTa
5398 2940 M
0 1680 V
1.000 UL
LTb
5398 2940 M
0 63 V
0 1617 R
0 -63 V
0 -1757 R
(2) Cshow
0.500 UL
LTa
5710 2940 M
0 1680 V
1.000 UL
LTb
5710 2940 M
0 63 V
0 1617 R
0 -63 V
0 -1757 R
(2.5) Cshow
0.500 UL
LTa
6023 2940 M
0 1680 V
1.000 UL
LTb
6023 2940 M
0 63 V
0 1617 R
0 -63 V
0 -1757 R
(3) Cshow
0.500 UL
LTa
6336 2940 M
0 1617 V
0 63 V
1.000 UL
LTb
6336 2940 M
0 63 V
0 1617 R
0 -63 V
0 -1757 R
(3.5) Cshow
0.500 UL
LTa
6649 2940 M
0 1617 V
0 63 V
1.000 UL
LTb
6649 2940 M
0 63 V
0 1617 R
0 -63 V
0 -1757 R
(4) Cshow
0.500 UL
LTa
6962 2940 M
0 1680 V
1.000 UL
LTb
6962 2940 M
0 63 V
0 1617 R
0 -63 V
0 -1757 R
(4.5) Cshow
1.000 UL
LTb
4146 2940 M
2816 0 V
0 1680 V
-2816 0 V
0 -1680 V
-406 840 R
currentpoint gsave translate 90 rotate 0 0 M
(# of data points) Cshow
grestore
5554 2590 M
(Distance From Cluster Center) Cshow
5554 4830 M
(Outside the Cluster Histogram) Cshow
1.000 UL
LT0
4146 2940 M
56 0 V
-56 0 V
56 0 R
56 0 V
-56 0 V
56 0 R
56 0 V
-56 0 V
56 0 R
56 0 V
-56 0 V
56 0 R
55 0 V
-55 0 V
55 0 R
56 0 V
-56 0 V
56 0 R
56 0 V
-56 0 V
56 0 R
56 0 V
-56 0 V
56 0 R
56 0 V
-56 0 V
56 0 R
56 0 V
-56 0 V
56 0 R
0 28 V
56 0 V
0 -28 V
-56 0 V
56 0 R
0 84 V
56 0 V
0 -84 V
-56 0 V
56 0 R
0 56 V
56 0 V
0 -56 V
-56 0 V
56 0 R
0 84 V
56 0 V
0 -84 V
-56 0 V
56 0 R
0 84 V
55 0 V
0 -84 V
-55 0 V
55 0 R
0 112 V
56 0 V
0 -112 V
-56 0 V
56 0 R
0 84 V
56 0 V
0 -84 V
-56 0 V
56 0 R
0 336 V
56 0 V
0 -336 V
-56 0 V
56 0 R
0 448 V
56 0 V
0 -448 V
-56 0 V
56 0 R
0 812 V
56 0 V
0 -812 V
-56 0 V
56 0 R
0 924 V
56 0 V
0 -924 V
-56 0 V
56 0 R
0 924 V
56 0 V
0 -924 V
-56 0 V
56 0 R
0 392 V
56 0 V
0 -392 V
-56 0 V
56 0 R
0 532 V
56 0 V
0 -532 V
-56 0 V
56 0 R
0 728 V
55 0 V
0 -728 V
-55 0 V
55 0 R
0 952 V
56 0 V
0 -952 V
-56 0 V
56 0 R
0 1372 V
56 0 V
0 -1372 V
-56 0 V
56 0 R
0 1120 V
56 0 V
0 -1120 V
-56 0 V
56 0 R
0 1512 V
56 0 V
0 -1512 V
-56 0 V
56 0 R
0 1260 V
56 0 V
0 -1260 V
-56 0 V
56 0 R
0 1316 V
56 0 V
0 -1316 V
-56 0 V
56 0 R
0 420 V
56 0 V
0 -420 V
-56 0 V
56 0 R
0 504 V
56 0 V
0 -504 V
-56 0 V
56 0 R
0 336 V
56 0 V
0 -336 V
-56 0 V
56 0 R
0 392 V
55 0 V
0 -392 V
-55 0 V
55 0 R
0 56 V
56 0 V
0 -56 V
-56 0 V
56 0 R
0 224 V
56 0 V
0 -224 V
-56 0 V
56 0 R
0 112 V
56 0 V
0 -112 V
-56 0 V
56 0 R
0 448 V
56 0 V
0 -448 V
-56 0 V
56 0 R
0 308 V
56 0 V
0 -308 V
-56 0 V
56 0 R
0 224 V
56 0 V
0 -224 V
-56 0 V
56 0 R
0 168 V
56 0 V
0 -168 V
-56 0 V
56 0 R
0 28 V
56 0 V
0 -28 V
-56 0 V
56 0 R
0 28 V
56 0 V
0 -28 V
-56 0 V
56 0 R
0 28 V
55 0 V
0 -28 V
-55 0 V
55 0 R
0 140 V
56 0 V
0 -140 V
-56 0 V
56 0 R
0 280 V
56 0 V
0 -280 V
-56 0 V
56 0 R
0 56 V
56 0 V
0 -56 V
-56 0 V
56 0 R
0 56 V
56 0 V
0 -56 V
-56 0 V
56 0 R
0 28 V
56 0 V
0 -28 V
-56 0 V
