%!PS-Adobe-3.0 EPSF-3.0
%%BoundingBox: 71 222 539 572
%%Pages: 0
%%Creator: (BLT 2.4 Graph)
%%CreationDate: (Wed Aug  6 00:39:50 2003)
%%Title: (csDM-0vs4.eps)
%%DocumentData: Clean7Bit
%%Orientation: Portrait
%%DocumentNeededResources: font Helvetica Courier
%%EndComments


% including file "/usr/lib/blt2.4/bltGraph.pro"

%%BeginProlog
%
% PostScript prolog file of the BLT graph widget.
%
% Copyright 1989-1992 Regents of the University of California.
% Permission to use, copy, modify, and distribute this
% software and its documentation for any purpose and without
% fee is hereby granted, provided that the above copyright
% notice appear in all copies.  The University of California
% makes no representations about the suitability of this
% software for any purpose.  It is provided "as is" without
% express or implied warranty.
%
% Copyright 1991-1997 Bell Labs Innovations for Lucent Technologies.
%
% Permission to use, copy, modify, and distribute this software and its
% documentation for any purpose and without fee is hereby granted, provided
% that the above copyright notice appear in all copies and that both that the
% copyright notice and warranty disclaimer appear in supporting documentation,
% and that the names of Lucent Technologies any of their entities not be used
% in advertising or publicity pertaining to distribution of the software
% without specific, written prior permission.
%
% Lucent Technologies disclaims all warranties with regard to this software,
% including all implied warranties of merchantability and fitness.  In no event
% shall Lucent Technologies be liable for any special, indirect or
% consequential damages or any damages whatsoever resulting from loss of use,
% data or profits, whether in an action of contract, negligence or other
% tortuous action, arising out of or in connection with the use or performance
% of this software.
%

200 dict begin

/BaseRatio 1.3467736870885982 def	% Ratio triangle base / symbol size
/BgColorProc 0 def			% Background color routine (symbols)
/DrawSymbolProc 0 def			% Routine to draw symbol outline/fill
/StippleProc 0 def			% Stipple routine (bar segments)
/DashesProc 0 def			% Dashes routine (line segments)
  
% Define the array ISOLatin1Encoding (which specifies how characters are 
% encoded for ISO-8859-1 fonts), if it isn't already present (Postscript 
% level 2 is supposed to define it, but level 1 doesn't). 
 
systemdict /ISOLatin1Encoding known not { 
  /ISOLatin1Encoding [ 
    /space /space /space /space /space /space /space /space 
    /space /space /space /space /space /space /space /space 
    /space /space /space /space /space /space /space /space 
    /space /space /space /space /space /space /space /space 
    /space /exclam /quotedbl /numbersign /dollar /percent /ampersand 
    /quoteright 
    /parenleft /parenright /asterisk /plus /comma /minus /period /slash 
    /zero /one /two /three /four /five /six /seven 
    /eight /nine /colon /semicolon /less /equal /greater /question 
    /at /A /B /C /D /E /F /G 
    /H /I /J /K /L /M /N /O 
    /P /Q /R /S /T /U /V /W 
    /X /Y /Z /bracketleft /backslash /bracketright /asciicircum /underscore 
    /quoteleft /a /b /c /d /e /f /g 
    /h /i /j /k /l /m /n /o 
    /p /q /r /s /t /u /v /w 
    /x /y /z /braceleft /bar /braceright /asciitilde /space 
    /space /space /space /space /space /space /space /space 
    /space /space /space /space /space /space /space /space 
    /dotlessi /grave /acute /circumflex /tilde /macron /breve /dotaccent 
    /dieresis /space /ring /cedilla /space /hungarumlaut /ogonek /caron 
    /space /exclamdown /cent /sterling /currency /yen /brokenbar /section 
    /dieresis /copyright /ordfeminine /guillemotleft /logicalnot /hyphen 
    /registered /macron 
    /degree /plusminus /twosuperior /threesuperior /acute /mu /paragraph 
    /periodcentered 
    /cedillar /onesuperior /ordmasculine /guillemotright /onequarter 
    /onehalf /threequarters /questiondown 
    /Agrave /Aacute /Acircumflex /Atilde /Adieresis /Aring /AE /Ccedilla 
    /Egrave /Eacute /Ecircumflex /Edieresis /Igrave /Iacute /Icircumflex 
    /Idieresis 
    /Eth /Ntilde /Ograve /Oacute /Ocircumflex /Otilde /Odieresis /multiply 
    /Oslash /Ugrave /Uacute /Ucircumflex /Udieresis /Yacute /Thorn 
    /germandbls 
    /agrave /aacute /acircumflex /atilde /adieresis /aring /ae /ccedilla 
    /egrave /eacute /ecircumflex /edieresis /igrave /iacute /icircumflex 
    /idieresis 
    /eth /ntilde /ograve /oacute /ocircumflex /otilde /odieresis /divide 
    /oslash /ugrave /uacute /ucircumflex /udieresis /yacute /thorn 
    /ydieresis 
  ] def 
} if 

% font ISOEncode font 
% This procedure changes the encoding of a font from the default 
% Postscript encoding to ISOLatin1.  It is typically invoked just 
% before invoking "setfont".  The body of this procedure comes from 
% Section 5.6.1 of the Postscript book. 

/ISOEncode { 
  dup length dict
  begin 
    {1 index /FID ne {def} {pop pop} ifelse} forall 
    /Encoding ISOLatin1Encoding def 
    currentdict 
  end 

  % I'm not sure why it's necessary to use "definefont" on this new 
  % font, but it seems to be important; just use the name "Temporary" 
  % for the font. 

  /Temporary exch definefont 
} bind def 

/Stroke {
  gsave
    stroke
  grestore
} def

/Fill {
  gsave
    fill
  grestore
} def

/SetFont { 	
  % Stack: pointSize fontName
  findfont exch scalefont ISOEncode setfont
} def

/Box {
  % Stack: x y width height
  newpath
  exch 4 2 roll moveto
  dup 0 rlineto
  exch 0 exch rlineto
  neg 0 rlineto
  closepath
} def

/SetFgColor {
  % Stack: red green blue
  CL 0 eq { 
    pop pop pop 0 0 0 
  } if
  setrgbcolor
  CL 1 eq { 
    currentgray setgray 
  } if
} def

/SetBgColor {
  % Stack: red green blue
  CL 0 eq { 
    pop pop pop 1 1 1 
  } if
  setrgbcolor
  CL 1 eq { 
    currentgray setgray 
  } if
} def

% The next two definitions are taken from "$tk_library/prolog.ps"

% desiredSize EvenPixels closestSize
%
% The procedure below is used for stippling.  Given the optimal size
% of a dot in a stipple pattern in the current user coordinate system,
% compute the closest size that is an exact multiple of the device's
% pixel size.  This allows stipple patterns to be displayed without
% aliasing effects.

/EvenPixels {
  % Compute exact number of device pixels per stipple dot.
  dup 0 matrix currentmatrix dtransform
  dup mul exch dup mul add sqrt

  % Round to an integer, make sure the number is at least 1, and compute
  % user coord distance corresponding to this.
  dup round dup 1 lt {pop 1} if
  exch div mul
} bind def

% width height string filled StippleFill --
%
% Given a path and other graphics information already set up, this
% procedure will fill the current path in a stippled fashion.  "String"
% contains a proper image description of the stipple pattern and
% "width" and "height" give its dimensions.  If "filled" is true then
% it means that the area to be stippled is gotten by filling the
% current path (e.g. the interior of a polygon); if it's false, the
% area is gotten by stroking the current path (e.g. a wide line).
% Each stipple dot is assumed to be about one unit across in the
% current user coordinate system.

% width height string StippleFill --
%
% Given a path already set up and a clipping region generated from
% it, this procedure will fill the clipping region with a stipple
% pattern.  "String" contains a proper image description of the
% stipple pattern and "width" and "height" give its dimensions.  Each
% stipple dot is assumed to be about one unit across in the current
% user coordinate system.  This procedure trashes the graphics state.

/StippleFill {
    % The following code is needed to work around a NeWSprint bug.

    /tmpstip 1 index def

    % Change the scaling so that one user unit in user coordinates
    % corresponds to the size of one stipple dot.
    1 EvenPixels dup scale

    % Compute the bounding box occupied by the path (which is now
    % the clipping region), and round the lower coordinates down
    % to the nearest starting point for the stipple pattern.  Be
    % careful about negative numbers, since the rounding works
    % differently on them.

    pathbbox
    4 2 roll
    5 index div dup 0 lt {1 sub} if cvi 5 index mul 4 1 roll
    6 index div dup 0 lt {1 sub} if cvi 6 index mul 3 2 roll

    % Stack now: width height string y1 y2 x1 x2
    % Below is a doubly-nested for loop to iterate across this area
    % in units of the stipple pattern size, going up columns then
    % across rows, blasting out a stipple-pattern-sized rectangle at
    % each position

    6 index exch {
	2 index 5 index 3 index {
	    % Stack now: width height string y1 y2 x y

	    gsave
	    1 index exch translate
	    5 index 5 index true matrix tmpstip imagemask
	    grestore
	} for
	pop
    } for
    pop pop pop pop pop
} bind def


/LS {	% Stack: x1 y1 x2 y2
  newpath 4 2 roll moveto lineto stroke
} def

/EndText {
  %Stack :
  grestore
} def

/BeginText {
  %Stack :  w h theta centerX centerY
  gsave
    % Translate the origin to the center of bounding box and rotate
    translate neg rotate
    % Translate back to the origin of the text region
    -0.5 mul exch -0.5 mul exch translate
} def

/DrawAdjText {
  %Stack : str strWidth x y
  moveto				% Go to the text position
  exch dup dup 4 2 roll

  % Adjust character widths to get desired overall string width
  % adjust X = (desired width - real width)/#chars

  stringwidth pop sub exch
  length div
  0 3 -1 roll

  % Flip back the scale so that the string is not drawn in reverse

  gsave
    1 -1 scale
    ashow
  grestore
} def

/DrawBitmap {
  % Stack: ?bgColorProc? boolean centerX centerY width height theta imageStr
  gsave
    6 -2 roll translate			% Translate to center of bounding box
    4 1 roll neg rotate			% Rotate by theta
    
    % Find upperleft corner of bounding box
    
    2 copy -.5 mul exch -.5 mul exch translate
    2 copy scale			% Make pixel unit scale
    newpath
    0 0 moveto 0 1 lineto 1 1 lineto 1 0 lineto
    closepath
    
    % Fill rectangle with background color
    
    4 -1 roll { 
      gsave 
	4 -1 roll exec fill 
      grestore 
    } if
    
    % Paint the image string into the unit rectangle
    
    2 copy true 3 -1 roll 0 0 5 -1 roll 0 0 6 array astore 5 -1 roll
    imagemask
  grestore
} def

% Symbols:

% Skinny-cross
/Sc {
  % Stack: x y symbolSize
  gsave
    3 -2 roll translate 45 rotate
    0 0 3 -1 roll Sp
  grestore
} def

% Skinny-plus
/Sp {
  % Stack: x y symbolSize
  gsave
    3 -2 roll translate
    2 idiv
    dup 2 copy
    newpath neg 0 moveto 0 lineto
    DrawSymbolProc
    newpath neg 0 exch moveto 0 exch lineto
    DrawSymbolProc
  grestore
} def

% Cross
/Cr {
  % Stack: x y symbolSize
  gsave
    3 -2 roll translate 45 rotate
    0 0 3 -1 roll Pl
  grestore
} def

% Plus
/Pl {
  % Stack: x y symbolSize
  gsave
    3 -2 roll translate
    dup 2 idiv
    exch 6 idiv

    %
    %          2   3		The plus/cross symbol is a
    %				closed polygon of 12 points.
    %      0   1   4    5	The diagram to the left
    %           x,y		represents the positions of
    %     11  10   7    6	the points which are computed
    %				below.
    %          9   8
    %

    newpath
    2 copy exch neg exch neg moveto dup neg dup lineto
    2 copy neg exch neg lineto 2 copy exch neg lineto
    dup dup neg lineto 2 copy neg lineto 2 copy lineto
    dup dup lineto 2 copy exch lineto 2 copy neg exch lineto
    dup dup neg exch lineto exch neg exch lineto
    closepath
    DrawSymbolProc
  grestore
} def

% Circle
/Ci {
  % Stack: x y symbolSize
  gsave
    3 copy pop
    moveto newpath
    2 div 0 360 arc
    closepath DrawSymbolProc
  grestore
} def

% Square
/Sq {
  % Stack: x y symbolSize
  gsave
    dup dup 2 div dup
    6 -1 roll exch sub exch
    5 -1 roll exch sub 4 -2 roll Box
    DrawSymbolProc
  grestore
} def

% Line
/Li {
  % Stack: x y symbolSize
  gsave
    3 1 roll exch 3 -1 roll 2 div 3 copy
    newpath
    sub exch moveto add exch lineto
    stroke
  grestore
} def

% Diamond
/Di {
  % Stack: x y symbolSize
  gsave
    3 1 roll translate 45 rotate 0 0 3 -1 roll Sq
  grestore
} def
    
% Triangle
/Tr {
  % Stack: x y symbolSize
  gsave
    3 -2 roll translate
    BaseRatio mul 0.5 mul		% Calculate 1/2 base
    dup 0 exch 30 cos mul		% h1 = height above center point
    neg					% b2 0 -h1
    newpath moveto			% point 1;  b2
    dup 30 sin 30 cos div mul		% h2 = height below center point
    2 copy lineto			% point 2;  b2 h2
    exch neg exch lineto		% 
    closepath
    DrawSymbolProc
  grestore
} def

% Arrow
/Ar {
  % Stack: x y symbolSize
  gsave
    3 -2 roll translate
    BaseRatio mul 0.5 mul		% Calculate 1/2 base
    dup 0 exch 30 cos mul		% h1 = height above center point
					% b2 0 h1
    newpath moveto			% point 1;  b2
    dup 30 sin 30 cos div mul		% h2 = height below center point
    neg					% -h2 b2
    2 copy lineto			% point 2;  b2 h2
    exch neg exch lineto		% 
    closepath
    DrawSymbolProc
  grestore
} def

% Bitmap
/Bm {
  % Stack: x y symbolSize
  gsave
    3 1 roll translate pop DrawSymbolProc
  grestore
} def

%%EndProlog

%%BeginSetup
gsave					% Save the graphics state

% Default line/text style parameters

1 setlinewidth				% width
1 setlinejoin				% join
0 setlinecap				% cap
[] 0 setdash				% dashes

/CL 0 def				% Set color level mode
0 0 0 setrgbcolor			% color

% Transform coordinate system to use X11 coordinates

% 1. Flip y-axis over by reversing the scale,
% 2. Translate the origin to the other side of the page,
%    making the origin the upper left corner
0.958907 -0.959646 scale
0 -826 translate

% User defined page layout

% Set color level
/CL 2 def

% Set origin
75 230 translate


% Setting graph scale factor
 0.949416 0.949416 scale

%%EndSetup

13 /Helvetica SetFont
31 6 478 350 Box

1 1 1 SetBgColor
Fill
gsave clip


% Element "69"

1 setlinewidth
[ ] 0 setdash

/DrawSymbolProc {
  1 0.509804 0 SetBgColor
  Fill
  1 0.509804 0 SetFgColor
  stroke
} def

277.04 318.198 3 Ci

% Element "68"

1 setlinewidth
[ ] 0 setdash

/DrawSymbolProc {
  1 0.509804 0 SetBgColor
  Fill
  1 0.509804 0 SetFgColor
  stroke
} def

273.12 310.37 3 Ci

% Element "67"

1 setlinewidth
[ ] 0 setdash

/DrawSymbolProc {
  1 0.682353 0 SetBgColor
  Fill
  1 0.682353 0 SetFgColor
  stroke
} def

263.872 276.915 3 Ci

% Element "66"

1 setlinewidth
[ ] 0 setdash

/DrawSymbolProc {
  1 0.698039 0 SetBgColor
  Fill
  1 0.698039 0 SetFgColor
  stroke
} def

245.471 295.614 3 Ci

% Element "65"

1 setlinewidth
[ ] 0 setdash

/DrawSymbolProc {
  1 0.333333 0 SetBgColor
  Fill
  1 0.333333 0 SetFgColor
  stroke
} def

224.713 332.298 3 Ci

% Element "64"

1 setlinewidth
[ ] 0 setdash

/DrawSymbolProc {
  1 0.333333 0 SetBgColor
  Fill
  1 0.333333 0 SetFgColor
  stroke
} def

248.016 323.751 3 Ci

% Element "63"

1 setlinewidth
[ ] 0 setdash

/DrawSymbolProc {
  1 0.588235 0 SetBgColor
  Fill
  1 0.588235 0 SetFgColor
  stroke
} def

288.303 294.575 3 Ci

% Element "62"

1 setlinewidth
[ ] 0 setdash

/DrawSymbolProc {
  1 0.603922 0 SetBgColor
  Fill
  1 0.603922 0 SetFgColor
  stroke
} def

205.035 269.89 3 Ci

% Element "61"

1 setlinewidth
[ ] 0 setdash

/DrawSymbolProc {
  1 0.52549 0 SetBgColor
  Fill
  1 0.52549 0 SetFgColor
  stroke
} def

254.143 315.199 3 Ci

% Element "60"

1 setlinewidth
[ ] 0 setdash

/DrawSymbolProc {
  1 0.301961 0 SetBgColor
  Fill
  1 0.301961 0 SetFgColor
  stroke
} def

204.321 316.38 3 Ci

% Element "59"

1 setlinewidth
[ ] 0 setdash

/DrawSymbolProc {
  1 0.380392 0 SetBgColor
  Fill
  1 0.380392 0 SetFgColor
  stroke
} def

251.363 304.724 3 Ci

% Element "58"

1 setlinewidth
[ ] 0 setdash

/DrawSymbolProc {
  1 0 0 SetBgColor
  Fill
  1 0 0 SetFgColor
  stroke
} def

238.17 342.695 3 Ci

% Element "57"

1 setlinewidth
[ ] 0 setdash

/DrawSymbolProc {
  1 0.286275 0 SetBgColor
  Fill
  1 0.286275 0 SetFgColor
  stroke
} def

247.528 333.355 3 Ci

% Element "56"

1 setlinewidth
[ ] 0 setdash

/DrawSymbolProc {
  1 0.588235 0 SetBgColor
  Fill
  1 0.588235 0 SetFgColor
  stroke
} def

267.458 291.812 3 Ci

% Element "55"

1 setlinewidth
[ ] 0 setdash

/DrawSymbolProc {
  1 0.396078 0 SetBgColor
  Fill
  1 0.396078 0 SetFgColor
  stroke
} def

251.049 280.155 3 Ci

% Element "54"

1 setlinewidth
[ ] 0 setdash

/DrawSymbolProc {
  1 0.47451 0 SetBgColor
  Fill
  1 0.47451 0 SetFgColor
  stroke
} def

220.23 334.953 3 Ci

% Element "53"

1 setlinewidth
[ ] 0 setdash

/DrawSymbolProc {
  1 0.47451 0 SetBgColor
  Fill
  1 0.47451 0 SetFgColor
  stroke
} def

241.194 315.439 3 Ci

% Element "52"

1 setlinewidth
[ ] 0 setdash

/DrawSymbolProc {
  1 0.411765 0 SetBgColor
  Fill
  1 0.411765 0 SetFgColor
  stroke
} def

253.723 331.289 3 Ci

% Element "51"

1 setlinewidth
[ ] 0 setdash

/DrawSymbolProc {
  1 0.109804 0 SetBgColor
  Fill
  1 0.109804 0 SetFgColor
  stroke
} def

215.718 345 3 Ci

% Element "50"

1 setlinewidth
[ ] 0 setdash

/DrawSymbolProc {
  1 0.509804 0 SetBgColor
  Fill
  1 0.509804 0 SetFgColor
  stroke
} def

296.163 300.01 3 Ci

% Element "49"

1 setlinewidth
[ ] 0 setdash

/DrawSymbolProc {
  0 0.12549 1 SetBgColor
  Fill
  0 0.12549 1 SetFgColor
  stroke
} def

235.016 27.5726 3 Ci

% Element "48"

1 setlinewidth
[ ] 0 setdash

/DrawSymbolProc {
  0.0627451 0 1 SetBgColor
  Fill
  0.0627451 0 1 SetFgColor
  stroke
} def

301.814 39.7758 3 Ci

% Element "47"

1 setlinewidth
[ ] 0 setdash

/DrawSymbolProc {
  0 0 1 SetBgColor
  Fill
  0 0 1 SetFgColor
  stroke
} def

310.447 43.3485 3 Ci

% Element "46"

1 setlinewidth
[ ] 0 setdash

/DrawSymbolProc {
  0.0627451 0 1 SetBgColor
  Fill
  0.0627451 0 1 SetFgColor
  stroke
} def

306.186 45.3876 3 Ci

% Element "45"

1 setlinewidth
[ ] 0 setdash

/DrawSymbolProc {
  0 0.156863 1 SetBgColor
  Fill
  0 0.156863 1 SetFgColor
  stroke
} def

41 53.733 3 Ci

% Element "44"

1 setlinewidth
[ ] 0 setdash

/DrawSymbolProc {
  0 0.235294 1 SetBgColor
  Fill
  0 0.235294 1 SetFgColor
  stroke
} def

209.033 28.4171 3 Ci

% Element "43"

1 setlinewidth
[ ] 0 setdash

/DrawSymbolProc {
  0.12549 0 1 SetBgColor
  Fill
  0.12549 0 1 SetFgColor
  stroke
} def

336.474 52.3048 3 Ci

% Element "42"

1 setlinewidth
[ ] 0 setdash

/DrawSymbolProc {
  0.12549 0 1 SetBgColor
  Fill
  0.12549 0 1 SetFgColor
  stroke
} def

271.678 33.6514 3 Ci

% Element "41"

1 setlinewidth
[ ] 0 setdash

/DrawSymbolProc {
  0 0.0627451 1 SetBgColor
  Fill
  0 0.0627451 1 SetFgColor
  stroke
} def

142.675 24.7196 3 Ci

% Element "40"

1 setlinewidth
[ ] 0 setdash

/DrawSymbolProc {
  0 0 1 SetBgColor
  Fill
  0 0 1 SetFgColor
  stroke
} def

322.706 57.9365 3 Ci

% Element "39"

1 setlinewidth
[ ] 0 setdash

/DrawSymbolProc {
  0 0.0941176 1 SetBgColor
  Fill
  0 0.0941176 1 SetFgColor
  stroke
} def

286.022 45.5735 3 Ci

% Element "38"

1 setlinewidth
[ ] 0 setdash

/DrawSymbolProc {
  0.156863 0 1 SetBgColor
  Fill
  0.156863 0 1 SetFgColor
  stroke
} def

337.567 57.0108 3 Ci

% Element "37"

1 setlinewidth
[ ] 0 setdash

/DrawSymbolProc {
  0.156863 0 1 SetBgColor
  Fill
  0.156863 0 1 SetFgColor
  stroke
} def

359.922 43.5899 3 Ci

% Element "36"

1 setlinewidth
[ ] 0 setdash

/DrawSymbolProc {
  0.12549 0 1 SetBgColor
  Fill
  0.12549 0 1 SetFgColor
  stroke
} def

251.005 26.1501 3 Ci

% Element "35"

1 setlinewidth
[ ] 0 setdash

/DrawSymbolProc {
  0.0941176 0 1 SetBgColor
  Fill
  0.0941176 0 1 SetFgColor
  stroke
} def

278.204 16 3 Ci

% Element "34"

1 setlinewidth
[ ] 0 setdash

/DrawSymbolProc {
  0.188235 0 1 SetBgColor
  Fill
  0.188235 0 1 SetFgColor
  stroke
} def

281.417 50.1268 3 Ci

% Element "33"

1 setlinewidth
[ ] 0 setdash

/DrawSymbolProc {
  0 0.235294 1 SetBgColor
  Fill
  0 0.235294 1 SetFgColor
  stroke
} def

79.007 65.5183 3 Ci

% Element "32"

1 setlinewidth
[ ] 0 setdash

/DrawSymbolProc {
  0 0 1 SetBgColor
  Fill
  0 0 1 SetFgColor
  stroke
} def

164.722 38.8554 3 Ci

% Element "31"

1 setlinewidth
[ ] 0 setdash

/DrawSymbolProc {
  0 0.156863 1 SetBgColor
  Fill
  0 0.156863 1 SetFgColor
  stroke
} def

201.237 54.6732 3 Ci

% Element "30"

1 setlinewidth
[ ] 0 setdash

/DrawSymbolProc {
  0 0.141176 1 SetBgColor
  Fill
  0 0.141176 1 SetFgColor
  stroke
} def

183.35 54.3981 3 Ci

% Element "29"

1 setlinewidth
[ ] 0 setdash

/DrawSymbolProc {
  0 1 0.34902 SetBgColor
  Fill
  0 1 0.34902 SetFgColor
  stroke
} def

197.988 157.439 3 Ci

% Element "28"

1 setlinewidth
[ ] 0 setdash

/DrawSymbolProc {
  0 1 0.34902 SetBgColor
  Fill
  0 1 0.34902 SetFgColor
  stroke
} def

498 199.432 3 Ci

% Element "27"

1 setlinewidth
[ ] 0 setdash

/DrawSymbolProc {
  0 1 0.219608 SetBgColor
  Fill
  0 1 0.219608 SetFgColor
  stroke
} def

236.669 187.346 3 Ci

% Element "26"

1 setlinewidth
[ ] 0 setdash

/DrawSymbolProc {
  0 1 0 SetBgColor
  Fill
  0 1 0 SetFgColor
  stroke
} def

213.408 182.552 3 Ci

% Element "25"

1 setlinewidth
[ ] 0 setdash

/DrawSymbolProc {
  0 1 0.219608 SetBgColor
  Fill
  0 1 0.219608 SetFgColor
  stroke
} def

248.425 156.28 3 Ci

% Element "24"

1 setlinewidth
[ ] 0 setdash

/DrawSymbolProc {
  0 1 0.156863 SetBgColor
  Fill
  0 1 0.156863 SetFgColor
  stroke
} def

221.075 184.585 3 Ci

% Element "23"

1 setlinewidth
[ ] 0 setdash

/DrawSymbolProc {
  0 1 0.0941176 SetBgColor
  Fill
  0 1 0.0941176 SetFgColor
  stroke
} def

139.15 185.913 3 Ci

% Element "22"

1 setlinewidth
[ ] 0 setdash

/DrawSymbolProc {
  0 1 0.254902 SetBgColor
  Fill
  0 1 0.254902 SetFgColor
  stroke
} def

116.787 165.468 3 Ci

% Element "21"

1 setlinewidth
[ ] 0 setdash

/DrawSymbolProc {
  0 1 0 SetBgColor
  Fill
  0 1 0 SetFgColor
  stroke
} def

357.92 194.155 3 Ci

% Element "20"

1 setlinewidth
[ ] 0 setdash

/DrawSymbolProc {
  0 1 0.0941176 SetBgColor
  Fill
  0 1 0.0941176 SetFgColor
  stroke
} def

176.973 177.959 3 Ci

% Element "19"

1 setlinewidth
[ ] 0 setdash

/DrawSymbolProc {
  0 1 0.219608 SetBgColor
  Fill
  0 1 0.219608 SetFgColor
  stroke
} def

235.543 186.991 3 Ci

% Element "18"

1 setlinewidth
[ ] 0 setdash

/DrawSymbolProc {
  0 1 0.443137 SetBgColor
  Fill
  0 1 0.443137 SetFgColor
  stroke
} def

195.518 173.922 3 Ci

% Element "17"

1 setlinewidth
[ ] 0 setdash

/DrawSymbolProc {
  0 1 0.0627451 SetBgColor
  Fill
  0 1 0.0627451 SetFgColor
  stroke
} def

242.792 185.956 3 Ci

% Element "16"

1 setlinewidth
[ ] 0 setdash

/DrawSymbolProc {
  0 1 0.52549 SetBgColor
  Fill
  0 1 0.52549 SetFgColor
  stroke
} def

378.96 193.63 3 Ci

% Element "15"

1 setlinewidth
[ ] 0 setdash

/DrawSymbolProc {
  0 1 0.0627451 SetBgColor
  Fill
  0 1 0.0627451 SetFgColor
  stroke
} def

310.572 184.963 3 Ci

% Element "14"

1 setlinewidth
[ ] 0 setdash

/DrawSymbolProc {
  0.0627451 1 0 SetBgColor
  Fill
  0.0627451 1 0 SetFgColor
  stroke
} def

202.866 175.577 3 Ci

% Element "13"

1 setlinewidth
[ ] 0 setdash

/DrawSymbolProc {
  0 1 0.47451 SetBgColor
  Fill
  0 1 0.47451 SetFgColor
  stroke
} def

390.762 171.393 3 Ci

% Element "12"

1 setlinewidth
[ ] 0 setdash

/DrawSymbolProc {
  0 1 0.443137 SetBgColor
  Fill
  0 1 0.443137 SetFgColor
  stroke
} def

325.832 161.038 3 Ci

% Element "11"

1 setlinewidth
[ ] 0 setdash

/DrawSymbolProc {
  0 1 0.411765 SetBgColor
  Fill
  0 1 0.411765 SetFgColor
  stroke
} def

367.531 178.208 3 Ci

% Element "10"

1 setlinewidth
[ ] 0 setdash

/DrawSymbolProc {
  0 1 0.219608 SetBgColor
  Fill
  0 1 0.219608 SetFgColor
  stroke
} def

161.96 197.555 3 Ci

% Element "9"

1 setlinewidth
[ ] 0 setdash

/DrawSymbolProc {
  0 1 0.52549 SetBgColor
  Fill
  0 1 0.52549 SetFgColor
  stroke
} def

319.169 182.601 3 Ci

% Element "8"

1 setlinewidth
[ ] 0 setdash

/DrawSymbolProc {
  0 1 0.556863 SetBgColor
  Fill
  0 1 0.556863 SetFgColor
  stroke
} def

420.353 182.129 3 Ci

% Element "7"

1 setlinewidth
[ ] 0 setdash

/DrawSymbolProc {
  0 1 0 SetBgColor
  Fill
  0 1 0 SetFgColor
  stroke
} def

237.262 193.243 3 Ci

% Element "6"

1 setlinewidth
[ ] 0 setdash

/DrawSymbolProc {
  0 1 0.411765 SetBgColor
  Fill
  0 1 0.411765 SetFgColor
  stroke
} def

308.749 185.228 3 Ci

% Element "5"

1 setlinewidth
[ ] 0 setdash

/DrawSymbolProc {
  0.12549 1 0 SetBgColor
  Fill
  0.12549 1 0 SetFgColor
  stroke
} def

233.785 185.392 3 Ci

% Element "4"

1 setlinewidth
[ ] 0 setdash

/DrawSymbolProc {
  0 1 0.286275 SetBgColor
  Fill
  0 1 0.286275 SetFgColor
  stroke
} def

151.499 174.715 3 Ci

% Element "3"

1 setlinewidth
[ ] 0 setdash

/DrawSymbolProc {
  0 1 0.219608 SetBgColor
  Fill
  0 1 0.219608 SetFgColor
  stroke
} def

164.29 180.255 3 Ci

% Element "2"

1 setlinewidth
[ ] 0 setdash

/DrawSymbolProc {
  0 1 0 SetBgColor
  Fill
  0 1 0 SetFgColor
  stroke
} def

141.06 173.362 3 Ci

% Element "1"

1 setlinewidth
[ ] 0 setdash

/DrawSymbolProc {
  0.0313725 1 0 SetBgColor
  Fill
  0.0313725 1 0 SetFgColor
  stroke
} def

232.311 182.265 3 Ci

% Element "0"

1 setlinewidth
[ ] 0 setdash

/DrawSymbolProc {
  0 1 0.380392 SetBgColor
  Fill
  0 1 0.380392 SetFgColor
  stroke
} def

312.084 166.373 3 Ci

% Unset clipping
grestore

0.843137 0.858824 0.843137 SetBgColor
0 0 514 8 Box fill

0 8 33 345 Box fill

506 8 8 345 Box fill

0 353 514 31 Box fill

1 1 1 SetBgColor
31 353 477 2 Box fill

506 6 2 349 Box fill

0.52549 0.509804 0.52549 SetBgColor
newpath 31 355 moveto
31 6 lineto
508 6 lineto
506 8 lineto
33 8 lineto
33 353 lineto
31 355 lineto
31 355  lineto closepath Fill
14 12 0 91.7988 374 BeginText
10 /Helvetica SetFont
0 0 0 SetFgColor
(-1) 10 2 10 DrawAdjText
EndText
10 12 0 236.578 374 BeginText
10 /Helvetica SetFont
0 0 0 SetFgColor
(0) 6 2 10 DrawAdjText
EndText
10 12 0 381.357 374 BeginText
10 /Helvetica SetFont
0 0 0 SetFgColor
(1) 6 2 10 DrawAdjText
EndText
0 setlinejoin
0 setlinecap
0 0 0 SetFgColor
1 setlinewidth
[ ] 0 setdash
/DashesProc {} def
41 358 moveto
 498 358 lineto
DashesProc stroke
164.188 358 moveto
 164.188 363 lineto
DashesProc stroke
91.7988 358 moveto
 91.7988 366 lineto
DashesProc stroke
308.968 358 moveto
 308.968 363 lineto
DashesProc stroke
236.578 358 moveto
 236.578 366 lineto
DashesProc stroke
453.747 358 moveto
 453.747 363 lineto
DashesProc stroke
381.357 358 moveto
 381.357 366 lineto
DashesProc stroke
14 12 0 11 310.457 BeginText
10 /Helvetica SetFont
0 0 0 SetFgColor
(-4) 10 2 10 DrawAdjText
EndText
14 12 0 11 244.531 BeginText
10 /Helvetica SetFont
0 0 0 SetFgColor
(-2) 10 2 10 DrawAdjText
EndText
10 12 0 13 178.605 BeginText
10 /Helvetica SetFont
0 0 0 SetFgColor
(0) 6 2 10 DrawAdjText
EndText
10 12 0 13 112.679 BeginText
10 /Helvetica SetFont
0 0 0 SetFgColor
(2) 6 2 10 DrawAdjText
EndText
10 12 0 13 46.7538 BeginText
10 /Helvetica SetFont
0 0 0 SetFgColor
(4) 6 2 10 DrawAdjText
EndText
0 setlinejoin
0 setlinecap
0 0 0 SetFgColor
1 setlinewidth
[ ] 0 setdash
/DashesProc {} def
28 345 moveto
 28 16 lineto
DashesProc stroke
28 343.42 moveto
 23 343.42 lineto
DashesProc stroke
28 277.494 moveto
 23 277.494 lineto
DashesProc stroke
28 310.457 moveto
 20 310.457 lineto
DashesProc stroke
28 211.568 moveto
 23 211.568 lineto
DashesProc stroke
28 244.531 moveto
 20 244.531 lineto
DashesProc stroke
28 145.642 moveto
 23 145.642 lineto
DashesProc stroke
28 178.605 moveto
 20 178.605 lineto
DashesProc stroke
28 79.7166 moveto
 23 79.7166 lineto
DashesProc stroke
28 112.679 moveto
 20 112.679 lineto
DashesProc stroke
28 46.7538 moveto
 20 46.7538 lineto
DashesProc stroke
showpage
%Trailer
grestore
end
%EOF
