%!PS-Adobe-3.0 EPSF-3.0
%%BoundingBox: 71 234 539 560
%%Pages: 0
%%Creator: (BLT 2.4 Graph)
%%CreationDate: (Tue Aug  5 23:16:08 2003)
%%Title: (simplePlot1.eps)
%%DocumentData: Clean7Bit
%%Orientation: Portrait
%%DocumentNeededResources: font Helvetica Courier
%%EndComments


% including file "/usr/lib/blt2.4/bltGraph.pro"

%%BeginProlog
%
% PostScript prolog file of the BLT graph widget.
%
% Copyright 1989-1992 Regents of the University of California.
% Permission to use, copy, modify, and distribute this
% software and its documentation for any purpose and without
% fee is hereby granted, provided that the above copyright
% notice appear in all copies.  The University of California
% makes no representations about the suitability of this
% software for any purpose.  It is provided "as is" without
% express or implied warranty.
%
% Copyright 1991-1997 Bell Labs Innovations for Lucent Technologies.
%
% Permission to use, copy, modify, and distribute this software and its
% documentation for any purpose and without fee is hereby granted, provided
% that the above copyright notice appear in all copies and that both that the
% copyright notice and warranty disclaimer appear in supporting documentation,
% and that the names of Lucent Technologies any of their entities not be used
% in advertising or publicity pertaining to distribution of the software
% without specific, written prior permission.
%
% Lucent Technologies disclaims all warranties with regard to this software,
% including all implied warranties of merchantability and fitness.  In no event
% shall Lucent Technologies be liable for any special, indirect or
% consequential damages or any damages whatsoever resulting from loss of use,
% data or profits, whether in an action of contract, negligence or other
% tortuous action, arising out of or in connection with the use or performance
% of this software.
%

200 dict begin

/BaseRatio 1.3467736870885982 def	% Ratio triangle base / symbol size
/BgColorProc 0 def			% Background color routine (symbols)
/DrawSymbolProc 0 def			% Routine to draw symbol outline/fill
/StippleProc 0 def			% Stipple routine (bar segments)
/DashesProc 0 def			% Dashes routine (line segments)
  
% Define the array ISOLatin1Encoding (which specifies how characters are 
% encoded for ISO-8859-1 fonts), if it isn't already present (Postscript 
% level 2 is supposed to define it, but level 1 doesn't). 
 
systemdict /ISOLatin1Encoding known not { 
  /ISOLatin1Encoding [ 
    /space /space /space /space /space /space /space /space 
    /space /space /space /space /space /space /space /space 
    /space /space /space /space /space /space /space /space 
    /space /space /space /space /space /space /space /space 
    /space /exclam /quotedbl /numbersign /dollar /percent /ampersand 
    /quoteright 
    /parenleft /parenright /asterisk /plus /comma /minus /period /slash 
    /zero /one /two /three /four /five /six /seven 
    /eight /nine /colon /semicolon /less /equal /greater /question 
    /at /A /B /C /D /E /F /G 
    /H /I /J /K /L /M /N /O 
    /P /Q /R /S /T /U /V /W 
    /X /Y /Z /bracketleft /backslash /bracketright /asciicircum /underscore 
    /quoteleft /a /b /c /d /e /f /g 
    /h /i /j /k /l /m /n /o 
    /p /q /r /s /t /u /v /w 
    /x /y /z /braceleft /bar /braceright /asciitilde /space 
    /space /space /space /space /space /space /space /space 
    /space /space /space /space /space /space /space /space 
    /dotlessi /grave /acute /circumflex /tilde /macron /breve /dotaccent 
    /dieresis /space /ring /cedilla /space /hungarumlaut /ogonek /caron 
    /space /exclamdown /cent /sterling /currency /yen /brokenbar /section 
    /dieresis /copyright /ordfeminine /guillemotleft /logicalnot /hyphen 
    /registered /macron 
    /degree /plusminus /twosuperior /threesuperior /acute /mu /paragraph 
    /periodcentered 
    /cedillar /onesuperior /ordmasculine /guillemotright /onequarter 
    /onehalf /threequarters /questiondown 
    /Agrave /Aacute /Acircumflex /Atilde /Adieresis /Aring /AE /Ccedilla 
    /Egrave /Eacute /Ecircumflex /Edieresis /Igrave /Iacute /Icircumflex 
    /Idieresis 
    /Eth /Ntilde /Ograve /Oacute /Ocircumflex /Otilde /Odieresis /multiply 
    /Oslash /Ugrave /Uacute /Ucircumflex /Udieresis /Yacute /Thorn 
    /germandbls 
    /agrave /aacute /acircumflex /atilde /adieresis /aring /ae /ccedilla 
    /egrave /eacute /ecircumflex /edieresis /igrave /iacute /icircumflex 
    /idieresis 
    /eth /ntilde /ograve /oacute /ocircumflex /otilde /odieresis /divide 
    /oslash /ugrave /uacute /ucircumflex /udieresis /yacute /thorn 
    /ydieresis 
  ] def 
} if 

% font ISOEncode font 
% This procedure changes the encoding of a font from the default 
% Postscript encoding to ISOLatin1.  It is typically invoked just 
% before invoking "setfont".  The body of this procedure comes from 
% Section 5.6.1 of the Postscript book. 

/ISOEncode { 
  dup length dict
  begin 
    {1 index /FID ne {def} {pop pop} ifelse} forall 
    /Encoding ISOLatin1Encoding def 
    currentdict 
  end 

  % I'm not sure why it's necessary to use "definefont" on this new 
  % font, but it seems to be important; just use the name "Temporary" 
  % for the font. 

  /Temporary exch definefont 
} bind def 

/Stroke {
  gsave
    stroke
  grestore
} def

/Fill {
  gsave
    fill
  grestore
} def

/SetFont { 	
  % Stack: pointSize fontName
  findfont exch scalefont ISOEncode setfont
} def

/Box {
  % Stack: x y width height
  newpath
  exch 4 2 roll moveto
  dup 0 rlineto
  exch 0 exch rlineto
  neg 0 rlineto
  closepath
} def

/SetFgColor {
  % Stack: red green blue
  CL 0 eq { 
    pop pop pop 0 0 0 
  } if
  setrgbcolor
  CL 1 eq { 
    currentgray setgray 
  } if
} def

/SetBgColor {
  % Stack: red green blue
  CL 0 eq { 
    pop pop pop 1 1 1 
  } if
  setrgbcolor
  CL 1 eq { 
    currentgray setgray 
  } if
} def

% The next two definitions are taken from "$tk_library/prolog.ps"

% desiredSize EvenPixels closestSize
%
% The procedure below is used for stippling.  Given the optimal size
% of a dot in a stipple pattern in the current user coordinate system,
% compute the closest size that is an exact multiple of the device's
% pixel size.  This allows stipple patterns to be displayed without
% aliasing effects.

/EvenPixels {
  % Compute exact number of device pixels per stipple dot.
  dup 0 matrix currentmatrix dtransform
  dup mul exch dup mul add sqrt

  % Round to an integer, make sure the number is at least 1, and compute
  % user coord distance corresponding to this.
  dup round dup 1 lt {pop 1} if
  exch div mul
} bind def

% width height string filled StippleFill --
%
% Given a path and other graphics information already set up, this
% procedure will fill the current path in a stippled fashion.  "String"
% contains a proper image description of the stipple pattern and
% "width" and "height" give its dimensions.  If "filled" is true then
% it means that the area to be stippled is gotten by filling the
% current path (e.g. the interior of a polygon); if it's false, the
% area is gotten by stroking the current path (e.g. a wide line).
% Each stipple dot is assumed to be about one unit across in the
% current user coordinate system.

% width height string StippleFill --
%
% Given a path already set up and a clipping region generated from
% it, this procedure will fill the clipping region with a stipple
% pattern.  "String" contains a proper image description of the
% stipple pattern and "width" and "height" give its dimensions.  Each
% stipple dot is assumed to be about one unit across in the current
% user coordinate system.  This procedure trashes the graphics state.

/StippleFill {
    % The following code is needed to work around a NeWSprint bug.

    /tmpstip 1 index def

    % Change the scaling so that one user unit in user coordinates
    % corresponds to the size of one stipple dot.
    1 EvenPixels dup scale

    % Compute the bounding box occupied by the path (which is now
    % the clipping region), and round the lower coordinates down
    % to the nearest starting point for the stipple pattern.  Be
    % careful about negative numbers, since the rounding works
    % differently on them.

    pathbbox
    4 2 roll
    5 index div dup 0 lt {1 sub} if cvi 5 index mul 4 1 roll
    6 index div dup 0 lt {1 sub} if cvi 6 index mul 3 2 roll

    % Stack now: width height string y1 y2 x1 x2
    % Below is a doubly-nested for loop to iterate across this area
    % in units of the stipple pattern size, going up columns then
    % across rows, blasting out a stipple-pattern-sized rectangle at
    % each position

    6 index exch {
	2 index 5 index 3 index {
	    % Stack now: width height string y1 y2 x y

	    gsave
	    1 index exch translate
	    5 index 5 index true matrix tmpstip imagemask
	    grestore
	} for
	pop
    } for
    pop pop pop pop pop
} bind def


/LS {	% Stack: x1 y1 x2 y2
  newpath 4 2 roll moveto lineto stroke
} def

/EndText {
  %Stack :
  grestore
} def

/BeginText {
  %Stack :  w h theta centerX centerY
  gsave
    % Translate the origin to the center of bounding box and rotate
    translate neg rotate
    % Translate back to the origin of the text region
    -0.5 mul exch -0.5 mul exch translate
} def

/DrawAdjText {
  %Stack : str strWidth x y
  moveto				% Go to the text position
  exch dup dup 4 2 roll

  % Adjust character widths to get desired overall string width
  % adjust X = (desired width - real width)/#chars

  stringwidth pop sub exch
  length div
  0 3 -1 roll

  % Flip back the scale so that the string is not drawn in reverse

  gsave
    1 -1 scale
    ashow
  grestore
} def

/DrawBitmap {
  % Stack: ?bgColorProc? boolean centerX centerY width height theta imageStr
  gsave
    6 -2 roll translate			% Translate to center of bounding box
    4 1 roll neg rotate			% Rotate by theta
    
    % Find upperleft corner of bounding box
    
    2 copy -.5 mul exch -.5 mul exch translate
    2 copy scale			% Make pixel unit scale
    newpath
    0 0 moveto 0 1 lineto 1 1 lineto 1 0 lineto
    closepath
    
    % Fill rectangle with background color
    
    4 -1 roll { 
      gsave 
	4 -1 roll exec fill 
      grestore 
    } if
    
    % Paint the image string into the unit rectangle
    
    2 copy true 3 -1 roll 0 0 5 -1 roll 0 0 6 array astore 5 -1 roll
    imagemask
  grestore
} def

% Symbols:

% Skinny-cross
/Sc {
  % Stack: x y symbolSize
  gsave
    3 -2 roll translate 45 rotate
    0 0 3 -1 roll Sp
  grestore
} def

% Skinny-plus
/Sp {
  % Stack: x y symbolSize
  gsave
    3 -2 roll translate
    2 idiv
    dup 2 copy
    newpath neg 0 moveto 0 lineto
    DrawSymbolProc
    newpath neg 0 exch moveto 0 exch lineto
    DrawSymbolProc
  grestore
} def

% Cross
/Cr {
  % Stack: x y symbolSize
  gsave
    3 -2 roll translate 45 rotate
    0 0 3 -1 roll Pl
  grestore
} def

% Plus
/Pl {
  % Stack: x y symbolSize
  gsave
    3 -2 roll translate
    dup 2 idiv
    exch 6 idiv

    %
    %          2   3		The plus/cross symbol is a
    %				closed polygon of 12 points.
    %      0   1   4    5	The diagram to the left
    %           x,y		represents the positions of
    %     11  10   7    6	the points which are computed
    %				below.
    %          9   8
    %

    newpath
    2 copy exch neg exch neg moveto dup neg dup lineto
    2 copy neg exch neg lineto 2 copy exch neg lineto
    dup dup neg lineto 2 copy neg lineto 2 copy lineto
    dup dup lineto 2 copy exch lineto 2 copy neg exch lineto
    dup dup neg exch lineto exch neg exch lineto
    closepath
    DrawSymbolProc
  grestore
} def

% Circle
/Ci {
  % Stack: x y symbolSize
  gsave
    3 copy pop
    moveto newpath
    2 div 0 360 arc
    closepath DrawSymbolProc
  grestore
} def

% Square
/Sq {
  % Stack: x y symbolSize
  gsave
    dup dup 2 div dup
    6 -1 roll exch sub exch
    5 -1 roll exch sub 4 -2 roll Box
    DrawSymbolProc
  grestore
} def

% Line
/Li {
  % Stack: x y symbolSize
  gsave
    3 1 roll exch 3 -1 roll 2 div 3 copy
    newpath
    sub exch moveto add exch lineto
    stroke
  grestore
} def

% Diamond
/Di {
  % Stack: x y symbolSize
  gsave
    3 1 roll translate 45 rotate 0 0 3 -1 roll Sq
  grestore
} def
    
% Triangle
/Tr {
  % Stack: x y symbolSize
  gsave
    3 -2 roll translate
    BaseRatio mul 0.5 mul		% Calculate 1/2 base
    dup 0 exch 30 cos mul		% h1 = height above center point
    neg					% b2 0 -h1
    newpath moveto			% point 1;  b2
    dup 30 sin 30 cos div mul		% h2 = height below center point
    2 copy lineto			% point 2;  b2 h2
    exch neg exch lineto		% 
    closepath
    DrawSymbolProc
  grestore
} def

% Arrow
/Ar {
  % Stack: x y symbolSize
  gsave
    3 -2 roll translate
    BaseRatio mul 0.5 mul		% Calculate 1/2 base
    dup 0 exch 30 cos mul		% h1 = height above center point
					% b2 0 h1
    newpath moveto			% point 1;  b2
    dup 30 sin 30 cos div mul		% h2 = height below center point
    neg					% -h2 b2
    2 copy lineto			% point 2;  b2 h2
    exch neg exch lineto		% 
    closepath
    DrawSymbolProc
  grestore
} def

% Bitmap
/Bm {
  % Stack: x y symbolSize
  gsave
    3 1 roll translate pop DrawSymbolProc
  grestore
} def

%%EndProlog

%%BeginSetup
gsave					% Save the graphics state

% Default line/text style parameters

1 setlinewidth				% width
1 setlinejoin				% join
0 setlinecap				% cap
[] 0 setdash				% dashes

/CL 0 def				% Set color level mode
0 0 0 setrgbcolor			% color

% Transform coordinate system to use X11 coordinates

% 1. Flip y-axis over by reversing the scale,
% 2. Translate the origin to the other side of the page,
%    making the origin the upper left corner
0.958907 -0.959646 scale
0 -826 translate

% User defined page layout

% Set color level
/CL 2 def

% Set origin
75 243 translate


% Setting graph scale factor
 0.917293 0.917293 scale

%%EndSetup

13 /Helvetica SetFont
31 6 496 337 Box

1 1 1 SetBgColor
Fill
gsave clip


% Element "69"

0 setlinejoin
0 setlinecap
1 0 0 SetFgColor
1 setlinewidth
[ ] 0 setdash
/DashesProc {} def
/DashesProc {} def
 newpath 41 180.2 moveto
 159.75 190.373 lineto
DashesProc stroke
 newpath  159.75 190.373 moveto
 278.5 220.578 lineto
 397.25 279.992 lineto
 516 285.029 lineto
DashesProc stroke
1 setlinewidth
[ ] 0 setdash

/DrawSymbolProc {
  1 0 0 SetBgColor
  Fill
  1 0 0 SetFgColor
  stroke
} def

41 180.2 3 Ci
159.75 190.373 3 Ci
278.5 220.578 3 Ci
397.25 279.992 3 Ci
516 285.029 3 Ci

% Element "68"

0 setlinejoin
0 setlinecap
1 0 0 SetFgColor
1 setlinewidth
[ ] 0 setdash
/DashesProc {} def
/DashesProc {} def
 newpath 41 174.788 moveto
 159.75 182.662 lineto
DashesProc stroke
 newpath  159.75 182.662 moveto
 278.5 260.941 lineto
 397.25 273.838 lineto
 516 295.786 lineto
DashesProc stroke
1 setlinewidth
[ ] 0 setdash

/DrawSymbolProc {
  1 0 0 SetBgColor
  Fill
  1 0 0 SetFgColor
  stroke
} def

41 174.788 3 Ci
159.75 182.662 3 Ci
278.5 260.941 3 Ci
397.25 273.838 3 Ci
516 295.786 3 Ci

% Element "67"

0 setlinejoin
0 setlinecap
1 0 0 SetFgColor
1 setlinewidth
[ ] 0 setdash
/DashesProc {} def
/DashesProc {} def
 newpath 41 158.705 moveto
 159.75 221.379 lineto
DashesProc stroke
 newpath  159.75 221.379 moveto
 278.5 237.395 lineto
 397.25 248.146 lineto
 516 270.898 lineto
DashesProc stroke
1 setlinewidth
[ ] 0 setdash

/DrawSymbolProc {
  1 0 0 SetBgColor
  Fill
  1 0 0 SetFgColor
  stroke
} def

41 158.705 3 Ci
159.75 221.379 3 Ci
278.5 237.395 3 Ci
397.25 248.146 3 Ci
516 270.898 3 Ci

% Element "66"

0 setlinejoin
0 setlinecap
1 0 0 SetFgColor
1 setlinewidth
[ ] 0 setdash
/DashesProc {} def
/DashesProc {} def
 newpath 41 186.732 moveto
 159.75 225.117 lineto
DashesProc stroke
 newpath  159.75 225.117 moveto
 278.5 242.607 lineto
 397.25 259.224 lineto
 516 285.717 lineto
DashesProc stroke
1 setlinewidth
[ ] 0 setdash

/DrawSymbolProc {
  1 0 0 SetBgColor
  Fill
  1 0 0 SetFgColor
  stroke
} def

41 186.732 3 Ci
159.75 225.117 3 Ci
278.5 242.607 3 Ci
397.25 259.224 3 Ci
516 285.717 3 Ci

% Element "65"

0 setlinejoin
0 setlinecap
1 0 0 SetFgColor
1 setlinewidth
[ ] 0 setdash
/DashesProc {} def
/DashesProc {} def
 newpath 41 208.042 moveto
 159.75 192.74 lineto
DashesProc stroke
 newpath  159.75 192.74 moveto
 278.5 193.836 lineto
 397.25 272.687 lineto
 516 332 lineto
DashesProc stroke
1 setlinewidth
[ ] 0 setdash

/DrawSymbolProc {
  1 0 0 SetBgColor
  Fill
  1 0 0 SetFgColor
  stroke
} def

41 208.042 3 Ci
159.75 192.74 3 Ci
278.5 193.836 3 Ci
397.25 272.687 3 Ci
516 332 3 Ci

% Element "64"

0 setlinejoin
0 setlinecap
1 0 0 SetFgColor
1 setlinewidth
[ ] 0 setdash
/DashesProc {} def
/DashesProc {} def
 newpath 41 139.935 moveto
 159.75 248.196 lineto
DashesProc stroke
 newpath  159.75 248.196 moveto
 278.5 255.613 lineto
 397.25 255.697 lineto
 516 298.669 lineto
DashesProc stroke
1 setlinewidth
[ ] 0 setdash

/DrawSymbolProc {
  1 0 0 SetBgColor
  Fill
  1 0 0 SetFgColor
  stroke
} def

41 139.935 3 Ci
159.75 248.196 3 Ci
278.5 255.613 3 Ci
397.25 255.697 3 Ci
516 298.669 3 Ci

% Element "63"

0 setlinejoin
0 setlinecap
1 0 0 SetFgColor
1 setlinewidth
[ ] 0 setdash
/DashesProc {} def
/DashesProc {} def
 newpath 41 170.301 moveto
 159.75 170.662 lineto
DashesProc stroke
 newpath  159.75 170.662 moveto
 278.5 214.221 lineto
 397.25 265.612 lineto
 516 317.383 lineto
DashesProc stroke
1 setlinewidth
[ ] 0 setdash

/DrawSymbolProc {
  1 0 0 SetBgColor
  Fill
  1 0 0 SetFgColor
  stroke
} def

41 170.301 3 Ci
159.75 170.662 3 Ci
278.5 214.221 3 Ci
397.25 265.612 3 Ci
516 317.383 3 Ci

% Element "62"

0 setlinejoin
0 setlinecap
1 0 0 SetFgColor
1 setlinewidth
[ ] 0 setdash
/DashesProc {} def
/DashesProc {} def
 newpath 41 160.9 moveto
 159.75 198.059 lineto
DashesProc stroke
 newpath  159.75 198.059 moveto
 278.5 243.425 lineto
 397.25 253.091 lineto
 516 289.337 lineto
DashesProc stroke
1 setlinewidth
[ ] 0 setdash

/DrawSymbolProc {
  1 0 0 SetBgColor
  Fill
  1 0 0 SetFgColor
  stroke
} def

41 160.9 3 Ci
159.75 198.059 3 Ci
278.5 243.425 3 Ci
397.25 253.091 3 Ci
516 289.337 3 Ci

% Element "61"

0 setlinejoin
0 setlinecap
1 0 0 SetFgColor
1 setlinewidth
[ ] 0 setdash
/DashesProc {} def
/DashesProc {} def
 newpath 41 151.03 moveto
 159.75 201.075 lineto
DashesProc stroke
 newpath  159.75 201.075 moveto
 278.5 246.239 lineto
 397.25 279.933 lineto
 516 305.04 lineto
DashesProc stroke
1 setlinewidth
[ ] 0 setdash

/DrawSymbolProc {
  1 0 0 SetBgColor
  Fill
  1 0 0 SetFgColor
  stroke
} def

41 151.03 3 Ci
159.75 201.075 3 Ci
278.5 246.239 3 Ci
397.25 279.933 3 Ci
516 305.04 3 Ci

% Element "60"

0 setlinejoin
0 setlinecap
1 0 0 SetFgColor
1 setlinewidth
[ ] 0 setdash
/DashesProc {} def
/DashesProc {} def
 newpath 41 171.92 moveto
 159.75 190.557 lineto
DashesProc stroke
 newpath  159.75 190.557 moveto
 278.5 253.678 lineto
 397.25 301.416 lineto
 516 323.447 lineto
DashesProc stroke
1 setlinewidth
[ ] 0 setdash

/DrawSymbolProc {
  1 0 0 SetBgColor
  Fill
  1 0 0 SetFgColor
  stroke
} def

41 171.92 3 Ci
159.75 190.557 3 Ci
278.5 253.678 3 Ci
397.25 301.416 3 Ci
516 323.447 3 Ci

% Element "59"

0 setlinejoin
0 setlinecap
1 0 0 SetFgColor
1 setlinewidth
[ ] 0 setdash
/DashesProc {} def
/DashesProc {} def
 newpath 41 175.053 moveto
 159.75 203.255 lineto
DashesProc stroke
 newpath  159.75 203.255 moveto
 278.5 210.73 lineto
 397.25 237.373 lineto
 516 292.594 lineto
DashesProc stroke
1 setlinewidth
[ ] 0 setdash

/DrawSymbolProc {
  1 0 0 SetBgColor
  Fill
  1 0 0 SetFgColor
  stroke
} def

41 175.053 3 Ci
159.75 203.255 3 Ci
278.5 210.73 3 Ci
397.25 237.373 3 Ci
516 292.594 3 Ci

% Element "58"

0 setlinejoin
0 setlinecap
1 0 0 SetFgColor
1 setlinewidth
[ ] 0 setdash
/DashesProc {} def
/DashesProc {} def
 newpath 41 165.338 moveto
 159.75 217.319 lineto
DashesProc stroke
 newpath  159.75 217.319 moveto
 278.5 260.624 lineto
 397.25 303.865 lineto
 516 294.577 lineto
DashesProc stroke
1 setlinewidth
[ ] 0 setdash

/DrawSymbolProc {
  1 0 0 SetBgColor
  Fill
  1 0 0 SetFgColor
  stroke
} def

41 165.338 3 Ci
159.75 217.319 3 Ci
278.5 260.624 3 Ci
397.25 303.865 3 Ci
516 294.577 3 Ci

% Element "57"

0 setlinejoin
0 setlinecap
1 0 0 SetFgColor
1 setlinewidth
[ ] 0 setdash
/DashesProc {} def
/DashesProc {} def
 newpath 41 153.268 moveto
 159.75 237.549 lineto
DashesProc stroke
 newpath  159.75 237.549 moveto
 278.5 224 lineto
 397.25 279.935 lineto
 516 264.234 lineto
DashesProc stroke
1 setlinewidth
[ ] 0 setdash

/DrawSymbolProc {
  1 0 0 SetBgColor
  Fill
  1 0 0 SetFgColor
  stroke
} def

41 153.268 3 Ci
159.75 237.549 3 Ci
278.5 224 3 Ci
397.25 279.935 3 Ci
516 264.234 3 Ci

% Element "56"

0 setlinejoin
0 setlinecap
1 0 0 SetFgColor
1 setlinewidth
[ ] 0 setdash
/DashesProc {} def
/DashesProc {} def
 newpath 41 185.845 moveto
 159.75 188.875 lineto
DashesProc stroke
 newpath  159.75 188.875 moveto
 278.5 195.718 lineto
 397.25 278.489 lineto
 516 292.918 lineto
DashesProc stroke
1 setlinewidth
[ ] 0 setdash

/DrawSymbolProc {
  1 0 0 SetBgColor
  Fill
  1 0 0 SetFgColor
  stroke
} def

41 185.845 3 Ci
159.75 188.875 3 Ci
278.5 195.718 3 Ci
397.25 278.489 3 Ci
516 292.918 3 Ci

% Element "55"

0 setlinejoin
0 setlinecap
1 0 0 SetFgColor
1 setlinewidth
[ ] 0 setdash
/DashesProc {} def
/DashesProc {} def
 newpath 41 179.629 moveto
 159.75 193.745 lineto
DashesProc stroke
 newpath  159.75 193.745 moveto
 278.5 252.422 lineto
 397.25 257.293 lineto
 516 287.353 lineto
DashesProc stroke
1 setlinewidth
[ ] 0 setdash

/DrawSymbolProc {
  1 0 0 SetBgColor
  Fill
  1 0 0 SetFgColor
  stroke
} def

41 179.629 3 Ci
159.75 193.745 3 Ci
278.5 252.422 3 Ci
397.25 257.293 3 Ci
516 287.353 3 Ci

% Element "54"

0 setlinejoin
0 setlinecap
1 0 0 SetFgColor
1 setlinewidth
[ ] 0 setdash
/DashesProc {} def
/DashesProc {} def
 newpath 41 153.127 moveto
 159.75 193.61 lineto
DashesProc stroke
 newpath  159.75 193.61 moveto
 278.5 203.162 lineto
 397.25 286.634 lineto
 516 324.909 lineto
DashesProc stroke
1 setlinewidth
[ ] 0 setdash

/DrawSymbolProc {
  1 0 0 SetBgColor
  Fill
  1 0 0 SetFgColor
  stroke
} def

41 153.127 3 Ci
159.75 193.61 3 Ci
278.5 203.162 3 Ci
397.25 286.634 3 Ci
516 324.909 3 Ci

% Element "53"

0 setlinejoin
0 setlinecap
1 0 0 SetFgColor
1 setlinewidth
[ ] 0 setdash
/DashesProc {} def
/DashesProc {} def
 newpath 41 152.929 moveto
 159.75 208.275 lineto
DashesProc stroke
 newpath  159.75 208.275 moveto
 278.5 226.779 lineto
 397.25 261.642 lineto
 516 298.841 lineto
DashesProc stroke
1 setlinewidth
[ ] 0 setdash

/DrawSymbolProc {
  1 0 0 SetBgColor
  Fill
  1 0 0 SetFgColor
  stroke
} def

41 152.929 3 Ci
159.75 208.275 3 Ci
278.5 226.779 3 Ci
397.25 261.642 3 Ci
516 298.841 3 Ci

% Element "52"

0 setlinejoin
0 setlinecap
1 0 0 SetFgColor
1 setlinewidth
[ ] 0 setdash
/DashesProc {} def
/DashesProc {} def
 newpath 41 174.828 moveto
 159.75 191.603 lineto
DashesProc stroke
 newpath  159.75 191.603 moveto
 278.5 236.636 lineto
 397.25 261.206 lineto
 516 304.487 lineto
DashesProc stroke
1 setlinewidth
[ ] 0 setdash

/DrawSymbolProc {
  1 0 0 SetBgColor
  Fill
  1 0 0 SetFgColor
  stroke
} def

41 174.828 3 Ci
159.75 191.603 3 Ci
278.5 236.636 3 Ci
397.25 261.206 3 Ci
516 304.487 3 Ci

% Element "51"

0 setlinejoin
0 setlinecap
1 0 0 SetFgColor
1 setlinewidth
[ ] 0 setdash
/DashesProc {} def
/DashesProc {} def
 newpath 41 183.012 moveto
 159.75 184.371 lineto
DashesProc stroke
 newpath  159.75 184.371 moveto
 278.5 261.079 lineto
 397.25 264.16 lineto
 516 277.56 lineto
DashesProc stroke
1 setlinewidth
[ ] 0 setdash

/DrawSymbolProc {
  1 0 0 SetBgColor
  Fill
  1 0 0 SetFgColor
  stroke
} def

41 183.012 3 Ci
159.75 184.371 3 Ci
278.5 261.079 3 Ci
397.25 264.16 3 Ci
516 277.56 3 Ci

% Element "50"

0 setlinejoin
0 setlinecap
1 0 0 SetFgColor
1 setlinewidth
[ ] 0 setdash
/DashesProc {} def
/DashesProc {} def
 newpath 41 198.096 moveto
 159.75 216.487 lineto
DashesProc stroke
 newpath  159.75 216.487 moveto
 278.5 230.732 lineto
 397.25 284.694 lineto
 516 291.079 lineto
DashesProc stroke
1 setlinewidth
[ ] 0 setdash

/DrawSymbolProc {
  1 0 0 SetBgColor
  Fill
  1 0 0 SetFgColor
  stroke
} def

41 198.096 3 Ci
159.75 216.487 3 Ci
278.5 230.732 3 Ci
397.25 284.694 3 Ci
516 291.079 3 Ci

% Element "49"

0 setlinejoin
0 setlinecap
1 0 0 SetFgColor
1 setlinewidth
[ ] 0 setdash
/DashesProc {} def
/DashesProc {} def
 newpath 41 181.494 moveto
 159.75 148.03 lineto
DashesProc stroke
 newpath  159.75 148.03 moveto
 278.5 104.676 lineto
 397.25 64.8486 lineto
 516 18.6548 lineto
DashesProc stroke
1 setlinewidth
[ ] 0 setdash

/DrawSymbolProc {
  1 0 0 SetBgColor
  Fill
  1 0 0 SetFgColor
  stroke
} def

41 181.494 3 Ci
159.75 148.03 3 Ci
278.5 104.676 3 Ci
397.25 64.8486 3 Ci
516 18.6548 3 Ci

% Element "48"

0 setlinejoin
0 setlinecap
1 0 0 SetFgColor
1 setlinewidth
[ ] 0 setdash
/DashesProc {} def
/DashesProc {} def
 newpath 41 149.558 moveto
 159.75 134.527 lineto
DashesProc stroke
 newpath  159.75 134.527 moveto
 278.5 115.271 lineto
 397.25 81.0611 lineto
 516 21.537 lineto
DashesProc stroke
1 setlinewidth
[ ] 0 setdash

/DrawSymbolProc {
  1 0 0 SetBgColor
  Fill
  1 0 0 SetFgColor
  stroke
} def

41 149.558 3 Ci
159.75 134.527 3 Ci
278.5 115.271 3 Ci
397.25 81.0611 3 Ci
516 21.537 3 Ci

% Element "47"

0 setlinejoin
0 setlinecap
1 0 0 SetFgColor
1 setlinewidth
[ ] 0 setdash
/DashesProc {} def
/DashesProc {} def
 newpath 41 217.391 moveto
 159.75 132.261 lineto
DashesProc stroke
 newpath  159.75 132.261 moveto
 278.5 95.8955 lineto
 397.25 72.3834 lineto
 516 33.2839 lineto
DashesProc stroke
1 setlinewidth
[ ] 0 setdash

/DrawSymbolProc {
  1 0 0 SetBgColor
  Fill
  1 0 0 SetFgColor
  stroke
} def

41 217.391 3 Ci
159.75 132.261 3 Ci
278.5 95.8955 3 Ci
397.25 72.3834 3 Ci
516 33.2839 3 Ci

% Element "46"

0 setlinejoin
0 setlinecap
1 0 0 SetFgColor
1 setlinewidth
[ ] 0 setdash
/DashesProc {} def
/DashesProc {} def
 newpath 41 145.479 moveto
 159.75 120.172 lineto
DashesProc stroke
 newpath  159.75 120.172 moveto
 278.5 93.423 lineto
 397.25 60.5651 lineto
 516 39.359 lineto
DashesProc stroke
1 setlinewidth
[ ] 0 setdash

/DrawSymbolProc {
  1 0 0 SetBgColor
  Fill
  1 0 0 SetFgColor
  stroke
} def

41 145.479 3 Ci
159.75 120.172 3 Ci
278.5 93.423 3 Ci
397.25 60.5651 3 Ci
516 39.359 3 Ci

% Element "45"

0 setlinejoin
0 setlinecap
1 0 0 SetFgColor
1 setlinewidth
[ ] 0 setdash
/DashesProc {} def
/DashesProc {} def
 newpath 41 151.139 moveto
 159.75 129.591 lineto
DashesProc stroke
 newpath  159.75 129.591 moveto
 278.5 136.791 lineto
 397.25 76.0783 lineto
 516 22.5394 lineto
DashesProc stroke
1 setlinewidth
[ ] 0 setdash

/DrawSymbolProc {
  1 0 0 SetBgColor
  Fill
  1 0 0 SetFgColor
  stroke
} def

41 151.139 3 Ci
159.75 129.591 3 Ci
278.5 136.791 3 Ci
397.25 76.0783 3 Ci
516 22.5394 3 Ci

% Element "44"

0 setlinejoin
0 setlinecap
1 0 0 SetFgColor
1 setlinewidth
[ ] 0 setdash
/DashesProc {} def
/DashesProc {} def
 newpath 41 152.059 moveto
 159.75 141.538 lineto
DashesProc stroke
 newpath  159.75 141.538 moveto
 278.5 94.2743 lineto
 397.25 66.9364 lineto
 516 40.5913 lineto
DashesProc stroke
1 setlinewidth
[ ] 0 setdash

/DrawSymbolProc {
  1 0 0 SetBgColor
  Fill
  1 0 0 SetFgColor
  stroke
} def

41 152.059 3 Ci
159.75 141.538 3 Ci
278.5 94.2743 3 Ci
397.25 66.9364 3 Ci
516 40.5913 3 Ci

% Element "43"

0 setlinejoin
0 setlinecap
1 0 0 SetFgColor
1 setlinewidth
[ ] 0 setdash
/DashesProc {} def
/DashesProc {} def
 newpath 41 174.088 moveto
 159.75 122.372 lineto
DashesProc stroke
 newpath  159.75 122.372 moveto
 278.5 111.578 lineto
 397.25 65.7158 lineto
 516 30.8757 lineto
DashesProc stroke
1 setlinewidth
[ ] 0 setdash

/DrawSymbolProc {
  1 0 0 SetBgColor
  Fill
  1 0 0 SetFgColor
  stroke
} def

41 174.088 3 Ci
159.75 122.372 3 Ci
278.5 111.578 3 Ci
397.25 65.7158 3 Ci
516 30.8757 3 Ci

% Element "42"

0 setlinejoin
0 setlinecap
1 0 0 SetFgColor
1 setlinewidth
[ ] 0 setdash
/DashesProc {} def
/DashesProc {} def
 newpath 41 166.222 moveto
 159.75 134.381 lineto
DashesProc stroke
 newpath  159.75 134.381 moveto
 278.5 109.048 lineto
 397.25 62.1174 lineto
 516 54.2416 lineto
DashesProc stroke
1 setlinewidth
[ ] 0 setdash

/DrawSymbolProc {
  1 0 0 SetBgColor
  Fill
  1 0 0 SetFgColor
  stroke
} def

41 166.222 3 Ci
159.75 134.381 3 Ci
278.5 109.048 3 Ci
397.25 62.1174 3 Ci
516 54.2416 3 Ci

% Element "41"

0 setlinejoin
0 setlinecap
1 0 0 SetFgColor
1 setlinewidth
[ ] 0 setdash
/DashesProc {} def
/DashesProc {} def
 newpath 41 147.601 moveto
 159.75 151.472 lineto
DashesProc stroke
 newpath  159.75 151.472 moveto
 278.5 97.572 lineto
 397.25 57.4203 lineto
 516 26.8815 lineto
DashesProc stroke
1 setlinewidth
[ ] 0 setdash

/DrawSymbolProc {
  1 0 0 SetBgColor
  Fill
  1 0 0 SetFgColor
  stroke
} def

41 147.601 3 Ci
159.75 151.472 3 Ci
278.5 97.572 3 Ci
397.25 57.4203 3 Ci
516 26.8815 3 Ci

% Element "40"

0 setlinejoin
0 setlinecap
1 0 0 SetFgColor
1 setlinewidth
[ ] 0 setdash
/DashesProc {} def
/DashesProc {} def
 newpath 41 159.994 moveto
 159.75 140.446 lineto
DashesProc stroke
 newpath  159.75 140.446 moveto
 278.5 122.086 lineto
 397.25 67.8265 lineto
 516 61.8774 lineto
DashesProc stroke
1 setlinewidth
[ ] 0 setdash

/DrawSymbolProc {
  1 0 0 SetBgColor
  Fill
  1 0 0 SetFgColor
  stroke
} def

41 159.994 3 Ci
159.75 140.446 3 Ci
278.5 122.086 3 Ci
397.25 67.8265 3 Ci
516 61.8774 3 Ci

% Element "39"

0 setlinejoin
0 setlinecap
1 0 0 SetFgColor
1 setlinewidth
[ ] 0 setdash
/DashesProc {} def
/DashesProc {} def
 newpath 41 144.759 moveto
 159.75 145.871 lineto
DashesProc stroke
 newpath  159.75 145.871 moveto
 278.5 117.695 lineto
 397.25 79.1585 lineto
 516 50.4241 lineto
DashesProc stroke
1 setlinewidth
[ ] 0 setdash

/DrawSymbolProc {
  1 0 0 SetBgColor
  Fill
  1 0 0 SetFgColor
  stroke
} def

41 144.759 3 Ci
159.75 145.871 3 Ci
278.5 117.695 3 Ci
397.25 79.1585 3 Ci
516 50.4241 3 Ci

% Element "38"

0 setlinejoin
0 setlinecap
1 0 0 SetFgColor
1 setlinewidth
[ ] 0 setdash
/DashesProc {} def
/DashesProc {} def
 newpath 41 176.691 moveto
 159.75 126.333 lineto
DashesProc stroke
 newpath  159.75 126.333 moveto
 278.5 121.579 lineto
 397.25 76.1001 lineto
 516 46.3809 lineto
DashesProc stroke
1 setlinewidth
[ ] 0 setdash

/DrawSymbolProc {
  1 0 0 SetBgColor
  Fill
  1 0 0 SetFgColor
  stroke
} def

41 176.691 3 Ci
159.75 126.333 3 Ci
278.5 121.579 3 Ci
397.25 76.1001 3 Ci
516 46.3809 3 Ci

% Element "37"

0 setlinejoin
0 setlinecap
1 0 0 SetFgColor
1 setlinewidth
[ ] 0 setdash
/DashesProc {} def
/DashesProc {} def
 newpath 41 160.861 moveto
 159.75 162.276 lineto
DashesProc stroke
 newpath  159.75 162.276 moveto
 278.5 69.0348 lineto
 397.25 76.0891 lineto
 516 16 lineto
DashesProc stroke
1 setlinewidth
[ ] 0 setdash

/DrawSymbolProc {
  1 0 0 SetBgColor
  Fill
  1 0 0 SetFgColor
  stroke
} def

41 160.861 3 Ci
159.75 162.276 3 Ci
278.5 69.0348 3 Ci
397.25 76.0891 3 Ci
516 16 3 Ci

% Element "36"

0 setlinejoin
0 setlinecap
1 0 0 SetFgColor
1 setlinewidth
[ ] 0 setdash
/DashesProc {} def
/DashesProc {} def
 newpath 41 222.721 moveto
 159.75 138.525 lineto
DashesProc stroke
 newpath  159.75 138.525 moveto
 278.5 103.693 lineto
 397.25 41.4962 lineto
 516 49.2914 lineto
DashesProc stroke
1 setlinewidth
[ ] 0 setdash

/DrawSymbolProc {
  1 0 0 SetBgColor
  Fill
  1 0 0 SetFgColor
  stroke
} def

41 222.721 3 Ci
159.75 138.525 3 Ci
278.5 103.693 3 Ci
397.25 41.4962 3 Ci
516 49.2914 3 Ci

% Element "35"

0 setlinejoin
0 setlinecap
1 0 0 SetFgColor
1 setlinewidth
[ ] 0 setdash
/DashesProc {} def
/DashesProc {} def
 newpath 41 155.081 moveto
 159.75 126.127 lineto
DashesProc stroke
 newpath  159.75 126.127 moveto
 278.5 112.949 lineto
 397.25 39.857 lineto
 516 31.9806 lineto
DashesProc stroke
1 setlinewidth
[ ] 0 setdash

/DrawSymbolProc {
  1 0 0 SetBgColor
  Fill
  1 0 0 SetFgColor
  stroke
} def

41 155.081 3 Ci
159.75 126.127 3 Ci
278.5 112.949 3 Ci
397.25 39.857 3 Ci
516 31.9806 3 Ci

% Element "34"

0 setlinejoin
0 setlinecap
1 0 0 SetFgColor
1 setlinewidth
[ ] 0 setdash
/DashesProc {} def
/DashesProc {} def
 newpath 41 182.138 moveto
 159.75 136.47 lineto
DashesProc stroke
 newpath  159.75 136.47 moveto
 278.5 105.772 lineto
 397.25 63.3811 lineto
 516 23.5268 lineto
DashesProc stroke
1 setlinewidth
[ ] 0 setdash

/DrawSymbolProc {
  1 0 0 SetBgColor
  Fill
  1 0 0 SetFgColor
  stroke
} def

41 182.138 3 Ci
159.75 136.47 3 Ci
278.5 105.772 3 Ci
397.25 63.3811 3 Ci
516 23.5268 3 Ci

% Element "33"

0 setlinejoin
0 setlinecap
1 0 0 SetFgColor
1 setlinewidth
[ ] 0 setdash
/DashesProc {} def
/DashesProc {} def
 newpath 41 162.635 moveto
 159.75 128.584 lineto
DashesProc stroke
 newpath  159.75 128.584 moveto
 278.5 103.715 lineto
 397.25 59.67 lineto
 516 18.7715 lineto
DashesProc stroke
1 setlinewidth
[ ] 0 setdash

/DrawSymbolProc {
  1 0 0 SetBgColor
  Fill
  1 0 0 SetFgColor
  stroke
} def

41 162.635 3 Ci
159.75 128.584 3 Ci
278.5 103.715 3 Ci
397.25 59.67 3 Ci
516 18.7715 3 Ci

% Element "32"

0 setlinejoin
0 setlinecap
1 0 0 SetFgColor
1 setlinewidth
[ ] 0 setdash
/DashesProc {} def
/DashesProc {} def
 newpath 41 169.063 moveto
 159.75 142.038 lineto
DashesProc stroke
 newpath  159.75 142.038 moveto
 278.5 119.84 lineto
 397.25 69.087 lineto
 516 44.728 lineto
DashesProc stroke
1 setlinewidth
[ ] 0 setdash

/DrawSymbolProc {
  1 0 0 SetBgColor
  Fill
  1 0 0 SetFgColor
  stroke
} def

41 169.063 3 Ci
159.75 142.038 3 Ci
278.5 119.84 3 Ci
397.25 69.087 3 Ci
516 44.728 3 Ci

% Element "31"

0 setlinejoin
0 setlinecap
1 0 0 SetFgColor
1 setlinewidth
[ ] 0 setdash
/DashesProc {} def
/DashesProc {} def
 newpath 41 145.194 moveto
 159.75 125.86 lineto
DashesProc stroke
 newpath  159.75 125.86 moveto
 278.5 84.0514 lineto
 397.25 99.3507 lineto
 516 25.2992 lineto
DashesProc stroke
1 setlinewidth
[ ] 0 setdash

/DrawSymbolProc {
  1 0 0 SetBgColor
  Fill
  1 0 0 SetFgColor
  stroke
} def

41 145.194 3 Ci
159.75 125.86 3 Ci
278.5 84.0514 3 Ci
397.25 99.3507 3 Ci
516 25.2992 3 Ci

% Element "30"

0 setlinejoin
0 setlinecap
1 0 0 SetFgColor
1 setlinewidth
[ ] 0 setdash
/DashesProc {} def
/DashesProc {} def
 newpath 41 133.547 moveto
 159.75 146.157 lineto
DashesProc stroke
 newpath  159.75 146.157 moveto
 278.5 114.902 lineto
 397.25 69.1967 lineto
 516 44.9235 lineto
DashesProc stroke
1 setlinewidth
[ ] 0 setdash

/DrawSymbolProc {
  1 0 0 SetBgColor
  Fill
  1 0 0 SetFgColor
  stroke
} def

41 133.547 3 Ci
159.75 146.157 3 Ci
278.5 114.902 3 Ci
397.25 69.1967 3 Ci
516 44.9235 3 Ci

% Element "29"

0 setlinejoin
0 setlinecap
1 0 0 SetFgColor
1 setlinewidth
[ ] 0 setdash
/DashesProc {} def
/DashesProc {} def
 newpath 41 153.553 moveto
 159.75 166.067 lineto
DashesProc stroke
 newpath  159.75 166.067 moveto
 278.5 181.349 lineto
 397.25 143.516 lineto
 516 170.043 lineto
DashesProc stroke
1 setlinewidth
[ ] 0 setdash

/DrawSymbolProc {
  1 0 0 SetBgColor
  Fill
  1 0 0 SetFgColor
  stroke
} def

41 153.553 3 Ci
159.75 166.067 3 Ci
278.5 181.349 3 Ci
397.25 143.516 3 Ci
516 170.043 3 Ci

% Element "28"

0 setlinejoin
0 setlinecap
1 0 0 SetFgColor
1 setlinewidth
[ ] 0 setdash
/DashesProc {} def
/DashesProc {} def
 newpath 41 146.65 moveto
 159.75 176.146 lineto
DashesProc stroke
 newpath  159.75 176.146 moveto
 278.5 184.933 lineto
 397.25 171.193 lineto
 516 161.391 lineto
DashesProc stroke
1 setlinewidth
[ ] 0 setdash

/DrawSymbolProc {
  1 0 0 SetBgColor
  Fill
  1 0 0 SetFgColor
  stroke
} def

41 146.65 3 Ci
159.75 176.146 3 Ci
278.5 184.933 3 Ci
397.25 171.193 3 Ci
516 161.391 3 Ci

% Element "27"

0 setlinejoin
0 setlinecap
1 0 0 SetFgColor
1 setlinewidth
[ ] 0 setdash
/DashesProc {} def
/DashesProc {} def
 newpath 41 135.024 moveto
 159.75 133.229 lineto
DashesProc stroke
 newpath  159.75 133.229 moveto
 278.5 182.882 lineto
 397.25 166.083 lineto
 516 173.431 lineto
DashesProc stroke
1 setlinewidth
[ ] 0 setdash

/DrawSymbolProc {
  1 0 0 SetBgColor
  Fill
  1 0 0 SetFgColor
  stroke
} def

41 135.024 3 Ci
159.75 133.229 3 Ci
278.5 182.882 3 Ci
397.25 166.083 3 Ci
516 173.431 3 Ci

% Element "26"

0 setlinejoin
0 setlinecap
1 0 0 SetFgColor
1 setlinewidth
[ ] 0 setdash
/DashesProc {} def
/DashesProc {} def
 newpath 41 168.534 moveto
 159.75 194.45 lineto
DashesProc stroke
 newpath  159.75 194.45 moveto
 278.5 162.59 lineto
 397.25 182.758 lineto
 516 168.941 lineto
DashesProc stroke
1 setlinewidth
[ ] 0 setdash

/DrawSymbolProc {
  1 0 0 SetBgColor
  Fill
  1 0 0 SetFgColor
  stroke
} def

41 168.534 3 Ci
159.75 194.45 3 Ci
278.5 162.59 3 Ci
397.25 182.758 3 Ci
516 168.941 3 Ci

% Element "25"

0 setlinejoin
0 setlinecap
1 0 0 SetFgColor
1 setlinewidth
[ ] 0 setdash
/DashesProc {} def
/DashesProc {} def
 newpath 41 178.201 moveto
 159.75 174.684 lineto
DashesProc stroke
 newpath  159.75 174.684 moveto
 278.5 154.487 lineto
 397.25 179.43 lineto
 516 176.692 lineto
DashesProc stroke
1 setlinewidth
[ ] 0 setdash

/DrawSymbolProc {
  1 0 0 SetBgColor
  Fill
  1 0 0 SetFgColor
  stroke
} def

41 178.201 3 Ci
159.75 174.684 3 Ci
278.5 154.487 3 Ci
397.25 179.43 3 Ci
516 176.692 3 Ci

% Element "24"

0 setlinejoin
0 setlinecap
1 0 0 SetFgColor
1 setlinewidth
[ ] 0 setdash
/DashesProc {} def
/DashesProc {} def
 newpath 41 143.743 moveto
 159.75 155.605 lineto
DashesProc stroke
 newpath  159.75 155.605 moveto
 278.5 202.524 lineto
 397.25 144.832 lineto
 516 181.797 lineto
DashesProc stroke
1 setlinewidth
[ ] 0 setdash

/DrawSymbolProc {
  1 0 0 SetBgColor
  Fill
  1 0 0 SetFgColor
  stroke
} def

41 143.743 3 Ci
159.75 155.605 3 Ci
278.5 202.524 3 Ci
397.25 144.832 3 Ci
516 181.797 3 Ci

% Element "23"

0 setlinejoin
0 setlinecap
1 0 0 SetFgColor
1 setlinewidth
[ ] 0 setdash
/DashesProc {} def
/DashesProc {} def
 newpath 41 171.114 moveto
 159.75 191.113 lineto
DashesProc stroke
 newpath  159.75 191.113 moveto
 278.5 182.388 lineto
 397.25 191.145 lineto
 516 171.795 lineto
DashesProc stroke
1 setlinewidth
[ ] 0 setdash

/DrawSymbolProc {
  1 0 0 SetBgColor
  Fill
  1 0 0 SetFgColor
  stroke
} def

41 171.114 3 Ci
159.75 191.113 3 Ci
278.5 182.388 3 Ci
397.25 191.145 3 Ci
516 171.795 3 Ci

% Element "22"

0 setlinejoin
0 setlinecap
1 0 0 SetFgColor
1 setlinewidth
[ ] 0 setdash
/DashesProc {} def
/DashesProc {} def
 newpath 41 171.844 moveto
 159.75 164.898 lineto
DashesProc stroke
 newpath  159.75 164.898 moveto
 278.5 194.723 lineto
 397.25 163.841 lineto
 516 170.265 lineto
DashesProc stroke
1 setlinewidth
[ ] 0 setdash

/DrawSymbolProc {
  1 0 0 SetBgColor
  Fill
  1 0 0 SetFgColor
  stroke
} def

41 171.844 3 Ci
159.75 164.898 3 Ci
278.5 194.723 3 Ci
397.25 163.841 3 Ci
516 170.265 3 Ci

% Element "21"

0 setlinejoin
0 setlinecap
1 0 0 SetFgColor
1 setlinewidth
[ ] 0 setdash
/DashesProc {} def
/DashesProc {} def
 newpath 41 193.757 moveto
 159.75 168.737 lineto
DashesProc stroke
 newpath  159.75 168.737 moveto
 278.5 139.762 lineto
 397.25 176.696 lineto
 516 169.128 lineto
DashesProc stroke
1 setlinewidth
[ ] 0 setdash

/DrawSymbolProc {
  1 0 0 SetBgColor
  Fill
  1 0 0 SetFgColor
  stroke
} def

41 193.757 3 Ci
159.75 168.737 3 Ci
278.5 139.762 3 Ci
397.25 176.696 3 Ci
516 169.128 3 Ci

% Element "20"

0 setlinejoin
0 setlinecap
1 0 0 SetFgColor
1 setlinewidth
[ ] 0 setdash
/DashesProc {} def
/DashesProc {} def
 newpath 41 189.309 moveto
 159.75 161.813 lineto
DashesProc stroke
 newpath  159.75 161.813 moveto
 278.5 187.079 lineto
 397.25 160.922 lineto
 516 170.147 lineto
DashesProc stroke
1 setlinewidth
[ ] 0 setdash

/DrawSymbolProc {
  1 0 0 SetBgColor
  Fill
  1 0 0 SetFgColor
  stroke
} def

41 189.309 3 Ci
159.75 161.813 3 Ci
278.5 187.079 3 Ci
397.25 160.922 3 Ci
516 170.147 3 Ci

% Element "19"

0 setlinejoin
0 setlinecap
1 0 0 SetFgColor
1 setlinewidth
[ ] 0 setdash
/DashesProc {} def
/DashesProc {} def
 newpath 41 192.334 moveto
 159.75 198.661 lineto
DashesProc stroke
 newpath  159.75 198.661 moveto
 278.5 163.929 lineto
 397.25 143.123 lineto
 516 172.138 lineto
DashesProc stroke
1 setlinewidth
[ ] 0 setdash

/DrawSymbolProc {
  1 0 0 SetBgColor
  Fill
  1 0 0 SetFgColor
  stroke
} def

41 192.334 3 Ci
159.75 198.661 3 Ci
278.5 163.929 3 Ci
397.25 143.123 3 Ci
516 172.138 3 Ci

% Element "18"

0 setlinejoin
0 setlinecap
1 0 0 SetFgColor
1 setlinewidth
[ ] 0 setdash
/DashesProc {} def
/DashesProc {} def
 newpath 41 216.783 moveto
 159.75 161.07 lineto
DashesProc stroke
 newpath  159.75 161.07 moveto
 278.5 164 lineto
 397.25 172.356 lineto
 516 164.824 lineto
DashesProc stroke
1 setlinewidth
[ ] 0 setdash

/DrawSymbolProc {
  1 0 0 SetBgColor
  Fill
  1 0 0 SetFgColor
  stroke
} def

41 216.783 3 Ci
159.75 161.07 3 Ci
278.5 164 3 Ci
397.25 172.356 3 Ci
516 164.824 3 Ci

% Element "17"

0 setlinejoin
0 setlinecap
1 0 0 SetFgColor
1 setlinewidth
[ ] 0 setdash
/DashesProc {} def
/DashesProc {} def
 newpath 41 150.453 moveto
 159.75 151.812 lineto
DashesProc stroke
 newpath  159.75 151.812 moveto
 278.5 143.631 lineto
 397.25 168.062 lineto
 516 162.781 lineto
DashesProc stroke
1 setlinewidth
[ ] 0 setdash

/DrawSymbolProc {
  1 0 0 SetBgColor
  Fill
  1 0 0 SetFgColor
  stroke
} def

41 150.453 3 Ci
159.75 151.812 3 Ci
278.5 143.631 3 Ci
397.25 168.062 3 Ci
516 162.781 3 Ci

% Element "16"

0 setlinejoin
0 setlinecap
1 0 0 SetFgColor
1 setlinewidth
[ ] 0 setdash
/DashesProc {} def
/DashesProc {} def
 newpath 41 212.55 moveto
 159.75 183.716 lineto
DashesProc stroke
 newpath  159.75 183.716 moveto
 278.5 165.606 lineto
 397.25 122.51 lineto
 516 180.21 lineto
DashesProc stroke
1 setlinewidth
[ ] 0 setdash

/DrawSymbolProc {
  1 0 0 SetBgColor
  Fill
  1 0 0 SetFgColor
  stroke
} def

41 212.55 3 Ci
159.75 183.716 3 Ci
278.5 165.606 3 Ci
397.25 122.51 3 Ci
516 180.21 3 Ci

% Element "15"

0 setlinejoin
0 setlinecap
1 0 0 SetFgColor
1 setlinewidth
[ ] 0 setdash
/DashesProc {} def
/DashesProc {} def
 newpath 41 174.311 moveto
 159.75 163.74 lineto
DashesProc stroke
 newpath  159.75 163.74 moveto
 278.5 131.376 lineto
 397.25 181.833 lineto
 516 179.673 lineto
DashesProc stroke
1 setlinewidth
[ ] 0 setdash

/DrawSymbolProc {
  1 0 0 SetBgColor
  Fill
  1 0 0 SetFgColor
  stroke
} def

41 174.311 3 Ci
159.75 163.74 3 Ci
278.5 131.376 3 Ci
397.25 181.833 3 Ci
516 179.673 3 Ci

% Element "14"

0 setlinejoin
0 setlinecap
1 0 0 SetFgColor
1 setlinewidth
[ ] 0 setdash
/DashesProc {} def
/DashesProc {} def
 newpath 41 194.176 moveto
 159.75 136.766 lineto
DashesProc stroke
 newpath  159.75 136.766 moveto
 278.5 151.282 lineto
 397.25 160.88 lineto
 516 171.085 lineto
DashesProc stroke
1 setlinewidth
[ ] 0 setdash

/DrawSymbolProc {
  1 0 0 SetBgColor
  Fill
  1 0 0 SetFgColor
  stroke
} def

41 194.176 3 Ci
159.75 136.766 3 Ci
278.5 151.282 3 Ci
397.25 160.88 3 Ci
516 171.085 3 Ci

% Element "13"

0 setlinejoin
0 setlinecap
1 0 0 SetFgColor
1 setlinewidth
[ ] 0 setdash
/DashesProc {} def
/DashesProc {} def
 newpath 41 214.096 moveto
 159.75 198.932 lineto
DashesProc stroke
 newpath  159.75 198.932 moveto
 278.5 181.334 lineto
 397.25 176.225 lineto
 516 164.141 lineto
DashesProc stroke
1 setlinewidth
[ ] 0 setdash

/DrawSymbolProc {
  1 0 0 SetBgColor
  Fill
  1 0 0 SetFgColor
  stroke
} def

41 214.096 3 Ci
159.75 198.932 3 Ci
278.5 181.334 3 Ci
397.25 176.225 3 Ci
516 164.141 3 Ci

% Element "12"

0 setlinejoin
0 setlinecap
1 0 0 SetFgColor
1 setlinewidth
[ ] 0 setdash
/DashesProc {} def
/DashesProc {} def
 newpath 41 191.812 moveto
 159.75 179.384 lineto
DashesProc stroke
 newpath  159.75 179.384 moveto
 278.5 170.905 lineto
 397.25 166.092 lineto
 516 172.871 lineto
DashesProc stroke
1 setlinewidth
[ ] 0 setdash

/DrawSymbolProc {
  1 0 0 SetBgColor
  Fill
  1 0 0 SetFgColor
  stroke
} def

41 191.812 3 Ci
159.75 179.384 3 Ci
278.5 170.905 3 Ci
397.25 166.092 3 Ci
516 172.871 3 Ci

% Element "11"

0 setlinejoin
0 setlinecap
1 0 0 SetFgColor
1 setlinewidth
[ ] 0 setdash
/DashesProc {} def
/DashesProc {} def
 newpath 41 168.961 moveto
 159.75 191.1 lineto
DashesProc stroke
 newpath  159.75 191.1 moveto
 278.5 200.971 lineto
 397.25 150.66 lineto
 516 160.65 lineto
DashesProc stroke
1 setlinewidth
[ ] 0 setdash

/DrawSymbolProc {
  1 0 0 SetBgColor
  Fill
  1 0 0 SetFgColor
  stroke
} def

41 168.961 3 Ci
159.75 191.1 3 Ci
278.5 200.971 3 Ci
397.25 150.66 3 Ci
516 160.65 3 Ci

% Element "10"

0 setlinejoin
0 setlinecap
1 0 0 SetFgColor
1 setlinewidth
[ ] 0 setdash
/DashesProc {} def
/DashesProc {} def
 newpath 41 168.296 moveto
 159.75 183.907 lineto
DashesProc stroke
 newpath  159.75 183.907 moveto
 278.5 178.844 lineto
 397.25 155.633 lineto
 516 173.975 lineto
DashesProc stroke
1 setlinewidth
[ ] 0 setdash

/DrawSymbolProc {
  1 0 0 SetBgColor
  Fill
  1 0 0 SetFgColor
  stroke
} def

41 168.296 3 Ci
159.75 183.907 3 Ci
278.5 178.844 3 Ci
397.25 155.633 3 Ci
516 173.975 3 Ci

% Element "9"

0 setlinejoin
0 setlinecap
1 0 0 SetFgColor
1 setlinewidth
[ ] 0 setdash
/DashesProc {} def
/DashesProc {} def
 newpath 41 192.875 moveto
 159.75 184.317 lineto
DashesProc stroke
 newpath  159.75 184.317 moveto
 278.5 125.178 lineto
 397.25 135.909 lineto
 516 178.518 lineto
DashesProc stroke
1 setlinewidth
[ ] 0 setdash

/DrawSymbolProc {
  1 0 0 SetBgColor
  Fill
  1 0 0 SetFgColor
  stroke
} def

41 192.875 3 Ci
159.75 184.317 3 Ci
278.5 125.178 3 Ci
397.25 135.909 3 Ci
516 178.518 3 Ci

% Element "8"

0 setlinejoin
0 setlinecap
1 0 0 SetFgColor
1 setlinewidth
[ ] 0 setdash
/DashesProc {} def
/DashesProc {} def
 newpath 41 161.272 moveto
 159.75 213.905 lineto
DashesProc stroke
 newpath  159.75 213.905 moveto
 278.5 135.539 lineto
 397.25 114.715 lineto
 516 178.186 lineto
DashesProc stroke
1 setlinewidth
[ ] 0 setdash

/DrawSymbolProc {
  1 0 0 SetBgColor
  Fill
  1 0 0 SetFgColor
  stroke
} def

41 161.272 3 Ci
159.75 213.905 3 Ci
278.5 135.539 3 Ci
397.25 114.715 3 Ci
516 178.186 3 Ci

% Element "7"

0 setlinejoin
0 setlinecap
1 0 0 SetFgColor
1 setlinewidth
[ ] 0 setdash
/DashesProc {} def
/DashesProc {} def
 newpath 41 118.118 moveto
 159.75 170.06 lineto
DashesProc stroke
 newpath  159.75 170.06 moveto
 278.5 156.211 lineto
 397.25 114.928 lineto
 516 159.946 lineto
DashesProc stroke
1 setlinewidth
[ ] 0 setdash

/DrawSymbolProc {
  1 0 0 SetBgColor
  Fill
  1 0 0 SetFgColor
  stroke
} def

41 118.118 3 Ci
159.75 170.06 3 Ci
278.5 156.211 3 Ci
397.25 114.928 3 Ci
516 159.946 3 Ci

% Element "6"

0 setlinejoin
0 setlinecap
1 0 0 SetFgColor
1 setlinewidth
[ ] 0 setdash
/DashesProc {} def
/DashesProc {} def
 newpath 41 169.095 moveto
 159.75 164.627 lineto
DashesProc stroke
 newpath  159.75 164.627 moveto
 278.5 195.157 lineto
 397.25 163.921 lineto
 516 183.422 lineto
DashesProc stroke
1 setlinewidth
[ ] 0 setdash

/DrawSymbolProc {
  1 0 0 SetBgColor
  Fill
  1 0 0 SetFgColor
  stroke
} def

41 169.095 3 Ci
159.75 164.627 3 Ci
278.5 195.157 3 Ci
397.25 163.921 3 Ci
516 183.422 3 Ci

% Element "5"

0 setlinejoin
0 setlinecap
1 0 0 SetFgColor
1 setlinewidth
[ ] 0 setdash
/DashesProc {} def
/DashesProc {} def
 newpath 41 178.926 moveto
 159.75 180.441 lineto
DashesProc stroke
 newpath  159.75 180.441 moveto
 278.5 160.711 lineto
 397.25 137.624 lineto
 516 180.076 lineto
DashesProc stroke
1 setlinewidth
[ ] 0 setdash

/DrawSymbolProc {
  1 0 0 SetBgColor
  Fill
  1 0 0 SetFgColor
  stroke
} def

41 178.926 3 Ci
159.75 180.441 3 Ci
278.5 160.711 3 Ci
397.25 137.624 3 Ci
516 180.076 3 Ci

% Element "4"

0 setlinejoin
0 setlinecap
1 0 0 SetFgColor
1 setlinewidth
[ ] 0 setdash
/DashesProc {} def
/DashesProc {} def
 newpath 41 170.999 moveto
 159.75 167.881 lineto
DashesProc stroke
 newpath  159.75 167.881 moveto
 278.5 108.425 lineto
 397.25 152.735 lineto
 516 176.81 lineto
DashesProc stroke
1 setlinewidth
[ ] 0 setdash

/DrawSymbolProc {
  1 0 0 SetBgColor
  Fill
  1 0 0 SetFgColor
  stroke
} def

41 170.999 3 Ci
159.75 167.881 3 Ci
278.5 108.425 3 Ci
397.25 152.735 3 Ci
516 176.81 3 Ci

% Element "3"

0 setlinejoin
0 setlinecap
1 0 0 SetFgColor
1 setlinewidth
[ ] 0 setdash
/DashesProc {} def
/DashesProc {} def
 newpath 41 211.714 moveto
 159.75 121.058 lineto
DashesProc stroke
 newpath  159.75 121.058 moveto
 278.5 164.83 lineto
 397.25 152.566 lineto
 516 174.116 lineto
DashesProc stroke
1 setlinewidth
[ ] 0 setdash

/DrawSymbolProc {
  1 0 0 SetBgColor
  Fill
  1 0 0 SetFgColor
  stroke
} def

41 211.714 3 Ci
159.75 121.058 3 Ci
278.5 164.83 3 Ci
397.25 152.566 3 Ci
516 174.116 3 Ci

% Element "2"

0 setlinejoin
0 setlinecap
1 0 0 SetFgColor
1 setlinewidth
[ ] 0 setdash
/DashesProc {} def
/DashesProc {} def
 newpath 41 156.031 moveto
 159.75 216.582 lineto
DashesProc stroke
 newpath  159.75 216.582 moveto
 278.5 198.784 lineto
 397.25 174.688 lineto
 516 165.263 lineto
DashesProc stroke
1 setlinewidth
[ ] 0 setdash

/DrawSymbolProc {
  1 0 0 SetBgColor
  Fill
  1 0 0 SetFgColor
  stroke
} def

41 156.031 3 Ci
159.75 216.582 3 Ci
278.5 198.784 3 Ci
397.25 174.688 3 Ci
516 165.263 3 Ci

% Element "1"

0 setlinejoin
0 setlinecap
1 0 0 SetFgColor
1 setlinewidth
[ ] 0 setdash
/DashesProc {} def
/DashesProc {} def
 newpath 41 190.664 moveto
 159.75 170.867 lineto
DashesProc stroke
 newpath  159.75 170.867 moveto
 278.5 150.226 lineto
 397.25 197.109 lineto
 516 173.197 lineto
DashesProc stroke
1 setlinewidth
[ ] 0 setdash

/DrawSymbolProc {
  1 0 0 SetBgColor
  Fill
  1 0 0 SetFgColor
  stroke
} def

41 190.664 3 Ci
159.75 170.867 3 Ci
278.5 150.226 3 Ci
397.25 197.109 3 Ci
516 173.197 3 Ci

% Element "0"

0 setlinejoin
0 setlinecap
1 0 0 SetFgColor
1 setlinewidth
[ ] 0 setdash
/DashesProc {} def
/DashesProc {} def
 newpath 41 189.221 moveto
 159.75 178.006 lineto
DashesProc stroke
 newpath  159.75 178.006 moveto
 278.5 223.244 lineto
 397.25 167.217 lineto
 516 167.543 lineto
DashesProc stroke
1 setlinewidth
[ ] 0 setdash

/DrawSymbolProc {
  1 0 0 SetBgColor
  Fill
  1 0 0 SetFgColor
  stroke
} def

41 189.221 3 Ci
159.75 178.006 3 Ci
278.5 223.244 3 Ci
397.25 167.217 3 Ci
516 167.543 3 Ci

% Unset clipping
grestore

0.843137 0.858824 0.843137 SetBgColor
0 0 532 8 Box fill

0 8 33 332 Box fill

524 8 8 332 Box fill

0 340 532 31 Box fill

1 1 1 SetBgColor
31 340 495 2 Box fill

524 6 2 336 Box fill

0.52549 0.509804 0.52549 SetBgColor
newpath 31 342 moveto
31 6 lineto
526 6 lineto
524 8 lineto
33 8 lineto
33 340 lineto
31 342 lineto
31 342  lineto closepath Fill
10 12 0 41 361 BeginText
10 /Helvetica SetFont
0 0 0 SetFgColor
(0) 6 2 10 DrawAdjText
EndText
10 12 0 159.75 361 BeginText
10 /Helvetica SetFont
0 0 0 SetFgColor
(1) 6 2 10 DrawAdjText
EndText
10 12 0 278.5 361 BeginText
10 /Helvetica SetFont
0 0 0 SetFgColor
(2) 6 2 10 DrawAdjText
EndText
10 12 0 397.25 361 BeginText
10 /Helvetica SetFont
0 0 0 SetFgColor
(3) 6 2 10 DrawAdjText
EndText
10 12 0 516 361 BeginText
10 /Helvetica SetFont
0 0 0 SetFgColor
(4) 6 2 10 DrawAdjText
EndText
0 setlinejoin
0 setlinecap
0 0 0 SetFgColor
1 setlinewidth
[ ] 0 setdash
/DashesProc {} def
41 345 moveto
 516 345 lineto
DashesProc stroke
100.375 345 moveto
 100.375 350 lineto
DashesProc stroke
41 345 moveto
 41 353 lineto
DashesProc stroke
219.125 345 moveto
 219.125 350 lineto
DashesProc stroke
159.75 345 moveto
 159.75 353 lineto
DashesProc stroke
337.875 345 moveto
 337.875 350 lineto
DashesProc stroke
278.5 345 moveto
 278.5 353 lineto
DashesProc stroke
456.625 345 moveto
 456.625 350 lineto
DashesProc stroke
397.25 345 moveto
 397.25 353 lineto
DashesProc stroke
516 345 moveto
 516 353 lineto
DashesProc stroke
14 12 0 11 301.163 BeginText
10 /Helvetica SetFont
0 0 0 SetFgColor
(-4) 10 2 10 DrawAdjText
EndText
14 12 0 11 236.115 BeginText
10 /Helvetica SetFont
0 0 0 SetFgColor
(-2) 10 2 10 DrawAdjText
EndText
10 12 0 13 171.067 BeginText
10 /Helvetica SetFont
0 0 0 SetFgColor
(0) 6 2 10 DrawAdjText
EndText
10 12 0 13 106.02 BeginText
10 /Helvetica SetFont
0 0 0 SetFgColor
(2) 6 2 10 DrawAdjText
EndText
10 12 0 13 40.9717 BeginText
10 /Helvetica SetFont
0 0 0 SetFgColor
(4) 6 2 10 DrawAdjText
EndText
0 setlinejoin
0 setlinecap
0 0 0 SetFgColor
1 setlinewidth
[ ] 0 setdash
/DashesProc {} def
28 332 moveto
 28 16 lineto
DashesProc stroke
28 268.639 moveto
 23 268.639 lineto
DashesProc stroke
28 301.163 moveto
 20 301.163 lineto
DashesProc stroke
28 203.591 moveto
 23 203.591 lineto
DashesProc stroke
28 236.115 moveto
 20 236.115 lineto
DashesProc stroke
28 138.543 moveto
 23 138.543 lineto
DashesProc stroke
28 171.067 moveto
 20 171.067 lineto
DashesProc stroke
28 73.4956 moveto
 23 73.4956 lineto
DashesProc stroke
28 106.02 moveto
 20 106.02 lineto
DashesProc stroke
28 40.9717 moveto
 20 40.9717 lineto
DashesProc stroke
showpage
%Trailer
grestore
end
%EOF
