%!PS-Adobe-3.0 EPSF-3.0
%%BoundingBox: 71 224 539 571
%%Pages: 0
%%Creator: (BLT 2.4 Graph)
%%CreationDate: (Wed Aug  6 00:23:46 2003)
%%Title: (xaxisByTime.eps)
%%DocumentData: Clean7Bit
%%Orientation: Portrait
%%DocumentNeededResources: font Helvetica Courier
%%EndComments


% including file "/usr/lib/blt2.4/bltGraph.pro"

%%BeginProlog
%
% PostScript prolog file of the BLT graph widget.
%
% Copyright 1989-1992 Regents of the University of California.
% Permission to use, copy, modify, and distribute this
% software and its documentation for any purpose and without
% fee is hereby granted, provided that the above copyright
% notice appear in all copies.  The University of California
% makes no representations about the suitability of this
% software for any purpose.  It is provided "as is" without
% express or implied warranty.
%
% Copyright 1991-1997 Bell Labs Innovations for Lucent Technologies.
%
% Permission to use, copy, modify, and distribute this software and its
% documentation for any purpose and without fee is hereby granted, provided
% that the above copyright notice appear in all copies and that both that the
% copyright notice and warranty disclaimer appear in supporting documentation,
% and that the names of Lucent Technologies any of their entities not be used
% in advertising or publicity pertaining to distribution of the software
% without specific, written prior permission.
%
% Lucent Technologies disclaims all warranties with regard to this software,
% including all implied warranties of merchantability and fitness.  In no event
% shall Lucent Technologies be liable for any special, indirect or
% consequential damages or any damages whatsoever resulting from loss of use,
% data or profits, whether in an action of contract, negligence or other
% tortuous action, arising out of or in connection with the use or performance
% of this software.
%

200 dict begin

/BaseRatio 1.3467736870885982 def	% Ratio triangle base / symbol size
/BgColorProc 0 def			% Background color routine (symbols)
/DrawSymbolProc 0 def			% Routine to draw symbol outline/fill
/StippleProc 0 def			% Stipple routine (bar segments)
/DashesProc 0 def			% Dashes routine (line segments)
  
% Define the array ISOLatin1Encoding (which specifies how characters are 
% encoded for ISO-8859-1 fonts), if it isn't already present (Postscript 
% level 2 is supposed to define it, but level 1 doesn't). 
 
systemdict /ISOLatin1Encoding known not { 
  /ISOLatin1Encoding [ 
    /space /space /space /space /space /space /space /space 
    /space /space /space /space /space /space /space /space 
    /space /space /space /space /space /space /space /space 
    /space /space /space /space /space /space /space /space 
    /space /exclam /quotedbl /numbersign /dollar /percent /ampersand 
    /quoteright 
    /parenleft /parenright /asterisk /plus /comma /minus /period /slash 
    /zero /one /two /three /four /five /six /seven 
    /eight /nine /colon /semicolon /less /equal /greater /question 
    /at /A /B /C /D /E /F /G 
    /H /I /J /K /L /M /N /O 
    /P /Q /R /S /T /U /V /W 
    /X /Y /Z /bracketleft /backslash /bracketright /asciicircum /underscore 
    /quoteleft /a /b /c /d /e /f /g 
    /h /i /j /k /l /m /n /o 
    /p /q /r /s /t /u /v /w 
    /x /y /z /braceleft /bar /braceright /asciitilde /space 
    /space /space /space /space /space /space /space /space 
    /space /space /space /space /space /space /space /space 
    /dotlessi /grave /acute /circumflex /tilde /macron /breve /dotaccent 
    /dieresis /space /ring /cedilla /space /hungarumlaut /ogonek /caron 
    /space /exclamdown /cent /sterling /currency /yen /brokenbar /section 
    /dieresis /copyright /ordfeminine /guillemotleft /logicalnot /hyphen 
    /registered /macron 
    /degree /plusminus /twosuperior /threesuperior /acute /mu /paragraph 
    /periodcentered 
    /cedillar /onesuperior /ordmasculine /guillemotright /onequarter 
    /onehalf /threequarters /questiondown 
    /Agrave /Aacute /Acircumflex /Atilde /Adieresis /Aring /AE /Ccedilla 
    /Egrave /Eacute /Ecircumflex /Edieresis /Igrave /Iacute /Icircumflex 
    /Idieresis 
    /Eth /Ntilde /Ograve /Oacute /Ocircumflex /Otilde /Odieresis /multiply 
    /Oslash /Ugrave /Uacute /Ucircumflex /Udieresis /Yacute /Thorn 
    /germandbls 
    /agrave /aacute /acircumflex /atilde /adieresis /aring /ae /ccedilla 
    /egrave /eacute /ecircumflex /edieresis /igrave /iacute /icircumflex 
    /idieresis 
    /eth /ntilde /ograve /oacute /ocircumflex /otilde /odieresis /divide 
    /oslash /ugrave /uacute /ucircumflex /udieresis /yacute /thorn 
    /ydieresis 
  ] def 
} if 

% font ISOEncode font 
% This procedure changes the encoding of a font from the default 
% Postscript encoding to ISOLatin1.  It is typically invoked just 
% before invoking "setfont".  The body of this procedure comes from 
% Section 5.6.1 of the Postscript book. 

/ISOEncode { 
  dup length dict
  begin 
    {1 index /FID ne {def} {pop pop} ifelse} forall 
    /Encoding ISOLatin1Encoding def 
    currentdict 
  end 

  % I'm not sure why it's necessary to use "definefont" on this new 
  % font, but it seems to be important; just use the name "Temporary" 
  % for the font. 

  /Temporary exch definefont 
} bind def 

/Stroke {
  gsave
    stroke
  grestore
} def

/Fill {
  gsave
    fill
  grestore
} def

/SetFont { 	
  % Stack: pointSize fontName
  findfont exch scalefont ISOEncode setfont
} def

/Box {
  % Stack: x y width height
  newpath
  exch 4 2 roll moveto
  dup 0 rlineto
  exch 0 exch rlineto
  neg 0 rlineto
  closepath
} def

/SetFgColor {
  % Stack: red green blue
  CL 0 eq { 
    pop pop pop 0 0 0 
  } if
  setrgbcolor
  CL 1 eq { 
    currentgray setgray 
  } if
} def

/SetBgColor {
  % Stack: red green blue
  CL 0 eq { 
    pop pop pop 1 1 1 
  } if
  setrgbcolor
  CL 1 eq { 
    currentgray setgray 
  } if
} def

% The next two definitions are taken from "$tk_library/prolog.ps"

% desiredSize EvenPixels closestSize
%
% The procedure below is used for stippling.  Given the optimal size
% of a dot in a stipple pattern in the current user coordinate system,
% compute the closest size that is an exact multiple of the device's
% pixel size.  This allows stipple patterns to be displayed without
% aliasing effects.

/EvenPixels {
  % Compute exact number of device pixels per stipple dot.
  dup 0 matrix currentmatrix dtransform
  dup mul exch dup mul add sqrt

  % Round to an integer, make sure the number is at least 1, and compute
  % user coord distance corresponding to this.
  dup round dup 1 lt {pop 1} if
  exch div mul
} bind def

% width height string filled StippleFill --
%
% Given a path and other graphics information already set up, this
% procedure will fill the current path in a stippled fashion.  "String"
% contains a proper image description of the stipple pattern and
% "width" and "height" give its dimensions.  If "filled" is true then
% it means that the area to be stippled is gotten by filling the
% current path (e.g. the interior of a polygon); if it's false, the
% area is gotten by stroking the current path (e.g. a wide line).
% Each stipple dot is assumed to be about one unit across in the
% current user coordinate system.

% width height string StippleFill --
%
% Given a path already set up and a clipping region generated from
% it, this procedure will fill the clipping region with a stipple
% pattern.  "String" contains a proper image description of the
% stipple pattern and "width" and "height" give its dimensions.  Each
% stipple dot is assumed to be about one unit across in the current
% user coordinate system.  This procedure trashes the graphics state.

/StippleFill {
    % The following code is needed to work around a NeWSprint bug.

    /tmpstip 1 index def

    % Change the scaling so that one user unit in user coordinates
    % corresponds to the size of one stipple dot.
    1 EvenPixels dup scale

    % Compute the bounding box occupied by the path (which is now
    % the clipping region), and round the lower coordinates down
    % to the nearest starting point for the stipple pattern.  Be
    % careful about negative numbers, since the rounding works
    % differently on them.

    pathbbox
    4 2 roll
    5 index div dup 0 lt {1 sub} if cvi 5 index mul 4 1 roll
    6 index div dup 0 lt {1 sub} if cvi 6 index mul 3 2 roll

    % Stack now: width height string y1 y2 x1 x2
    % Below is a doubly-nested for loop to iterate across this area
    % in units of the stipple pattern size, going up columns then
    % across rows, blasting out a stipple-pattern-sized rectangle at
    % each position

    6 index exch {
	2 index 5 index 3 index {
	    % Stack now: width height string y1 y2 x y

	    gsave
	    1 index exch translate
	    5 index 5 index true matrix tmpstip imagemask
	    grestore
	} for
	pop
    } for
    pop pop pop pop pop
} bind def


/LS {	% Stack: x1 y1 x2 y2
  newpath 4 2 roll moveto lineto stroke
} def

/EndText {
  %Stack :
  grestore
} def

/BeginText {
  %Stack :  w h theta centerX centerY
  gsave
    % Translate the origin to the center of bounding box and rotate
    translate neg rotate
    % Translate back to the origin of the text region
    -0.5 mul exch -0.5 mul exch translate
} def

/DrawAdjText {
  %Stack : str strWidth x y
  moveto				% Go to the text position
  exch dup dup 4 2 roll

  % Adjust character widths to get desired overall string width
  % adjust X = (desired width - real width)/#chars

  stringwidth pop sub exch
  length div
  0 3 -1 roll

  % Flip back the scale so that the string is not drawn in reverse

  gsave
    1 -1 scale
    ashow
  grestore
} def

/DrawBitmap {
  % Stack: ?bgColorProc? boolean centerX centerY width height theta imageStr
  gsave
    6 -2 roll translate			% Translate to center of bounding box
    4 1 roll neg rotate			% Rotate by theta
    
    % Find upperleft corner of bounding box
    
    2 copy -.5 mul exch -.5 mul exch translate
    2 copy scale			% Make pixel unit scale
    newpath
    0 0 moveto 0 1 lineto 1 1 lineto 1 0 lineto
    closepath
    
    % Fill rectangle with background color
    
    4 -1 roll { 
      gsave 
	4 -1 roll exec fill 
      grestore 
    } if
    
    % Paint the image string into the unit rectangle
    
    2 copy true 3 -1 roll 0 0 5 -1 roll 0 0 6 array astore 5 -1 roll
    imagemask
  grestore
} def

% Symbols:

% Skinny-cross
/Sc {
  % Stack: x y symbolSize
  gsave
    3 -2 roll translate 45 rotate
    0 0 3 -1 roll Sp
  grestore
} def

% Skinny-plus
/Sp {
  % Stack: x y symbolSize
  gsave
    3 -2 roll translate
    2 idiv
    dup 2 copy
    newpath neg 0 moveto 0 lineto
    DrawSymbolProc
    newpath neg 0 exch moveto 0 exch lineto
    DrawSymbolProc
  grestore
} def

% Cross
/Cr {
  % Stack: x y symbolSize
  gsave
    3 -2 roll translate 45 rotate
    0 0 3 -1 roll Pl
  grestore
} def

% Plus
/Pl {
  % Stack: x y symbolSize
  gsave
    3 -2 roll translate
    dup 2 idiv
    exch 6 idiv

    %
    %          2   3		The plus/cross symbol is a
    %				closed polygon of 12 points.
    %      0   1   4    5	The diagram to the left
    %           x,y		represents the positions of
    %     11  10   7    6	the points which are computed
    %				below.
    %          9   8
    %

    newpath
    2 copy exch neg exch neg moveto dup neg dup lineto
    2 copy neg exch neg lineto 2 copy exch neg lineto
    dup dup neg lineto 2 copy neg lineto 2 copy lineto
    dup dup lineto 2 copy exch lineto 2 copy neg exch lineto
    dup dup neg exch lineto exch neg exch lineto
    closepath
    DrawSymbolProc
  grestore
} def

% Circle
/Ci {
  % Stack: x y symbolSize
  gsave
    3 copy pop
    moveto newpath
    2 div 0 360 arc
    closepath DrawSymbolProc
  grestore
} def

% Square
/Sq {
  % Stack: x y symbolSize
  gsave
    dup dup 2 div dup
    6 -1 roll exch sub exch
    5 -1 roll exch sub 4 -2 roll Box
    DrawSymbolProc
  grestore
} def

% Line
/Li {
  % Stack: x y symbolSize
  gsave
    3 1 roll exch 3 -1 roll 2 div 3 copy
    newpath
    sub exch moveto add exch lineto
    stroke
  grestore
} def

% Diamond
/Di {
  % Stack: x y symbolSize
  gsave
    3 1 roll translate 45 rotate 0 0 3 -1 roll Sq
  grestore
} def
    
% Triangle
/Tr {
  % Stack: x y symbolSize
  gsave
    3 -2 roll translate
    BaseRatio mul 0.5 mul		% Calculate 1/2 base
    dup 0 exch 30 cos mul		% h1 = height above center point
    neg					% b2 0 -h1
    newpath moveto			% point 1;  b2
    dup 30 sin 30 cos div mul		% h2 = height below center point
    2 copy lineto			% point 2;  b2 h2
    exch neg exch lineto		% 
    closepath
    DrawSymbolProc
  grestore
} def

% Arrow
/Ar {
  % Stack: x y symbolSize
  gsave
    3 -2 roll translate
    BaseRatio mul 0.5 mul		% Calculate 1/2 base
    dup 0 exch 30 cos mul		% h1 = height above center point
					% b2 0 h1
    newpath moveto			% point 1;  b2
    dup 30 sin 30 cos div mul		% h2 = height below center point
    neg					% -h2 b2
    2 copy lineto			% point 2;  b2 h2
    exch neg exch lineto		% 
    closepath
    DrawSymbolProc
  grestore
} def

% Bitmap
/Bm {
  % Stack: x y symbolSize
  gsave
    3 1 roll translate pop DrawSymbolProc
  grestore
} def

%%EndProlog

%%BeginSetup
gsave					% Save the graphics state

% Default line/text style parameters

1 setlinewidth				% width
1 setlinejoin				% join
0 setlinecap				% cap
[] 0 setdash				% dashes

/CL 0 def				% Set color level mode
0 0 0 setrgbcolor			% color

% Transform coordinate system to use X11 coordinates

% 1. Flip y-axis over by reversing the scale,
% 2. Translate the origin to the other side of the page,
%    making the origin the upper left corner
0.958907 -0.959646 scale
0 -826 translate

% User defined page layout

% Set color level
/CL 2 def

% Set origin
75 232 translate


% Setting graph scale factor
 0.94027 0.94027 scale

%%EndSetup

13 /Helvetica SetFont
31 6 483 350 Box

1 1 1 SetBgColor
Fill
gsave clip


% Element "69"

0 setlinejoin
0 setlinecap
1 0.509804 0 SetFgColor
1 setlinewidth
[ ] 0 setdash
/DashesProc {} def
/DashesProc {} def
 newpath 41 169.393 moveto
 98.75 191.742 lineto
DashesProc stroke
 newpath  98.75 191.742 moveto
 156.5 236.474 lineto
 272 286.657 lineto
 503 318.198 lineto
DashesProc stroke
1 setlinewidth
[ ] 0 setdash

/DrawSymbolProc {
  1 0.509804 0 SetBgColor
  Fill
  1 0.509804 0 SetFgColor
  stroke
} def

41 169.393 3 Ci
98.75 191.742 3 Ci
156.5 236.474 3 Ci
272 286.657 3 Ci
503 318.198 3 Ci

% Element "68"

0 setlinejoin
0 setlinecap
1 0.509804 0 SetFgColor
1 setlinewidth
[ ] 0 setdash
/DashesProc {} def
/DashesProc {} def
 newpath 41 170.285 moveto
 98.75 187.912 lineto
DashesProc stroke
 newpath  98.75 187.912 moveto
 156.5 269.268 lineto
 272 265.409 lineto
 503 310.37 lineto
DashesProc stroke
1 setlinewidth
[ ] 0 setdash

/DrawSymbolProc {
  1 0.509804 0 SetBgColor
  Fill
  1 0.509804 0 SetFgColor
  stroke
} def

41 170.285 3 Ci
98.75 187.912 3 Ci
156.5 269.268 3 Ci
272 265.409 3 Ci
503 310.37 3 Ci

% Element "67"

0 setlinejoin
0 setlinecap
1 0.682353 0 SetFgColor
1 setlinewidth
[ ] 0 setdash
/DashesProc {} def
/DashesProc {} def
 newpath 41 172.391 moveto
 98.75 198.958 lineto
DashesProc stroke
 newpath  98.75 198.958 moveto
 156.5 253.168 lineto
 272 268.859 lineto
 503 276.915 lineto
DashesProc stroke
1 setlinewidth
[ ] 0 setdash

/DrawSymbolProc {
  1 0.682353 0 SetBgColor
  Fill
  1 0.682353 0 SetFgColor
  stroke
} def

41 172.391 3 Ci
98.75 198.958 3 Ci
156.5 253.168 3 Ci
272 268.859 3 Ci
503 276.915 3 Ci

% Element "66"

0 setlinejoin
0 setlinecap
1 0.698039 0 SetFgColor
1 setlinewidth
[ ] 0 setdash
/DashesProc {} def
/DashesProc {} def
 newpath 41 176.58 moveto
 98.75 207.568 lineto
DashesProc stroke
 newpath  98.75 207.568 moveto
 156.5 221.769 lineto
 272 266.638 lineto
 503 295.614 lineto
DashesProc stroke
1 setlinewidth
[ ] 0 setdash

/DrawSymbolProc {
  1 0.698039 0 SetBgColor
  Fill
  1 0.698039 0 SetFgColor
  stroke
} def

41 176.58 3 Ci
98.75 207.568 3 Ci
156.5 221.769 3 Ci
272 266.638 3 Ci
503 295.614 3 Ci

% Element "65"

0 setlinejoin
0 setlinecap
1 0.333333 0 SetFgColor
1 setlinewidth
[ ] 0 setdash
/DashesProc {} def
/DashesProc {} def
 newpath 41 181.307 moveto
 98.75 201.064 lineto
DashesProc stroke
 newpath  98.75 201.064 moveto
 156.5 240.172 lineto
 272 279.163 lineto
 503 332.298 lineto
DashesProc stroke
1 setlinewidth
[ ] 0 setdash

/DrawSymbolProc {
  1 0.333333 0 SetBgColor
  Fill
  1 0.333333 0 SetFgColor
  stroke
} def

41 181.307 3 Ci
98.75 201.064 3 Ci
156.5 240.172 3 Ci
272 279.163 3 Ci
503 332.298 3 Ci

% Element "64"

0 setlinejoin
0 setlinecap
1 0.333333 0 SetFgColor
1 setlinewidth
[ ] 0 setdash
/DashesProc {} def
/DashesProc {} def
 newpath 41 176.001 moveto
 98.75 216.662 lineto
DashesProc stroke
 newpath  98.75 216.662 moveto
 156.5 248.087 lineto
 272 269.903 lineto
 503 323.751 lineto
DashesProc stroke
1 setlinewidth
[ ] 0 setdash

/DrawSymbolProc {
  1 0.333333 0 SetBgColor
  Fill
  1 0.333333 0 SetFgColor
  stroke
} def

41 176.001 3 Ci
98.75 216.662 3 Ci
156.5 248.087 3 Ci
272 269.903 3 Ci
503 323.751 3 Ci

% Element "63"

0 setlinejoin
0 setlinecap
1 0.588235 0 SetFgColor
1 setlinewidth
[ ] 0 setdash
/DashesProc {} def
/DashesProc {} def
 newpath 41 166.829 moveto
 98.75 211.554 lineto
DashesProc stroke
 newpath  98.75 211.554 moveto
 156.5 244.458 lineto
 272 270.94 lineto
 503 294.575 lineto
DashesProc stroke
1 setlinewidth
[ ] 0 setdash

/DrawSymbolProc {
  1 0.588235 0 SetBgColor
  Fill
  1 0.588235 0 SetFgColor
  stroke
} def

41 166.829 3 Ci
98.75 211.554 3 Ci
156.5 244.458 3 Ci
272 270.94 3 Ci
503 294.575 3 Ci

% Element "62"

0 setlinejoin
0 setlinecap
1 0.603922 0 SetFgColor
1 setlinewidth
[ ] 0 setdash
/DashesProc {} def
/DashesProc {} def
 newpath 41 185.787 moveto
 98.75 214.855 lineto
DashesProc stroke
 newpath  98.75 214.855 moveto
 156.5 253.442 lineto
 272 262.507 lineto
 503 269.89 lineto
DashesProc stroke
1 setlinewidth
[ ] 0 setdash

/DrawSymbolProc {
  1 0.603922 0 SetBgColor
  Fill
  1 0.603922 0 SetFgColor
  stroke
} def

41 185.787 3 Ci
98.75 214.855 3 Ci
156.5 253.442 3 Ci
272 262.507 3 Ci
503 269.89 3 Ci

% Element "61"

0 setlinejoin
0 setlinecap
1 0.52549 0 SetFgColor
1 setlinewidth
[ ] 0 setdash
/DashesProc {} def
/DashesProc {} def
 newpath 41 174.606 moveto
 98.75 206.103 lineto
DashesProc stroke
 newpath  98.75 206.103 moveto
 156.5 232.098 lineto
 272 270.371 lineto
 503 315.199 lineto
DashesProc stroke
1 setlinewidth
[ ] 0 setdash

/DrawSymbolProc {
  1 0.52549 0 SetBgColor
  Fill
  1 0.52549 0 SetFgColor
  stroke
} def

41 174.606 3 Ci
98.75 206.103 3 Ci
156.5 232.098 3 Ci
272 270.371 3 Ci
503 315.199 3 Ci

% Element "60"

0 setlinejoin
0 setlinecap
1 0.301961 0 SetFgColor
1 setlinewidth
[ ] 0 setdash
/DashesProc {} def
/DashesProc {} def
 newpath 41 185.949 moveto
 98.75 212.103 lineto
DashesProc stroke
 newpath  98.75 212.103 moveto
 156.5 235.621 lineto
 272 290.747 lineto
 503 316.38 lineto
DashesProc stroke
1 setlinewidth
[ ] 0 setdash

/DrawSymbolProc {
  1 0.301961 0 SetBgColor
  Fill
  1 0.301961 0 SetFgColor
  stroke
} def

41 185.949 3 Ci
98.75 212.103 3 Ci
156.5 235.621 3 Ci
272 290.747 3 Ci
503 316.38 3 Ci

% Element "59"

0 setlinejoin
0 setlinecap
1 0.380392 0 SetFgColor
1 setlinewidth
[ ] 0 setdash
/DashesProc {} def
/DashesProc {} def
 newpath 41 175.239 moveto
 98.75 219.693 lineto
DashesProc stroke
 newpath  98.75 219.693 moveto
 156.5 245.732 lineto
 272 281.169 lineto
 503 304.724 lineto
DashesProc stroke
1 setlinewidth
[ ] 0 setdash

/DrawSymbolProc {
  1 0.380392 0 SetBgColor
  Fill
  1 0.380392 0 SetFgColor
  stroke
} def

41 175.239 3 Ci
98.75 219.693 3 Ci
156.5 245.732 3 Ci
272 281.169 3 Ci
503 304.724 3 Ci

% Element "58"

0 setlinejoin
0 setlinecap
1 0 0 SetFgColor
1 setlinewidth
[ ] 0 setdash
/DashesProc {} def
/DashesProc {} def
 newpath 41 178.243 moveto
 98.75 210.83 lineto
DashesProc stroke
 newpath  98.75 210.83 moveto
 156.5 285.388 lineto
 272 279.746 lineto
 503 342.695 lineto
DashesProc stroke
1 setlinewidth
[ ] 0 setdash

/DrawSymbolProc {
  1 0 0 SetBgColor
  Fill
  1 0 0 SetFgColor
  stroke
} def

41 178.243 3 Ci
98.75 210.83 3 Ci
156.5 285.388 3 Ci
272 279.746 3 Ci
503 342.695 3 Ci

% Element "57"

0 setlinejoin
0 setlinecap
1 0.286275 0 SetFgColor
1 setlinewidth
[ ] 0 setdash
/DashesProc {} def
/DashesProc {} def
 newpath 41 176.112 moveto
 98.75 194.906 lineto
DashesProc stroke
 newpath  98.75 194.906 moveto
 156.5 247.013 lineto
 272 292.763 lineto
 503 333.355 lineto
DashesProc stroke
1 setlinewidth
[ ] 0 setdash

/DrawSymbolProc {
  1 0.286275 0 SetBgColor
  Fill
  1 0.286275 0 SetFgColor
  stroke
} def

41 176.112 3 Ci
98.75 194.906 3 Ci
156.5 247.013 3 Ci
272 292.763 3 Ci
503 333.355 3 Ci

% Element "56"

0 setlinejoin
0 setlinecap
1 0.588235 0 SetFgColor
1 setlinewidth
[ ] 0 setdash
/DashesProc {} def
/DashesProc {} def
 newpath 41 171.575 moveto
 98.75 211.084 lineto
DashesProc stroke
 newpath  98.75 211.084 moveto
 156.5 251.063 lineto
 272 263.782 lineto
 503 291.812 lineto
DashesProc stroke
1 setlinewidth
[ ] 0 setdash

/DrawSymbolProc {
  1 0.588235 0 SetBgColor
  Fill
  1 0.588235 0 SetFgColor
  stroke
} def

41 171.575 3 Ci
98.75 211.084 3 Ci
156.5 251.063 3 Ci
272 263.782 3 Ci
503 291.812 3 Ci

% Element "55"

0 setlinejoin
0 setlinecap
1 0.396078 0 SetFgColor
1 setlinewidth
[ ] 0 setdash
/DashesProc {} def
/DashesProc {} def
 newpath 41 175.311 moveto
 98.75 226.91 lineto
DashesProc stroke
 newpath  98.75 226.91 moveto
 156.5 250.81 lineto
 272 290.258 lineto
 503 280.155 lineto
DashesProc stroke
1 setlinewidth
[ ] 0 setdash

/DrawSymbolProc {
  1 0.396078 0 SetBgColor
  Fill
  1 0.396078 0 SetFgColor
  stroke
} def

41 175.311 3 Ci
98.75 226.91 3 Ci
156.5 250.81 3 Ci
272 290.258 3 Ci
503 280.155 3 Ci

% Element "54"

0 setlinejoin
0 setlinecap
1 0.47451 0 SetFgColor
1 setlinewidth
[ ] 0 setdash
/DashesProc {} def
/DashesProc {} def
 newpath 41 182.327 moveto
 98.75 191.235 lineto
DashesProc stroke
 newpath  98.75 191.235 moveto
 156.5 221.052 lineto
 272 277.935 lineto
 503 334.953 lineto
DashesProc stroke
1 setlinewidth
[ ] 0 setdash

/DrawSymbolProc {
  1 0.47451 0 SetBgColor
  Fill
  1 0.47451 0 SetFgColor
  stroke
} def

41 182.327 3 Ci
98.75 191.235 3 Ci
156.5 221.052 3 Ci
272 277.935 3 Ci
503 334.953 3 Ci

% Element "53"

0 setlinejoin
0 setlinecap
1 0.47451 0 SetFgColor
1 setlinewidth
[ ] 0 setdash
/DashesProc {} def
/DashesProc {} def
 newpath 41 177.554 moveto
 98.75 212.758 lineto
DashesProc stroke
 newpath  98.75 212.758 moveto
 156.5 231.157 lineto
 272 272.904 lineto
 503 315.439 lineto
DashesProc stroke
1 setlinewidth
[ ] 0 setdash

/DrawSymbolProc {
  1 0.47451 0 SetBgColor
  Fill
  1 0.47451 0 SetFgColor
  stroke
} def

41 177.554 3 Ci
98.75 212.758 3 Ci
156.5 231.157 3 Ci
272 272.904 3 Ci
503 315.439 3 Ci

% Element "52"

0 setlinejoin
0 setlinecap
1 0.411765 0 SetFgColor
1 setlinewidth
[ ] 0 setdash
/DashesProc {} def
/DashesProc {} def
 newpath 41 174.702 moveto
 98.75 219.874 lineto
DashesProc stroke
 newpath  98.75 219.874 moveto
 156.5 224.569 lineto
 272 270.96 lineto
 503 331.289 lineto
DashesProc stroke
1 setlinewidth
[ ] 0 setdash

/DrawSymbolProc {
  1 0.411765 0 SetBgColor
  Fill
  1 0.411765 0 SetFgColor
  stroke
} def

41 174.702 3 Ci
98.75 219.874 3 Ci
156.5 224.569 3 Ci
272 270.96 3 Ci
503 331.289 3 Ci

% Element "51"

0 setlinejoin
0 setlinecap
1 0.109804 0 SetFgColor
1 setlinewidth
[ ] 0 setdash
/DashesProc {} def
/DashesProc {} def
 newpath 41 183.355 moveto
 98.75 203.305 lineto
DashesProc stroke
 newpath  98.75 203.305 moveto
 156.5 240.52 lineto
 272 302.409 lineto
 503 345 lineto
DashesProc stroke
1 setlinewidth
[ ] 0 setdash

/DrawSymbolProc {
  1 0.109804 0 SetBgColor
  Fill
  1 0.109804 0 SetFgColor
  stroke
} def

41 183.355 3 Ci
98.75 203.305 3 Ci
156.5 240.52 3 Ci
272 302.409 3 Ci
503 345 3 Ci

% Element "50"

0 setlinejoin
0 setlinecap
1 0.509804 0 SetFgColor
1 setlinewidth
[ ] 0 setdash
/DashesProc {} def
/DashesProc {} def
 newpath 41 165.039 moveto
 98.75 212.502 lineto
DashesProc stroke
 newpath  98.75 212.502 moveto
 156.5 247.388 lineto
 272 278.507 lineto
 503 300.01 lineto
DashesProc stroke
1 setlinewidth
[ ] 0 setdash

/DrawSymbolProc {
  1 0.509804 0 SetBgColor
  Fill
  1 0.509804 0 SetFgColor
  stroke
} def

41 165.039 3 Ci
98.75 212.502 3 Ci
156.5 247.388 3 Ci
272 278.507 3 Ci
503 300.01 3 Ci

% Element "49"

0 setlinejoin
0 setlinecap
0 0.12549 1 SetFgColor
1 setlinewidth
[ ] 0 setdash
/DashesProc {} def
/DashesProc {} def
 newpath 41 178.961 moveto
 98.75 134.488 lineto
DashesProc stroke
 newpath  98.75 134.488 moveto
 156.5 162.338 lineto
 272 79.2316 lineto
 503 27.5726 lineto
DashesProc stroke
1 setlinewidth
[ ] 0 setdash

/DrawSymbolProc {
  0 0.12549 1 SetBgColor
  Fill
  0 0.12549 1 SetFgColor
  stroke
} def

41 178.961 3 Ci
98.75 134.488 3 Ci
156.5 162.338 3 Ci
272 79.2316 3 Ci
503 27.5726 3 Ci

% Element "48"

0 setlinejoin
0 setlinecap
0.0627451 0 1 SetFgColor
1 setlinewidth
[ ] 0 setdash
/DashesProc {} def
/DashesProc {} def
 newpath 41 163.752 moveto
 98.75 141.426 lineto
DashesProc stroke
 newpath  98.75 141.426 moveto
 156.5 121.995 lineto
 272 77.9213 lineto
 503 39.7758 lineto
DashesProc stroke
1 setlinewidth
[ ] 0 setdash

/DrawSymbolProc {
  0.0627451 0 1 SetBgColor
  Fill
  0.0627451 0 1 SetFgColor
  stroke
} def

41 163.752 3 Ci
98.75 141.426 3 Ci
156.5 121.995 3 Ci
272 77.9213 3 Ci
503 39.7758 3 Ci

% Element "47"

0 setlinejoin
0 setlinecap
0 0 1 SetFgColor
1 setlinewidth
[ ] 0 setdash
/DashesProc {} def
/DashesProc {} def
 newpath 41 161.787 moveto
 98.75 145.138 lineto
DashesProc stroke
 newpath  98.75 145.138 moveto
 156.5 123.752 lineto
 272 84.8055 lineto
 503 43.3485 lineto
DashesProc stroke
1 setlinewidth
[ ] 0 setdash

/DrawSymbolProc {
  0 0 1 SetBgColor
  Fill
  0 0 1 SetFgColor
  stroke
} def

41 161.787 3 Ci
98.75 145.138 3 Ci
156.5 123.752 3 Ci
272 84.8055 3 Ci
503 43.3485 3 Ci

% Element "46"

0 setlinejoin
0 setlinecap
0.0627451 0 1 SetFgColor
1 setlinewidth
[ ] 0 setdash
/DashesProc {} def
/DashesProc {} def
 newpath 41 162.757 moveto
 98.75 146.43 lineto
DashesProc stroke
 newpath  98.75 146.43 moveto
 156.5 113.238 lineto
 272 76.5753 lineto
 503 45.3876 lineto
DashesProc stroke
1 setlinewidth
[ ] 0 setdash

/DrawSymbolProc {
  0.0627451 0 1 SetBgColor
  Fill
  0.0627451 0 1 SetFgColor
  stroke
} def

41 162.757 3 Ci
98.75 146.43 3 Ci
156.5 113.238 3 Ci
272 76.5753 3 Ci
503 45.3876 3 Ci

% Element "45"

0 setlinejoin
0 setlinecap
0 0.156863 1 SetFgColor
1 setlinewidth
[ ] 0 setdash
/DashesProc {} def
/DashesProc {} def
 newpath 41 223.134 moveto
 98.75 145.834 lineto
DashesProc stroke
 newpath  98.75 145.834 moveto
 156.5 75.6507 lineto
 272 89.5291 lineto
 503 53.733 lineto
DashesProc stroke
1 setlinewidth
[ ] 0 setdash

/DrawSymbolProc {
  0 0.156863 1 SetBgColor
  Fill
  0 0.156863 1 SetFgColor
  stroke
} def

41 223.134 3 Ci
98.75 145.834 3 Ci
156.5 75.6507 3 Ci
272 89.5291 3 Ci
503 53.733 3 Ci

% Element "44"

0 setlinejoin
0 setlinecap
0 0.235294 1 SetFgColor
1 setlinewidth
[ ] 0 setdash
/DashesProc {} def
/DashesProc {} def
 newpath 41 184.877 moveto
 98.75 140.701 lineto
DashesProc stroke
 newpath  98.75 140.701 moveto
 156.5 162.061 lineto
 272 85.8116 lineto
 503 28.4171 lineto
DashesProc stroke
1 setlinewidth
[ ] 0 setdash

/DrawSymbolProc {
  0 0.235294 1 SetBgColor
  Fill
  0 0.235294 1 SetFgColor
  stroke
} def

41 184.877 3 Ci
98.75 140.701 3 Ci
156.5 162.061 3 Ci
272 85.8116 3 Ci
503 28.4171 3 Ci

% Element "43"

0 setlinejoin
0 setlinecap
0.12549 0 1 SetFgColor
1 setlinewidth
[ ] 0 setdash
/DashesProc {} def
/DashesProc {} def
 newpath 41 155.861 moveto
 98.75 134.685 lineto
DashesProc stroke
 newpath  98.75 134.685 moveto
 156.5 106.582 lineto
 272 83.1474 lineto
 503 52.3048 lineto
DashesProc stroke
1 setlinewidth
[ ] 0 setdash

/DrawSymbolProc {
  0.12549 0 1 SetBgColor
  Fill
  0.12549 0 1 SetFgColor
  stroke
} def

41 155.861 3 Ci
98.75 134.685 3 Ci
156.5 106.582 3 Ci
272 83.1474 3 Ci
503 52.3048 3 Ci

% Element "42"

0 setlinejoin
0 setlinecap
0.12549 0 1 SetFgColor
1 setlinewidth
[ ] 0 setdash
/DashesProc {} def
/DashesProc {} def
 newpath 41 170.614 moveto
 98.75 138.13 lineto
DashesProc stroke
 newpath  98.75 138.13 moveto
 156.5 109.255 lineto
 272 81.9542 lineto
 503 33.6514 lineto
DashesProc stroke
1 setlinewidth
[ ] 0 setdash

/DrawSymbolProc {
  0.12549 0 1 SetBgColor
  Fill
  0.12549 0 1 SetFgColor
  stroke
} def

41 170.614 3 Ci
98.75 138.13 3 Ci
156.5 109.255 3 Ci
272 81.9542 3 Ci
503 33.6514 3 Ci

% Element "41"

0 setlinejoin
0 setlinecap
0 0.0627451 1 SetFgColor
1 setlinewidth
[ ] 0 setdash
/DashesProc {} def
/DashesProc {} def
 newpath 41 199.985 moveto
 98.75 151.535 lineto
DashesProc stroke
 newpath  98.75 151.535 moveto
 156.5 109.682 lineto
 272 85.8473 lineto
 503 24.7196 lineto
DashesProc stroke
1 setlinewidth
[ ] 0 setdash

/DrawSymbolProc {
  0 0.0627451 1 SetBgColor
  Fill
  0 0.0627451 1 SetFgColor
  stroke
} def

41 199.985 3 Ci
98.75 151.535 3 Ci
156.5 109.682 3 Ci
272 85.8473 3 Ci
503 24.7196 3 Ci

% Element "40"

0 setlinejoin
0 setlinecap
0 0 1 SetFgColor
1 setlinewidth
[ ] 0 setdash
/DashesProc {} def
/DashesProc {} def
 newpath 41 158.996 moveto
 98.75 156.188 lineto
DashesProc stroke
 newpath  98.75 156.188 moveto
 156.5 97.9493 lineto
 272 86.1682 lineto
 503 57.9365 lineto
DashesProc stroke
1 setlinewidth
[ ] 0 setdash

/DrawSymbolProc {
  0 0 1 SetBgColor
  Fill
  0 0 1 SetFgColor
  stroke
} def

41 158.996 3 Ci
98.75 156.188 3 Ci
156.5 97.9493 3 Ci
272 86.1682 3 Ci
503 57.9365 3 Ci

% Element "39"

0 setlinejoin
0 setlinecap
0 0.0941176 1 SetFgColor
1 setlinewidth
[ ] 0 setdash
/DashesProc {} def
/DashesProc {} def
 newpath 41 167.348 moveto
 98.75 148.641 lineto
DashesProc stroke
 newpath  98.75 148.641 moveto
 156.5 140.409 lineto
 272 73.6862 lineto
 503 45.5735 lineto
DashesProc stroke
1 setlinewidth
[ ] 0 setdash

/DrawSymbolProc {
  0 0.0941176 1 SetBgColor
  Fill
  0 0.0941176 1 SetFgColor
  stroke
} def

41 167.348 3 Ci
98.75 148.641 3 Ci
156.5 140.409 3 Ci
272 73.6862 3 Ci
503 45.5735 3 Ci

% Element "38"

0 setlinejoin
0 setlinecap
0.156863 0 1 SetFgColor
1 setlinewidth
[ ] 0 setdash
/DashesProc {} def
/DashesProc {} def
 newpath 41 155.612 moveto
 98.75 142.501 lineto
DashesProc stroke
 newpath  98.75 142.501 moveto
 156.5 93.6633 lineto
 272 75.9066 lineto
 503 57.0108 lineto
DashesProc stroke
1 setlinewidth
[ ] 0 setdash

/DrawSymbolProc {
  0.156863 0 1 SetBgColor
  Fill
  0.156863 0 1 SetFgColor
  stroke
} def

41 155.612 3 Ci
98.75 142.501 3 Ci
156.5 93.6633 3 Ci
272 75.9066 3 Ci
503 57.0108 3 Ci

% Element "37"

0 setlinejoin
0 setlinecap
0.156863 0 1 SetFgColor
1 setlinewidth
[ ] 0 setdash
/DashesProc {} def
/DashesProc {} def
 newpath 41 150.523 moveto
 98.75 147.772 lineto
DashesProc stroke
 newpath  98.75 147.772 moveto
 156.5 103.713 lineto
 272 81.7749 lineto
 503 43.5899 lineto
DashesProc stroke
1 setlinewidth
[ ] 0 setdash

/DrawSymbolProc {
  0.156863 0 1 SetBgColor
  Fill
  0.156863 0 1 SetFgColor
  stroke
} def

41 150.523 3 Ci
98.75 147.772 3 Ci
156.5 103.713 3 Ci
272 81.7749 3 Ci
503 43.5899 3 Ci

% Element "36"

0 setlinejoin
0 setlinecap
0.12549 0 1 SetFgColor
1 setlinewidth
[ ] 0 setdash
/DashesProc {} def
/DashesProc {} def
 newpath 41 175.321 moveto
 98.75 153.757 lineto
DashesProc stroke
 newpath  98.75 153.757 moveto
 156.5 96.0452 lineto
 272 80.5468 lineto
 503 26.1501 lineto
DashesProc stroke
1 setlinewidth
[ ] 0 setdash

/DrawSymbolProc {
  0.12549 0 1 SetBgColor
  Fill
  0.12549 0 1 SetFgColor
  stroke
} def

41 175.321 3 Ci
98.75 153.757 3 Ci
156.5 96.0452 3 Ci
272 80.5468 3 Ci
503 26.1501 3 Ci

% Element "35"

0 setlinejoin
0 setlinecap
0.0941176 0 1 SetFgColor
1 setlinewidth
[ ] 0 setdash
/DashesProc {} def
/DashesProc {} def
 newpath 41 169.128 moveto
 98.75 143.063 lineto
DashesProc stroke
 newpath  98.75 143.063 moveto
 156.5 125.631 lineto
 272 84.5593 lineto
 503 16 lineto
DashesProc stroke
1 setlinewidth
[ ] 0 setdash

/DrawSymbolProc {
  0.0941176 0 1 SetBgColor
  Fill
  0.0941176 0 1 SetFgColor
  stroke
} def

41 169.128 3 Ci
98.75 143.063 3 Ci
156.5 125.631 3 Ci
272 84.5593 3 Ci
503 16 3 Ci

% Element "34"

0 setlinejoin
0 setlinecap
0.188235 0 1 SetFgColor
1 setlinewidth
[ ] 0 setdash
/DashesProc {} def
/DashesProc {} def
 newpath 41 168.396 moveto
 98.75 134.251 lineto
DashesProc stroke
 newpath  98.75 134.251 moveto
 156.5 97.8567 lineto
 272 70.2319 lineto
 503 50.1268 lineto
DashesProc stroke
1 setlinewidth
[ ] 0 setdash

/DrawSymbolProc {
  0.188235 0 1 SetBgColor
  Fill
  0.188235 0 1 SetFgColor
  stroke
} def

41 168.396 3 Ci
98.75 134.251 3 Ci
156.5 97.8567 3 Ci
272 70.2319 3 Ci
503 50.1268 3 Ci

% Element "33"

0 setlinejoin
0 setlinecap
0 0.235294 1 SetFgColor
1 setlinewidth
[ ] 0 setdash
/DashesProc {} def
/DashesProc {} def
 newpath 41 214.48 moveto
 98.75 150.502 lineto
DashesProc stroke
 newpath  98.75 150.502 moveto
 156.5 86.6488 lineto
 272 85.2054 lineto
 503 65.5183 lineto
DashesProc stroke
1 setlinewidth
[ ] 0 setdash

/DrawSymbolProc {
  0 0.235294 1 SetBgColor
  Fill
  0 0.235294 1 SetFgColor
  stroke
} def

41 214.48 3 Ci
98.75 150.502 3 Ci
156.5 86.6488 3 Ci
272 85.2054 3 Ci
503 65.5183 3 Ci

% Element "32"

0 setlinejoin
0 setlinecap
0 0 1 SetFgColor
1 setlinewidth
[ ] 0 setdash
/DashesProc {} def
/DashesProc {} def
 newpath 41 194.965 moveto
 98.75 143.055 lineto
DashesProc stroke
 newpath  98.75 143.055 moveto
 156.5 97.0039 lineto
 272 86.5801 lineto
 503 38.8554 lineto
DashesProc stroke
1 setlinewidth
[ ] 0 setdash

/DrawSymbolProc {
  0 0 1 SetBgColor
  Fill
  0 0 1 SetFgColor
  stroke
} def

41 194.965 3 Ci
98.75 143.055 3 Ci
156.5 97.0039 3 Ci
272 86.5801 3 Ci
503 38.8554 3 Ci

% Element "31"

0 setlinejoin
0 setlinecap
0 0.156863 1 SetFgColor
1 setlinewidth
[ ] 0 setdash
/DashesProc {} def
/DashesProc {} def
 newpath 41 186.651 moveto
 98.75 151.917 lineto
DashesProc stroke
 newpath  98.75 151.917 moveto
 156.5 103.446 lineto
 272 92.3233 lineto
 503 54.6732 lineto
DashesProc stroke
1 setlinewidth
[ ] 0 setdash

/DrawSymbolProc {
  0 0.156863 1 SetBgColor
  Fill
  0 0.156863 1 SetFgColor
  stroke
} def

41 186.651 3 Ci
98.75 151.917 3 Ci
156.5 103.446 3 Ci
272 92.3233 3 Ci
503 54.6732 3 Ci

% Element "30"

0 setlinejoin
0 setlinecap
0 0.141176 1 SetFgColor
1 setlinewidth
[ ] 0 setdash
/DashesProc {} def
/DashesProc {} def
 newpath 41 190.724 moveto
 98.75 142.976 lineto
DashesProc stroke
 newpath  98.75 142.976 moveto
 156.5 119.959 lineto
 272 77.1783 lineto
 503 54.3981 lineto
DashesProc stroke
1 setlinewidth
[ ] 0 setdash

/DrawSymbolProc {
  0 0.141176 1 SetBgColor
  Fill
  0 0.141176 1 SetFgColor
  stroke
} def

41 190.724 3 Ci
98.75 142.976 3 Ci
156.5 119.959 3 Ci
272 77.1783 3 Ci
503 54.3981 3 Ci

% Element "29"

0 setlinejoin
0 setlinecap
0 1 0.34902 SetFgColor
1 setlinewidth
[ ] 0 setdash
/DashesProc {} def
/DashesProc {} def
 newpath 41 187.391 moveto
 98.75 158.533 lineto
DashesProc stroke
 newpath  98.75 158.533 moveto
 156.5 182.399 lineto
 272 178.376 lineto
 503 157.439 lineto
DashesProc stroke
1 setlinewidth
[ ] 0 setdash

/DrawSymbolProc {
  0 1 0.34902 SetBgColor
  Fill
  0 1 0.34902 SetFgColor
  stroke
} def

41 187.391 3 Ci
98.75 158.533 3 Ci
156.5 182.399 3 Ci
272 178.376 3 Ci
503 157.439 3 Ci

% Element "28"

0 setlinejoin
0 setlinecap
0 1 0.34902 SetFgColor
1 setlinewidth
[ ] 0 setdash
/DashesProc {} def
/DashesProc {} def
 newpath 41 119.086 moveto
 98.75 197.932 lineto
DashesProc stroke
 newpath  98.75 197.932 moveto
 156.5 161.838 lineto
 272 181.583 lineto
 503 199.432 lineto
DashesProc stroke
1 setlinewidth
[ ] 0 setdash

/DrawSymbolProc {
  0 1 0.34902 SetBgColor
  Fill
  0 1 0.34902 SetFgColor
  stroke
} def

41 119.086 3 Ci
98.75 197.932 3 Ci
156.5 161.838 3 Ci
272 181.583 3 Ci
503 199.432 3 Ci

% Element "27"

0 setlinejoin
0 setlinecap
0 1 0.219608 SetFgColor
1 setlinewidth
[ ] 0 setdash
/DashesProc {} def
/DashesProc {} def
 newpath 41 178.584 moveto
 98.75 143.667 lineto
DashesProc stroke
 newpath  98.75 143.667 moveto
 156.5 195.589 lineto
 272 176.001 lineto
 503 187.346 lineto
DashesProc stroke
1 setlinewidth
[ ] 0 setdash

/DrawSymbolProc {
  0 1 0.219608 SetBgColor
  Fill
  0 1 0.219608 SetFgColor
  stroke
} def

41 178.584 3 Ci
98.75 143.667 3 Ci
156.5 195.589 3 Ci
272 176.001 3 Ci
503 187.346 3 Ci

% Element "26"

0 setlinejoin
0 setlinecap
0 1 0 SetFgColor
1 setlinewidth
[ ] 0 setdash
/DashesProc {} def
/DashesProc {} def
 newpath 41 183.88 moveto
 98.75 157.473 lineto
DashesProc stroke
 newpath  98.75 157.473 moveto
 156.5 240.959 lineto
 272 167.53 lineto
 503 182.552 lineto
DashesProc stroke
1 setlinewidth
[ ] 0 setdash

/DrawSymbolProc {
  0 1 0 SetBgColor
  Fill
  0 1 0 SetFgColor
  stroke
} def

41 183.88 3 Ci
98.75 157.473 3 Ci
156.5 240.959 3 Ci
272 167.53 3 Ci
503 182.552 3 Ci

% Element "25"

0 setlinejoin
0 setlinecap
0 1 0.219608 SetFgColor
1 setlinewidth
[ ] 0 setdash
/DashesProc {} def
/DashesProc {} def
 newpath 41 175.908 moveto
 98.75 181.94 lineto
DashesProc stroke
 newpath  98.75 181.94 moveto
 156.5 197.665 lineto
 272 174.381 lineto
 503 156.28 lineto
DashesProc stroke
1 setlinewidth
[ ] 0 setdash

/DrawSymbolProc {
  0 1 0.219608 SetBgColor
  Fill
  0 1 0.219608 SetFgColor
  stroke
} def

41 175.908 3 Ci
98.75 181.94 3 Ci
156.5 197.665 3 Ci
272 174.381 3 Ci
503 156.28 3 Ci

% Element "24"

0 setlinejoin
0 setlinecap
0 1 0.156863 SetFgColor
1 setlinewidth
[ ] 0 setdash
/DashesProc {} def
/DashesProc {} def
 newpath 41 182.135 moveto
 98.75 202.544 lineto
DashesProc stroke
 newpath  98.75 202.544 moveto
 156.5 150.297 lineto
 272 178.281 lineto
 503 184.585 lineto
DashesProc stroke
1 setlinewidth
[ ] 0 setdash

/DrawSymbolProc {
  0 1 0.156863 SetBgColor
  Fill
  0 1 0.156863 SetFgColor
  stroke
} def

41 182.135 3 Ci
98.75 202.544 3 Ci
156.5 150.297 3 Ci
272 178.281 3 Ci
503 184.585 3 Ci

% Element "23"

0 setlinejoin
0 setlinecap
0 1 0.0941176 SetFgColor
1 setlinewidth
[ ] 0 setdash
/DashesProc {} def
/DashesProc {} def
 newpath 41 200.787 moveto
 98.75 175.778 lineto
DashesProc stroke
 newpath  98.75 175.778 moveto
 156.5 171.596 lineto
 272 175.433 lineto
 503 185.913 lineto
DashesProc stroke
1 setlinewidth
[ ] 0 setdash

/DrawSymbolProc {
  0 1 0.0941176 SetBgColor
  Fill
  0 1 0.0941176 SetFgColor
  stroke
} def

41 200.787 3 Ci
98.75 175.778 3 Ci
156.5 171.596 3 Ci
272 175.433 3 Ci
503 185.913 3 Ci

% Element "22"

0 setlinejoin
0 setlinecap
0 1 0.254902 SetFgColor
1 setlinewidth
[ ] 0 setdash
/DashesProc {} def
/DashesProc {} def
 newpath 41 205.879 moveto
 98.75 188.15 lineto
DashesProc stroke
 newpath  98.75 188.15 moveto
 156.5 144.659 lineto
 272 174.292 lineto
 503 165.468 lineto
DashesProc stroke
1 setlinewidth
[ ] 0 setdash

/DrawSymbolProc {
  0 1 0.254902 SetBgColor
  Fill
  0 1 0.254902 SetFgColor
  stroke
} def

41 205.879 3 Ci
98.75 188.15 3 Ci
156.5 144.659 3 Ci
272 174.292 3 Ci
503 165.468 3 Ci

% Element "21"

0 setlinejoin
0 setlinecap
0 1 0 SetFgColor
1 setlinewidth
[ ] 0 setdash
/DashesProc {} def
/DashesProc {} def
 newpath 41 150.978 moveto
 98.75 232.388 lineto
DashesProc stroke
 newpath  98.75 232.388 moveto
 156.5 183.114 lineto
 272 169.077 lineto
 503 194.155 lineto
DashesProc stroke
1 setlinewidth
[ ] 0 setdash

/DrawSymbolProc {
  0 1 0 SetBgColor
  Fill
  0 1 0 SetFgColor
  stroke
} def

41 150.978 3 Ci
98.75 232.388 3 Ci
156.5 183.114 3 Ci
272 169.077 3 Ci
503 194.155 3 Ci

% Element "20"

0 setlinejoin
0 setlinecap
0 1 0.0941176 SetFgColor
1 setlinewidth
[ ] 0 setdash
/DashesProc {} def
/DashesProc {} def
 newpath 41 192.176 moveto
 98.75 168.596 lineto
DashesProc stroke
 newpath  98.75 168.596 moveto
 156.5 199.063 lineto
 272 174.106 lineto
 503 177.959 lineto
DashesProc stroke
1 setlinewidth
[ ] 0 setdash

/DrawSymbolProc {
  0 1 0.0941176 SetBgColor
  Fill
  0 1 0.0941176 SetFgColor
  stroke
} def

41 192.176 3 Ci
98.75 168.596 3 Ci
156.5 199.063 3 Ci
272 174.106 3 Ci
503 177.959 3 Ci

% Element "19"

0 setlinejoin
0 setlinecap
0 1 0.219608 SetFgColor
1 setlinewidth
[ ] 0 setdash
/DashesProc {} def
/DashesProc {} def
 newpath 41 178.841 moveto
 98.75 178.147 lineto
DashesProc stroke
 newpath  98.75 178.147 moveto
 156.5 162.404 lineto
 272 177.953 lineto
 503 186.991 lineto
DashesProc stroke
1 setlinewidth
[ ] 0 setdash

/DrawSymbolProc {
  0 1 0.219608 SetBgColor
  Fill
  0 1 0.219608 SetFgColor
  stroke
} def

41 178.841 3 Ci
98.75 178.147 3 Ci
156.5 162.404 3 Ci
272 177.953 3 Ci
503 186.991 3 Ci

% Element "18"

0 setlinejoin
0 setlinecap
0 1 0.443137 SetFgColor
1 setlinewidth
[ ] 0 setdash
/DashesProc {} def
/DashesProc {} def
 newpath 41 187.954 moveto
 98.75 180.448 lineto
DashesProc stroke
 newpath  98.75 180.448 moveto
 156.5 133.468 lineto
 272 167.773 lineto
 503 173.922 lineto
DashesProc stroke
1 setlinewidth
[ ] 0 setdash

/DrawSymbolProc {
  0 1 0.443137 SetBgColor
  Fill
  0 1 0.443137 SetFgColor
  stroke
} def

41 187.954 3 Ci
98.75 180.448 3 Ci
156.5 133.468 3 Ci
272 167.773 3 Ci
503 173.922 3 Ci

% Element "17"

0 setlinejoin
0 setlinecap
0 1 0.0627451 SetFgColor
1 setlinewidth
[ ] 0 setdash
/DashesProc {} def
/DashesProc {} def
 newpath 41 177.19 moveto
 98.75 173.075 lineto
DashesProc stroke
 newpath  98.75 173.075 moveto
 156.5 200.904 lineto
 272 178.233 lineto
 503 185.956 lineto
DashesProc stroke
1 setlinewidth
[ ] 0 setdash

/DrawSymbolProc {
  0 1 0.0627451 SetBgColor
  Fill
  0 1 0.0627451 SetFgColor
  stroke
} def

41 177.19 3 Ci
98.75 173.075 3 Ci
156.5 200.904 3 Ci
272 178.233 3 Ci
503 185.956 3 Ci

% Element "16"

0 setlinejoin
0 setlinecap
0 1 0.52549 SetFgColor
1 setlinewidth
[ ] 0 setdash
/DashesProc {} def
/DashesProc {} def
 newpath 41 146.188 moveto
 98.75 173.317 lineto
DashesProc stroke
 newpath  98.75 173.317 moveto
 156.5 145.808 lineto
 272 173.123 lineto
 503 193.63 lineto
DashesProc stroke
1 setlinewidth
[ ] 0 setdash

/DrawSymbolProc {
  0 1 0.52549 SetBgColor
  Fill
  0 1 0.52549 SetFgColor
  stroke
} def

41 146.188 3 Ci
98.75 173.317 3 Ci
156.5 145.808 3 Ci
272 173.123 3 Ci
503 193.63 3 Ci

% Element "15"

0 setlinejoin
0 setlinecap
0 1 0.0627451 SetFgColor
1 setlinewidth
[ ] 0 setdash
/DashesProc {} def
/DashesProc {} def
 newpath 41 161.759 moveto
 98.75 199.816 lineto
DashesProc stroke
 newpath  98.75 199.816 moveto
 156.5 169.205 lineto
 272 197.335 lineto
 503 184.963 lineto
DashesProc stroke
1 setlinewidth
[ ] 0 setdash

/DrawSymbolProc {
  0 1 0.0627451 SetBgColor
  Fill
  0 1 0.0627451 SetFgColor
  stroke
} def

41 161.759 3 Ci
98.75 199.816 3 Ci
156.5 169.205 3 Ci
272 197.335 3 Ci
503 184.963 3 Ci

% Element "14"

0 setlinejoin
0 setlinecap
0.0627451 1 0 SetFgColor
1 setlinewidth
[ ] 0 setdash
/DashesProc {} def
/DashesProc {} def
 newpath 41 186.281 moveto
 98.75 191.46 lineto
DashesProc stroke
 newpath  98.75 191.46 moveto
 156.5 199.439 lineto
 272 187.139 lineto
 503 175.577 lineto
DashesProc stroke
1 setlinewidth
[ ] 0 setdash

/DrawSymbolProc {
  0.0627451 1 0 SetBgColor
  Fill
  0.0627451 1 0 SetFgColor
  stroke
} def

41 186.281 3 Ci
98.75 191.46 3 Ci
156.5 199.439 3 Ci
272 187.139 3 Ci
503 175.577 3 Ci

% Element "13"

0 setlinejoin
0 setlinecap
0 1 0.47451 SetFgColor
1 setlinewidth
[ ] 0 setdash
/DashesProc {} def
/DashesProc {} def
 newpath 41 143.501 moveto
 98.75 174.912 lineto
DashesProc stroke
 newpath  98.75 174.912 moveto
 156.5 167.683 lineto
 272 179.741 lineto
 503 171.393 lineto
DashesProc stroke
1 setlinewidth
[ ] 0 setdash

/DrawSymbolProc {
  0 1 0.47451 SetBgColor
  Fill
  0 1 0.47451 SetFgColor
  stroke
} def

41 143.501 3 Ci
98.75 174.912 3 Ci
156.5 167.683 3 Ci
272 179.741 3 Ci
503 171.393 3 Ci

% Element "12"

0 setlinejoin
0 setlinecap
0 1 0.443137 SetFgColor
1 setlinewidth
[ ] 0 setdash
/DashesProc {} def
/DashesProc {} def
 newpath 41 158.284 moveto
 98.75 190.029 lineto
DashesProc stroke
 newpath  98.75 190.029 moveto
 156.5 162.74 lineto
 272 169.039 lineto
 503 161.038 lineto
DashesProc stroke
1 setlinewidth
[ ] 0 setdash

/DrawSymbolProc {
  0 1 0.443137 SetBgColor
  Fill
  0 1 0.443137 SetFgColor
  stroke
} def

41 158.284 3 Ci
98.75 190.029 3 Ci
156.5 162.74 3 Ci
272 169.039 3 Ci
503 161.038 3 Ci

% Element "11"

0 setlinejoin
0 setlinecap
0 1 0.411765 SetFgColor
1 setlinewidth
[ ] 0 setdash
/DashesProc {} def
/DashesProc {} def
 newpath 41 148.79 moveto
 98.75 195.373 lineto
DashesProc stroke
 newpath  98.75 195.373 moveto
 156.5 161.685 lineto
 272 167.691 lineto
 503 178.208 lineto
DashesProc stroke
1 setlinewidth
[ ] 0 setdash

/DrawSymbolProc {
  0 1 0.411765 SetBgColor
  Fill
  0 1 0.411765 SetFgColor
  stroke
} def

41 148.79 3 Ci
98.75 195.373 3 Ci
156.5 161.685 3 Ci
272 167.691 3 Ci
503 178.208 3 Ci

% Element "10"

0 setlinejoin
0 setlinecap
0 1 0.219608 SetFgColor
1 setlinewidth
[ ] 0 setdash
/DashesProc {} def
/DashesProc {} def
 newpath 41 195.594 moveto
 98.75 139.119 lineto
DashesProc stroke
 newpath  98.75 139.119 moveto
 156.5 184.276 lineto
 272 167.671 lineto
 503 197.555 lineto
DashesProc stroke
1 setlinewidth
[ ] 0 setdash

/DrawSymbolProc {
  0 1 0.219608 SetBgColor
  Fill
  0 1 0.219608 SetFgColor
  stroke
} def

41 195.594 3 Ci
98.75 139.119 3 Ci
156.5 184.276 3 Ci
272 167.671 3 Ci
503 197.555 3 Ci

% Element "9"

0 setlinejoin
0 setlinecap
0 1 0.52549 SetFgColor
1 setlinewidth
[ ] 0 setdash
/DashesProc {} def
/DashesProc {} def
 newpath 41 159.801 moveto
 98.75 178.193 lineto
DashesProc stroke
 newpath  98.75 178.193 moveto
 156.5 141.396 lineto
 272 167.661 lineto
 503 182.601 lineto
DashesProc stroke
1 setlinewidth
[ ] 0 setdash

/DrawSymbolProc {
  0 1 0.52549 SetBgColor
  Fill
  0 1 0.52549 SetFgColor
  stroke
} def

41 159.801 3 Ci
98.75 178.193 3 Ci
156.5 141.396 3 Ci
272 167.661 3 Ci
503 182.601 3 Ci

% Element "8"

0 setlinejoin
0 setlinecap
0 1 0.556863 SetFgColor
1 setlinewidth
[ ] 0 setdash
/DashesProc {} def
/DashesProc {} def
 newpath 41 136.764 moveto
 98.75 184.211 lineto
DashesProc stroke
 newpath  98.75 184.211 moveto
 156.5 163.726 lineto
 272 158.278 lineto
 503 182.129 lineto
DashesProc stroke
1 setlinewidth
[ ] 0 setdash

/DrawSymbolProc {
  0 1 0.556863 SetBgColor
  Fill
  0 1 0.556863 SetFgColor
  stroke
} def

41 136.764 3 Ci
98.75 184.211 3 Ci
156.5 163.726 3 Ci
272 158.278 3 Ci
503 182.129 3 Ci

% Element "7"

0 setlinejoin
0 setlinecap
0 1 0 SetFgColor
1 setlinewidth
[ ] 0 setdash
/DashesProc {} def
/DashesProc {} def
 newpath 41 178.45 moveto
 98.75 198.548 lineto
DashesProc stroke
 newpath  98.75 198.548 moveto
 156.5 164.598 lineto
 272 189.681 lineto
 503 193.243 lineto
DashesProc stroke
1 setlinewidth
[ ] 0 setdash

/DrawSymbolProc {
  0 1 0 SetBgColor
  Fill
  0 1 0 SetFgColor
  stroke
} def

41 178.45 3 Ci
98.75 198.548 3 Ci
156.5 164.598 3 Ci
272 189.681 3 Ci
503 193.243 3 Ci

% Element "6"

0 setlinejoin
0 setlinecap
0 1 0.411765 SetFgColor
1 setlinewidth
[ ] 0 setdash
/DashesProc {} def
/DashesProc {} def
 newpath 41 162.174 moveto
 98.75 153.482 lineto
DashesProc stroke
 newpath  98.75 153.482 moveto
 156.5 165.607 lineto
 272 183.369 lineto
 503 185.228 lineto
DashesProc stroke
1 setlinewidth
[ ] 0 setdash

/DrawSymbolProc {
  0 1 0.411765 SetBgColor
  Fill
  0 1 0.411765 SetFgColor
  stroke
} def

41 162.174 3 Ci
98.75 153.482 3 Ci
156.5 165.607 3 Ci
272 183.369 3 Ci
503 185.228 3 Ci

% Element "5"

0 setlinejoin
0 setlinecap
0.12549 1 0 SetFgColor
1 setlinewidth
[ ] 0 setdash
/DashesProc {} def
/DashesProc {} def
 newpath 41 179.241 moveto
 98.75 201.199 lineto
DashesProc stroke
 newpath  98.75 201.199 moveto
 156.5 189.023 lineto
 272 196.366 lineto
 503 185.392 lineto
DashesProc stroke
1 setlinewidth
[ ] 0 setdash

/DrawSymbolProc {
  0.12549 1 0 SetBgColor
  Fill
  0.12549 1 0 SetFgColor
  stroke
} def

41 179.241 3 Ci
98.75 201.199 3 Ci
156.5 189.023 3 Ci
272 196.366 3 Ci
503 185.392 3 Ci

% Element "4"

0 setlinejoin
0 setlinecap
0 1 0.286275 SetFgColor
1 setlinewidth
[ ] 0 setdash
/DashesProc {} def
/DashesProc {} def
 newpath 41 197.976 moveto
 98.75 176.646 lineto
DashesProc stroke
 newpath  98.75 176.646 moveto
 156.5 138.912 lineto
 272 184.644 lineto
 503 174.715 lineto
DashesProc stroke
1 setlinewidth
[ ] 0 setdash

/DrawSymbolProc {
  0 1 0.286275 SetBgColor
  Fill
  0 1 0.286275 SetFgColor
  stroke
} def

41 197.976 3 Ci
98.75 176.646 3 Ci
156.5 138.912 3 Ci
272 184.644 3 Ci
503 174.715 3 Ci

% Element "3"

0 setlinejoin
0 setlinecap
0 1 0.219608 SetFgColor
1 setlinewidth
[ ] 0 setdash
/DashesProc {} def
/DashesProc {} def
 newpath 41 195.063 moveto
 98.75 194.867 lineto
DashesProc stroke
 newpath  98.75 194.867 moveto
 156.5 146.586 lineto
 272 172.786 lineto
 503 180.255 lineto
DashesProc stroke
1 setlinewidth
[ ] 0 setdash

/DrawSymbolProc {
  0 1 0.219608 SetBgColor
  Fill
  0 1 0.219608 SetFgColor
  stroke
} def

41 195.063 3 Ci
98.75 194.867 3 Ci
156.5 146.586 3 Ci
272 172.786 3 Ci
503 180.255 3 Ci

% Element "2"

0 setlinejoin
0 setlinecap
0 1 0 SetFgColor
1 setlinewidth
[ ] 0 setdash
/DashesProc {} def
/DashesProc {} def
 newpath 41 200.352 moveto
 98.75 188.589 lineto
DashesProc stroke
 newpath  98.75 188.589 moveto
 156.5 185.386 lineto
 272 182.554 lineto
 503 173.362 lineto
DashesProc stroke
1 setlinewidth
[ ] 0 setdash

/DrawSymbolProc {
  0 1 0 SetBgColor
  Fill
  0 1 0 SetFgColor
  stroke
} def

41 200.352 3 Ci
98.75 188.589 3 Ci
156.5 185.386 3 Ci
272 182.554 3 Ci
503 173.362 3 Ci

% Element "1"

0 setlinejoin
0 setlinecap
0.0313725 1 0 SetFgColor
1 setlinewidth
[ ] 0 setdash
/DashesProc {} def
/DashesProc {} def
 newpath 41 179.577 moveto
 98.75 173.447 lineto
DashesProc stroke
 newpath  98.75 173.447 moveto
 156.5 204.823 lineto
 272 195.249 lineto
 503 182.265 lineto
DashesProc stroke
1 setlinewidth
[ ] 0 setdash

/DrawSymbolProc {
  0.0313725 1 0 SetBgColor
  Fill
  0.0313725 1 0 SetFgColor
  stroke
} def

41 179.577 3 Ci
98.75 173.447 3 Ci
156.5 204.823 3 Ci
272 195.249 3 Ci
503 182.265 3 Ci

% Element "0"

0 setlinejoin
0 setlinecap
0 1 0.380392 SetFgColor
1 setlinewidth
[ ] 0 setdash
/DashesProc {} def
/DashesProc {} def
 newpath 41 161.414 moveto
 98.75 162.655 lineto
DashesProc stroke
 newpath  98.75 162.655 moveto
 156.5 189.921 lineto
 272 174.607 lineto
 503 166.373 lineto
DashesProc stroke
1 setlinewidth
[ ] 0 setdash

/DrawSymbolProc {
  0 1 0.380392 SetBgColor
  Fill
  0 1 0.380392 SetFgColor
  stroke
} def

41 161.414 3 Ci
98.75 162.655 3 Ci
156.5 189.921 3 Ci
272 174.607 3 Ci
503 166.373 3 Ci

% Unset clipping
grestore

0.843137 0.858824 0.843137 SetBgColor
0 0 519 8 Box fill

0 8 33 345 Box fill

511 8 8 345 Box fill

0 353 519 31 Box fill

1 1 1 SetBgColor
31 353 482 2 Box fill

511 6 2 349 Box fill

0.52549 0.509804 0.52549 SetBgColor
newpath 31 355 moveto
31 6 lineto
513 6 lineto
511 8 lineto
33 8 lineto
33 353 lineto
31 355 lineto
31 355  lineto closepath Fill
10 12 0 41 374 BeginText
10 /Helvetica SetFont
0 0 0 SetFgColor
(0) 6 2 10 DrawAdjText
EndText
22 12 0 233.5 374 BeginText
10 /Helvetica SetFont
0 0 0 SetFgColor
(100) 18 2 10 DrawAdjText
EndText
22 12 0 426 374 BeginText
10 /Helvetica SetFont
0 0 0 SetFgColor
(200) 18 2 10 DrawAdjText
EndText
0 setlinejoin
0 setlinecap
0 0 0 SetFgColor
1 setlinewidth
[ ] 0 setdash
/DashesProc {} def
41 358 moveto
 503 358 lineto
DashesProc stroke
137.25 358 moveto
 137.25 363 lineto
DashesProc stroke
41 358 moveto
 41 366 lineto
DashesProc stroke
329.75 358 moveto
 329.75 363 lineto
DashesProc stroke
233.5 358 moveto
 233.5 366 lineto
DashesProc stroke
426 358 moveto
 426 366 lineto
DashesProc stroke
14 12 0 11 310.457 BeginText
10 /Helvetica SetFont
0 0 0 SetFgColor
(-4) 10 2 10 DrawAdjText
EndText
14 12 0 11 244.531 BeginText
10 /Helvetica SetFont
0 0 0 SetFgColor
(-2) 10 2 10 DrawAdjText
EndText
10 12 0 13 178.605 BeginText
10 /Helvetica SetFont
0 0 0 SetFgColor
(0) 6 2 10 DrawAdjText
EndText
10 12 0 13 112.679 BeginText
10 /Helvetica SetFont
0 0 0 SetFgColor
(2) 6 2 10 DrawAdjText
EndText
10 12 0 13 46.7538 BeginText
10 /Helvetica SetFont
0 0 0 SetFgColor
(4) 6 2 10 DrawAdjText
EndText
0 setlinejoin
0 setlinecap
0 0 0 SetFgColor
1 setlinewidth
[ ] 0 setdash
/DashesProc {} def
28 345 moveto
 28 16 lineto
DashesProc stroke
28 343.42 moveto
 23 343.42 lineto
DashesProc stroke
28 277.494 moveto
 23 277.494 lineto
DashesProc stroke
28 310.457 moveto
 20 310.457 lineto
DashesProc stroke
28 211.568 moveto
 23 211.568 lineto
DashesProc stroke
28 244.531 moveto
 20 244.531 lineto
DashesProc stroke
28 145.642 moveto
 23 145.642 lineto
DashesProc stroke
28 178.605 moveto
 20 178.605 lineto
DashesProc stroke
28 79.7166 moveto
 23 79.7166 lineto
DashesProc stroke
28 112.679 moveto
 20 112.679 lineto
DashesProc stroke
28 46.7538 moveto
 20 46.7538 lineto
DashesProc stroke
showpage
%Trailer
grestore
end
%EOF
