1 
1 
6 
5 
5 
1 
3 
2 
3 
2 
6 
5 
5 
2 
2 
2 
1 
6 
5 
2 
2 
2 
5 
6 
6 
4 
4 
5 
1 
4 
5 
5 
1 
4 
1 
1 
3 
4 
2 
2 
5 
1 
3 
1 
2 
1 
5 
6 
1 
6 
3 
2 
6 
6 
2 
5 
4 
3 
4 
6 
1 
1 
5 
2 
2 
5 
1 
6 
4 
1 
2 
6 
3 
4 
2 
